<?xml version="1.0" encoding="UTF-8" standalone="no"?>
<!-- Created with Inkscape (http://www.inkscape.org/) -->

<svg
   xmlns:dc="http://purl.org/dc/elements/1.1/"
   xmlns:cc="http://creativecommons.org/ns#"
   xmlns:rdf="http://www.w3.org/1999/02/22-rdf-syntax-ns#"
   xmlns:svg="http://www.w3.org/2000/svg"
   xmlns="http://www.w3.org/2000/svg"
   xmlns:sodipodi="http://sodipodi.sourceforge.net/DTD/sodipodi-0.dtd"
   xmlns:inkscape="http://www.inkscape.org/namespaces/inkscape"
   width="192.96715"
   height="63.47921"
   id="svg23581"
   version="1.1"
   inkscape:version="0.48.2 r9819"
   sodipodi:docname="opamp_feedback_ex1.svg">
  <sodipodi:namedview
     id="base"
     pagecolor="#ffffff"
     bordercolor="#666666"
     borderopacity="1.0"
     inkscape:pageopacity="0.0"
     inkscape:pageshadow="2"
     inkscape:zoom="5.6"
     inkscape:cx="110.14736"
     inkscape:cy="32.70803"
     inkscape:document-units="px"
     inkscape:current-layer="layer1"
     showgrid="false"
     fit-margin-top="0"
     fit-margin-left="0"
     fit-margin-right="0"
     fit-margin-bottom="0"
     inkscape:window-width="1680"
     inkscape:window-height="988"
     inkscape:window-x="1672"
     inkscape:window-y="-8"
     inkscape:window-maximized="1" />
  <defs
     id="defs23583"><marker
   inkscape:stockid="Arrow2Mend"
   orient="auto"
   refY="0"
   refX="0"
   id="Arrow2Mend"
   style="overflow:visible">
  <path
     id="path4060"
     style="font-size:12px;fill-rule:evenodd;stroke-width:0.625;stroke-linejoin:round"
     d="M 8.7185878,4.0337352 -2.2072895,0.01601326 8.7185884,-4.0017078 c -1.7454984,2.3720609 -1.7354408,5.6174519 -6e-7,8.035443 z"
     transform="scale(-0.6,-0.6)"
     inkscape:connector-curvature="0" />
</marker>
<marker
   style="overflow:visible"
   id="Arrow2Send"
   refX="0"
   refY="0"
   orient="auto"
   inkscape:stockid="Arrow2Send">
  <path
     transform="matrix(-0.3,0,0,-0.3,0.69,0)"
     d="M 8.7185878,4.0337352 -2.2072895,0.01601326 8.7185884,-4.0017078 c -1.7454984,2.3720609 -1.7354408,5.6174519 -6e-7,8.035443 z"
     style="font-size:12px;fill-rule:evenodd;stroke-width:0.625;stroke-linejoin:round"
     id="path9574"
     inkscape:connector-curvature="0" />
</marker>
<marker
   style="overflow:visible"
   id="marker23531"
   refX="0"
   refY="0"
   orient="auto"
   inkscape:stockid="Arrow2Send">
  <path
     transform="matrix(-0.3,0,0,-0.3,0.69,0)"
     d="M 8.7185878,4.0337352 -2.2072895,0.01601326 8.7185884,-4.0017078 c -1.7454984,2.3720609 -1.7354408,5.6174519 -6e-7,8.035443 z"
     style="font-size:12px;fill-rule:evenodd;stroke-width:0.625;stroke-linejoin:round"
     id="path23533"
     inkscape:connector-curvature="0" />
</marker>
<marker
   style="overflow:visible"
   id="marker23535"
   refX="0"
   refY="0"
   orient="auto"
   inkscape:stockid="Arrow2Send">
  <path
     transform="matrix(-0.3,0,0,-0.3,0.69,0)"
     d="M 8.7185878,4.0337352 -2.2072895,0.01601326 8.7185884,-4.0017078 c -1.7454984,2.3720609 -1.7354408,5.6174519 -6e-7,8.035443 z"
     style="font-size:12px;fill-rule:evenodd;stroke-width:0.625;stroke-linejoin:round"
     id="path23537"
     inkscape:connector-curvature="0" />
</marker>





















<marker
   inkscape:stockid="Arrow2Mend"
   orient="auto"
   refY="0"
   refX="0"
   id="Arrow2Mend-1"
   style="overflow:visible">
  <path
     inkscape:connector-curvature="0"
     id="path4060-7"
     style="font-size:12px;fill-rule:evenodd;stroke-width:0.625;stroke-linejoin:round"
     d="M 8.7185878,4.0337352 -2.2072895,0.01601326 8.7185884,-4.0017078 c -1.7454984,2.3720609 -1.7354408,5.6174519 -6e-7,8.035443 z"
     transform="scale(-0.6,-0.6)" />
</marker>
<marker
   inkscape:stockid="Arrow2Mend"
   orient="auto"
   refY="0"
   refX="0"
   id="Arrow2Mend-0"
   style="overflow:visible">
  <path
     inkscape:connector-curvature="0"
     id="path4060-9"
     style="font-size:12px;fill-rule:evenodd;stroke-width:0.625;stroke-linejoin:round"
     d="M 8.7185878,4.0337352 -2.2072895,0.01601326 8.7185884,-4.0017078 c -1.7454984,2.3720609 -1.7354408,5.6174519 -6e-7,8.035443 z"
     transform="scale(-0.6,-0.6)" />
</marker>
</defs>
  <metadata
     id="metadata23586">
    <rdf:RDF>
      <cc:Work
         rdf:about="">
        <dc:format>image/svg+xml</dc:format>
        <dc:type
           rdf:resource="http://purl.org/dc/dcmitype/StillImage" />
        <dc:title />
      </cc:Work>
    </rdf:RDF>
  </metadata>
  <g
     transform="translate(-296.10143,-383.47972)"
     id="layer1"
     inkscape:groupmode="layer"
     inkscape:label="Layer 1">
    <g
       id="g16818"
       transform="matrix(1,0,0,-1,-59.331783,483.11568)">
      <path
         style="fill:none;stroke:#000000;stroke-width:1;stroke-linecap:round;stroke-linejoin:round;stroke-miterlimit:4;stroke-opacity:1;stroke-dasharray:none"
         d="m 464.31,51.301298 3.54331,0"
         id="path50397-1"
         inkscape:connector-curvature="0" />
      <path
         style="fill:none;stroke:#000000;stroke-width:1;stroke-linecap:round;stroke-linejoin:round;stroke-miterlimit:4;stroke-opacity:1;stroke-dasharray:none"
         d="m 466.08166,53.072958 0,-3.54331"
         id="path50399-7"
         inkscape:connector-curvature="0" />
      <path
         style="fill:none;stroke:#000000;stroke-width:1;stroke-linecap:round;stroke-linejoin:round;stroke-miterlimit:4;stroke-opacity:1;stroke-dasharray:none"
         d="m 464.31001,69.017838 3.54331,0"
         id="path50401-4"
         inkscape:connector-curvature="0" />
      <path
         style="fill:none;stroke:#000000;stroke-width:1;stroke-linecap:butt;stroke-linejoin:round;stroke-miterlimit:4;stroke-opacity:1;stroke-dasharray:none"
         d="m 460.72026,81.389148 0,-42.41279 39.19004,21.20639 -39.19004,21.2064"
         id="path50403-0"
         inkscape:connector-curvature="0" />
      <path
         style="fill:none;stroke:#000000;stroke-width:1;stroke-linecap:butt;stroke-linejoin:miter;stroke-miterlimit:4;stroke-opacity:1;stroke-dasharray:none"
         d="m 460.76669,69.017838 -8.85825,0"
         id="path50405-9"
         inkscape:connector-curvature="0" />
      <path
         style="fill:none;stroke:#000000;stroke-width:1;stroke-linecap:butt;stroke-linejoin:miter;stroke-miterlimit:4;stroke-opacity:1;stroke-dasharray:none"
         d="m 460.7667,51.301308 -8.85825,0"
         id="path50407-4"
         inkscape:connector-curvature="0" />
      <path
         style="fill:none;stroke:#000000;stroke-width:1;stroke-linecap:square;stroke-linejoin:miter;stroke-miterlimit:4;stroke-opacity:1;stroke-dasharray:none"
         d="m 500.0172,60.092218 8.85827,0"
         id="path50415-8"
         inkscape:connector-curvature="0" />
    </g>
    <path
       inkscape:connector-curvature="0"
       sodipodi:nodetypes="cccccccccc"
       id="path45546-4-82"
       d="m 364.2302,414.09784 3.5433,0 1.77165,-3.54331 3.54331,7.08662 3.54331,-7.08662 3.54331,7.08662 3.5433,-7.08662 3.54331,7.08662 1.77165,-3.54331 3.54332,0"
       style="fill:none;stroke:#000000;stroke-width:1;stroke-linecap:butt;stroke-linejoin:round;stroke-miterlimit:4;stroke-opacity:1;stroke-dasharray:none" />
    <path
       inkscape:connector-curvature="0"
       sodipodi:nodetypes="cccccccccc"
       id="path45546-4-45"
       d="m 403.20659,387.52303 3.5433,0 1.77165,-3.54331 3.54331,7.08662 3.54331,-7.08662 3.54331,7.08662 3.5433,-7.08662 3.54331,7.08662 1.77165,-3.54331 3.54332,0"
       style="fill:none;stroke:#000000;stroke-width:1;stroke-linecap:butt;stroke-linejoin:round;stroke-miterlimit:4;stroke-opacity:1;stroke-dasharray:none" />
    <g
       transform="translate(179.20286,100.51517)"
       id="g4215-5">
      <path
         sodipodi:type="arc"
         style="fill:none;stroke:#000000;stroke-width:1;stroke-linecap:round;stroke-linejoin:round;stroke-miterlimit:4;stroke-opacity:1;stroke-dasharray:none"
         id="path7917-2"
         sodipodi:cx="168.30708"
         sodipodi:cy="237.40155"
         sodipodi:rx="8.8582678"
         sodipodi:ry="8.8582678"
         d="m 177.16535,237.40155 c 0,4.89229 -3.96598,8.85827 -8.85827,8.85827 -4.89228,0 -8.85826,-3.96598 -8.85826,-8.85827 0,-4.89229 3.96598,-8.85827 8.85826,-8.85827 4.89229,0 8.85827,3.96598 8.85827,8.85827 z"
         transform="translate(0.7753808,88.582676)" />
      <path
         inkscape:connector-curvature="0"
         style="fill:none;stroke:#000000;stroke-width:1;stroke-linecap:butt;stroke-linejoin:miter;stroke-miterlimit:4;stroke-opacity:1;stroke-dasharray:none"
         d="m 163.7675,329.52754 10.62992,0"
         id="path7919-76" />
      <path
         inkscape:connector-curvature="0"
         style="fill:none;stroke:#000000;stroke-width:1;stroke-linecap:butt;stroke-linejoin:miter;stroke-miterlimit:4;stroke-opacity:1;stroke-dasharray:none;marker-end:url(#Arrow2Send)"
         d="m 165.53916,329.52754 0,-7.08662"
         id="path7921-14"
         sodipodi:nodetypes="cc" />
      <path
         inkscape:connector-curvature="0"
         style="fill:none;stroke:#000000;stroke-width:1;stroke-linecap:butt;stroke-linejoin:miter;stroke-miterlimit:4;stroke-opacity:1;stroke-dasharray:none;marker-end:url(#Arrow2Send)"
         d="m 169.08246,329.52754 0,-7.08662"
         id="path7923-23"
         sodipodi:nodetypes="cc" />
      <path
         inkscape:connector-curvature="0"
         style="fill:none;stroke:#000000;stroke-width:1;stroke-linecap:butt;stroke-linejoin:miter;stroke-miterlimit:4;stroke-opacity:1;stroke-dasharray:none;marker-end:url(#Arrow2Send)"
         d="m 172.62577,329.52754 0,-7.08662"
         id="path7925-2"
         sodipodi:nodetypes="cc" />
    </g>
    <g
       transform="translate(250.84438,331.20514)"
       id="g3602-21">
      <path
         inkscape:connector-curvature="0"
         style="fill:none;stroke:#000000;stroke-width:1;stroke-linecap:round;stroke-linejoin:miter;stroke-miterlimit:4;stroke-opacity:1;stroke-dasharray:none"
         d="m 92.12598,109.8425 10.62992,0"
         id="path46259-68" />
      <path
         inkscape:connector-curvature="0"
         style="fill:none;stroke:#000000;stroke-width:1;stroke-linecap:round;stroke-linejoin:miter;stroke-miterlimit:4;stroke-opacity:1;stroke-dasharray:none"
         d="m 93.89763,111.61437 7.08661,0"
         id="path46261-57" />
      <path
         inkscape:connector-curvature="0"
         style="fill:none;stroke:#000000;stroke-width:1;stroke-linecap:round;stroke-linejoin:miter;stroke-miterlimit:4;stroke-opacity:1;stroke-dasharray:none"
         d="m 95.66928,113.38581 3.54331,0"
         id="path46263-6" />
      <path
         inkscape:connector-curvature="0"
         style="fill:none;stroke:#000000;stroke-width:1;stroke-linecap:butt;stroke-linejoin:miter;stroke-miterlimit:4;stroke-opacity:1;stroke-dasharray:none"
         d="m 97.44094,109.4675 0,-5.31496"
         id="path46265-18" />
    </g>
    <g
       transform="translate(295.13572,327.66183)"
       id="g3602-9">
      <path
         inkscape:connector-curvature="0"
         style="fill:none;stroke:#000000;stroke-width:1;stroke-linecap:round;stroke-linejoin:miter;stroke-miterlimit:4;stroke-opacity:1;stroke-dasharray:none"
         d="m 92.12598,109.8425 10.62992,0"
         id="path46259-2" />
      <path
         inkscape:connector-curvature="0"
         style="fill:none;stroke:#000000;stroke-width:1;stroke-linecap:round;stroke-linejoin:miter;stroke-miterlimit:4;stroke-opacity:1;stroke-dasharray:none"
         d="m 93.89763,111.61437 7.08661,0"
         id="path46261-79" />
      <path
         inkscape:connector-curvature="0"
         style="fill:none;stroke:#000000;stroke-width:1;stroke-linecap:round;stroke-linejoin:miter;stroke-miterlimit:4;stroke-opacity:1;stroke-dasharray:none"
         d="m 95.66928,113.38581 3.54331,0"
         id="path46263-54" />
      <path
         inkscape:connector-curvature="0"
         style="fill:none;stroke:#000000;stroke-width:1;stroke-linecap:butt;stroke-linejoin:miter;stroke-miterlimit:4;stroke-opacity:1;stroke-dasharray:none"
         d="m 97.44094,109.4675 0,-5.31496"
         id="path46265-31" />
    </g>
    <g
       transform="translate(387.53583,389.39104)"
       id="g6809-23">
      <g
         id="g3285-34">
        <g
           id="g3586-11">
          <path
             inkscape:connector-curvature="0"
             style="fill:none;stroke:#000000;stroke-width:1;stroke-linecap:butt;stroke-linejoin:miter;stroke-miterlimit:4;stroke-opacity:1;stroke-dasharray:none"
             d="m 62.00786,33.63242 0,7.35827"
             id="path45526-38" />
          <path
             inkscape:connector-curvature="0"
             style="fill:none;stroke:#000000;stroke-width:1;stroke-linecap:butt;stroke-linejoin:miter;stroke-miterlimit:4;stroke-opacity:1;stroke-dasharray:none"
             d="m 62.00786,44.29111 0,7.0866"
             id="path45528-74" />
          <path
             inkscape:connector-curvature="0"
             style="fill:none;stroke:#000000;stroke-width:1;stroke-linecap:round;stroke-linejoin:miter;stroke-miterlimit:4;stroke-opacity:1;stroke-dasharray:none"
             d="m 67.32282,40.74779 -10.62993,0"
             id="path45530-27" />
          <path
             inkscape:connector-curvature="0"
             style="fill:none;stroke:#000000;stroke-width:1;stroke-linecap:round;stroke-linejoin:miter;stroke-miterlimit:4;stroke-opacity:1;stroke-dasharray:none"
             d="m 67.32283,44.29109 -10.62993,0"
             id="path45532-79" />
        </g>
        <path
           inkscape:connector-curvature="0"
           id="path49999-3"
           d="m 62.007874,51.377931 0,-3.54331"
           style="fill:none;stroke:#000000;stroke-width:1;stroke-linecap:butt;stroke-linejoin:miter;stroke-miterlimit:4;stroke-opacity:1;stroke-dasharray:none" />
      </g>
    </g>
    <g
       transform="translate(352.10276,333.07312)"
       id="g3602-9-6">
      <path
         inkscape:connector-curvature="0"
         style="fill:none;stroke:#000000;stroke-width:1;stroke-linecap:round;stroke-linejoin:miter;stroke-miterlimit:4;stroke-opacity:1;stroke-dasharray:none"
         d="m 92.12598,109.8425 10.62992,0"
         id="path46259-2-5" />
      <path
         inkscape:connector-curvature="0"
         style="fill:none;stroke:#000000;stroke-width:1;stroke-linecap:round;stroke-linejoin:miter;stroke-miterlimit:4;stroke-opacity:1;stroke-dasharray:none"
         d="m 93.89763,111.61437 7.08661,0"
         id="path46261-79-0" />
      <path
         inkscape:connector-curvature="0"
         style="fill:none;stroke:#000000;stroke-width:1;stroke-linecap:round;stroke-linejoin:miter;stroke-miterlimit:4;stroke-opacity:1;stroke-dasharray:none"
         d="m 95.66928,113.38581 3.54331,0"
         id="path46263-54-9" />
      <path
         inkscape:connector-curvature="0"
         style="fill:none;stroke:#000000;stroke-width:1;stroke-linecap:butt;stroke-linejoin:miter;stroke-miterlimit:4;stroke-opacity:1;stroke-dasharray:none"
         d="m 97.44094,109.4675 0,-5.31496"
         id="path46265-31-0" />
    </g>
    <path
       style="fill:none;stroke:#000000;stroke-width:1px;stroke-linecap:butt;stroke-linejoin:miter;stroke-opacity:1"
       d="m 348.28532,417.64114 0,-3.5433 15.94488,0"
       id="path16827"
       inkscape:connector-curvature="0" />
    <path
       style="fill:none;stroke:#000000;stroke-width:1px;stroke-linecap:butt;stroke-linejoin:miter;stroke-opacity:1"
       d="m 394.34831,414.09784 0,-26.57481 8.85827,0"
       id="path16829"
       inkscape:connector-curvature="0" />
    <path
       style="fill:none;stroke:#000000;stroke-width:1px;stroke-linecap:butt;stroke-linejoin:miter;stroke-opacity:1"
       d="m 431.55304,387.52303 17.71653,0 0.27412,35.50043 0,0"
       id="path16831"
       inkscape:connector-curvature="0" />
    <g
       id="g3216"
       transform="translate(-47.678571,69.642857)">
      <path
         id="path3084"
         d="m 347.76,332.3571 0.09,-0.03 0.09,-0.02 0.09,-0.03 0.08,-0.03 0.09,-0.03 0.08,-0.03 0.08,-0.04 0.08,-0.04 0.08,-0.04 0.07,-0.04 0.07,-0.04 0.07,-0.05 0.07,-0.04 0.07,-0.05 0.06,-0.05 0.06,-0.05 0.06,-0.05 0.05,-0.06 0.06,-0.05 0.04,-0.06 0.05,-0.06 0.04,-0.06 0.04,-0.06 0.03,-0.07 0.04,-0.06 0.02,-0.07 0.03,-0.06 0.02,-0.07 0.01,-0.07 0.01,-0.07 0.01,-0.07 0,-0.07 c 0,-0.96 -1.13,-1.79 -2.6,-1.79 h -3.12 v 0.31 h 0.24 c 0.77,0 0.78,0.11 0.78,0.46 v 5.24 c 0,0.36 -0.01,0.47 -0.78,0.47 h -0.24 v 0.3 c 0.36,-0.03 1.07,-0.03 1.45,-0.03 0.39,0 1.1,0 1.45,0.03 v -0.3 h -0.23 c -0.77,0 -0.79,-0.11 -0.79,-0.47 v -2.51 -0.22 -2.58 c 0,-0.22 0,-0.34 0.22,-0.37 0.1,-0.02 0.39,-0.02 0.59,-0.02 0.89,0 2.01,0.04 2.01,1.48 0,0.68 -0.24,1.49 -1.72,1.49 h -1.1 v 0.22 h 1.14 c 0.16,0 0.58,0 0.93,0.33 0.38,0.36 0.38,0.67 0.38,1.34 0,0.64 0,1.04 0.41,1.42 0.4,0.35 0.95,0.41 1.25,0.41 0.78,0 0.94,-0.81 0.94,-1.09 0,-0.06 0,-0.17 -0.12,-0.17 -0.11,0 -0.11,0.09 -0.12,0.16 -0.06,0.71 -0.41,0.88 -0.66,0.88 -0.49,0 -0.57,-0.5 -0.71,-1.42 l -0.13,-0.8 c -0.18,-0.64 -0.66,-0.96 -1.21,-1.15 z"
         inkscape:connector-curvature="0"
         style="font-style:normal;font-variant:normal;font-weight:normal;font-stretch:normal;letter-spacing:normal;word-spacing:normal;text-anchor:start;fill:#000000;stroke:#000000;stroke-width:0;stroke-linecap:butt;stroke-linejoin:miter;stroke-miterlimit:10.43299961;stroke-opacity:1;stroke-dasharray:none;stroke-dashoffset:0" />
      <path
         id="path3086"
         d="m 351.87,333.4371 0.01,-0.21 c 0.06,-1.48 0.89,-1.73 1.23,-1.73 1.03,0 1.13,1.34 1.13,1.73 h -2.36 l -0.01,0.21 h 2.78 c 0.22,0 0.24,0 0.24,-0.21 0,-0.98 -0.53,-1.95 -1.78,-1.95 -1.15,0 -2.07,1.03 -2.07,2.27 0,1.33 1.05,2.29 2.19,2.29 1.22,0 1.66,-1.1 1.66,-1.29 0,-0.1 -0.07,-0.12 -0.13,-0.12 -0.08,0 -0.1,0.06 -0.12,0.14 -0.35,1.03 -1.25,1.03 -1.35,1.03 -0.5,0 -0.89,-0.3 -1.12,-0.67 -0.3,-0.48 -0.3,-1.13 -0.3,-1.49 z"
         inkscape:connector-curvature="0"
         style="font-style:normal;font-variant:normal;font-weight:normal;font-stretch:normal;letter-spacing:normal;word-spacing:normal;text-anchor:start;fill:#000000;stroke:#000000;stroke-width:0;stroke-linecap:butt;stroke-linejoin:miter;stroke-miterlimit:10.43299961;stroke-opacity:1;stroke-dasharray:none;stroke-dashoffset:0" />
      <path
         id="path3088"
         d="m 356.93,331.4471 v -1.15 c 0,-0.87 0.48,-1.35 0.92,-1.35 0.03,0 0.18,0 0.33,0.07 -0.12,0.04 -0.3,0.17 -0.3,0.42 0,0.22 0.16,0.42 0.43,0.42 0.29,0 0.43,-0.2 0.43,-0.43 0,-0.37 -0.36,-0.7 -0.89,-0.7 -0.7,0 -1.54,0.53 -1.54,1.58 v 1.14 h -0.79 v 0.31 h 0.79 v 3.22 c 0,0.45 -0.11,0.45 -0.78,0.45 v 0.3 c 0.39,-0.01 0.86,-0.03 1.13,-0.03 0.4,0 0.87,0 1.27,0.03 v -0.3 h -0.21 c -0.74,0 -0.76,-0.11 -0.76,-0.47 v -3.2 h 1.14 v -0.31 z"
         inkscape:connector-curvature="0"
         style="font-style:normal;font-variant:normal;font-weight:normal;font-stretch:normal;letter-spacing:normal;word-spacing:normal;text-anchor:start;fill:#000000;stroke:#000000;stroke-width:0;stroke-linecap:butt;stroke-linejoin:miter;stroke-miterlimit:10.43299961;stroke-opacity:1;stroke-dasharray:none;stroke-dashoffset:0" />
      <path
         id="path3090"
         d="m 359.34,333.4371 0.01,-0.21 c 0.06,-1.48 0.9,-1.73 1.24,-1.73 1.02,0 1.12,1.34 1.12,1.73 h -2.36 l -0.01,0.21 h 2.78 c 0.22,0 0.25,0 0.25,-0.21 0,-0.98 -0.54,-1.95 -1.78,-1.95 -1.16,0 -2.07,1.03 -2.07,2.27 0,1.33 1.04,2.29 2.19,2.29 1.21,0 1.66,-1.1 1.66,-1.29 0,-0.1 -0.08,-0.12 -0.13,-0.12 -0.09,0 -0.11,0.06 -0.13,0.14 -0.35,1.03 -1.25,1.03 -1.35,1.03 -0.49,0 -0.89,-0.3 -1.12,-0.67 -0.3,-0.48 -0.3,-1.13 -0.3,-1.49 z"
         inkscape:connector-curvature="0"
         style="font-style:normal;font-variant:normal;font-weight:normal;font-stretch:normal;letter-spacing:normal;word-spacing:normal;text-anchor:start;fill:#000000;stroke:#000000;stroke-width:0;stroke-linecap:butt;stroke-linejoin:miter;stroke-miterlimit:10.43299961;stroke-opacity:1;stroke-dasharray:none;stroke-dashoffset:0" />
      <path
         id="path3092"
         d="m 364.33,332.4371 v -1.1 l -1.39,0.11 v 0.31 c 0.7,0 0.78,0.07 0.78,0.56 v 2.66 c 0,0.45 -0.11,0.45 -0.78,0.45 v 0.3 c 0.39,-0.01 0.86,-0.03 1.14,-0.03 0.4,0 0.86,0 1.26,0.03 v -0.3 h -0.21 c -0.73,0 -0.75,-0.11 -0.75,-0.47 v -1.53 c 0,-0.98 0.41,-1.87 1.17,-1.87 0.07,0 0.09,0 0.11,0.01 -0.03,0.01 -0.23,0.13 -0.23,0.39 0,0.28 0.21,0.43 0.43,0.43 0.18,0 0.43,-0.12 0.43,-0.44 0,-0.32 -0.31,-0.61 -0.74,-0.61 -0.73,0 -1.08,0.67 -1.22,1.1 z"
         inkscape:connector-curvature="0"
         style="font-style:normal;font-variant:normal;font-weight:normal;font-stretch:normal;letter-spacing:normal;word-spacing:normal;text-anchor:start;fill:#000000;stroke:#000000;stroke-width:0;stroke-linecap:butt;stroke-linejoin:miter;stroke-miterlimit:10.43299961;stroke-opacity:1;stroke-dasharray:none;stroke-dashoffset:0" />
      <path
         id="path3094"
         d="m 367.67,333.4371 0.01,-0.21 c 0.06,-1.48 0.9,-1.73 1.23,-1.73 1.03,0 1.13,1.34 1.13,1.73 h -2.36 l -0.01,0.21 h 2.78 c 0.22,0 0.25,0 0.25,-0.21 0,-0.98 -0.54,-1.95 -1.79,-1.95 -1.15,0 -2.06,1.03 -2.06,2.27 0,1.33 1.04,2.29 2.18,2.29 1.22,0 1.67,-1.1 1.67,-1.29 0,-0.1 -0.08,-0.12 -0.13,-0.12 -0.09,0 -0.11,0.06 -0.13,0.14 -0.35,1.03 -1.25,1.03 -1.35,1.03 -0.49,0 -0.89,-0.3 -1.12,-0.67 -0.3,-0.48 -0.3,-1.13 -0.3,-1.49 z"
         inkscape:connector-curvature="0"
         style="font-style:normal;font-variant:normal;font-weight:normal;font-stretch:normal;letter-spacing:normal;word-spacing:normal;text-anchor:start;fill:#000000;stroke:#000000;stroke-width:0;stroke-linecap:butt;stroke-linejoin:miter;stroke-miterlimit:10.43299961;stroke-opacity:1;stroke-dasharray:none;stroke-dashoffset:0" />
      <path
         id="path3096"
         d="m 372.09,332.3171 v 2.66 c 0,0.45 -0.11,0.45 -0.78,0.45 v 0.3 c 0.35,-0.01 0.86,-0.03 1.13,-0.03 0.26,0 0.77,0.02 1.11,0.03 v -0.3 c -0.67,0 -0.78,0 -0.78,-0.45 v -1.83 c 0,-1.03 0.71,-1.59 1.35,-1.59 0.62,0 0.73,0.54 0.73,1.1 v 2.32 c 0,0.45 -0.11,0.45 -0.77,0.45 v 0.3 c 0.35,-0.01 0.85,-0.03 1.12,-0.03 0.26,0 0.78,0.02 1.12,0.03 v -0.3 c -0.52,0 -0.77,0 -0.78,-0.3 v -1.9 c 0,-0.85 0,-1.16 -0.31,-1.52 -0.14,-0.17 -0.47,-0.37 -1.04,-0.37 -0.73,0 -1.2,0.43 -1.47,1.05 v -1.05 l -1.41,0.11 v 0.31 c 0.7,0 0.78,0.07 0.78,0.56 z"
         inkscape:connector-curvature="0"
         style="font-style:normal;font-variant:normal;font-weight:normal;font-stretch:normal;letter-spacing:normal;word-spacing:normal;text-anchor:start;fill:#000000;stroke:#000000;stroke-width:0;stroke-linecap:butt;stroke-linejoin:miter;stroke-miterlimit:10.43299961;stroke-opacity:1;stroke-dasharray:none;stroke-dashoffset:0" />
      <path
         id="path3098"
         d="m 377.69,333.5671 0,-0.08 0.01,-0.07 0,-0.07 0,-0.07 0.01,-0.07 0,-0.07 0.01,-0.06 0.01,-0.06 0.01,-0.06 0.01,-0.06 0.01,-0.06 0.01,-0.06 0.03,-0.11 0.03,-0.1 0.03,-0.1 0.04,-0.09 0.04,-0.09 0.04,-0.08 0.04,-0.07 0.05,-0.07 0.05,-0.07 0.05,-0.06 0.05,-0.05 0.05,-0.05 0.06,-0.05 0.05,-0.04 0.06,-0.04 0.05,-0.03 0.06,-0.03 0.05,-0.03 0.06,-0.02 0.06,-0.02 0.05,-0.01 0.06,-0.02 0.05,-0.01 0.06,0 0.05,-0.01 0.05,0 c 0.09,0 0.71,0.01 1.06,0.37 -0.41,0.03 -0.47,0.33 -0.47,0.46 0,0.26 0.18,0.45 0.46,0.45 0.26,0 0.46,-0.16 0.46,-0.46 0,-0.68 -0.76,-1.07 -1.52,-1.07 -1.25,0 -2.16,1.08 -2.16,2.31 0,1.27 0.98,2.25 2.14,2.25 1.33,0 1.65,-1.19 1.65,-1.29 0,-0.1 -0.1,-0.1 -0.13,-0.1 -0.09,0 -0.11,0.04 -0.13,0.1 -0.29,0.93 -0.94,1.05 -1.3,1.05 -0.53,0 -1.41,-0.43 -1.41,-2.03 z"
         inkscape:connector-curvature="0"
         style="font-style:normal;font-variant:normal;font-weight:normal;font-stretch:normal;letter-spacing:normal;word-spacing:normal;text-anchor:start;fill:#000000;stroke:#000000;stroke-width:0;stroke-linecap:butt;stroke-linejoin:miter;stroke-miterlimit:10.43299961;stroke-opacity:1;stroke-dasharray:none;stroke-dashoffset:0" />
      <path
         id="path3100"
         d="m 382.06,333.4371 0.01,-0.21 c 0.06,-1.48 0.9,-1.73 1.23,-1.73 1.03,0 1.13,1.34 1.13,1.73 h -2.36 l -0.01,0.21 h 2.78 c 0.22,0 0.25,0 0.25,-0.21 0,-0.98 -0.54,-1.95 -1.79,-1.95 -1.15,0 -2.06,1.03 -2.06,2.27 0,1.33 1.04,2.29 2.18,2.29 1.22,0 1.67,-1.1 1.67,-1.29 0,-0.1 -0.08,-0.12 -0.13,-0.12 -0.09,0 -0.11,0.06 -0.13,0.14 -0.35,1.03 -1.25,1.03 -1.35,1.03 -0.49,0 -0.89,-0.3 -1.12,-0.67 -0.3,-0.48 -0.3,-1.13 -0.3,-1.49 z"
         inkscape:connector-curvature="0"
         style="font-style:normal;font-variant:normal;font-weight:normal;font-stretch:normal;letter-spacing:normal;word-spacing:normal;text-anchor:start;fill:#000000;stroke:#000000;stroke-width:0;stroke-linecap:butt;stroke-linejoin:miter;stroke-miterlimit:10.43299961;stroke-opacity:1;stroke-dasharray:none;stroke-dashoffset:0" />
    </g>
    <g
       id="g3227"
       transform="translate(-33.571428,57.142857)">
      <path
         id="path3102"
         d="m 390.94,329.7171 0,-0.03 0,-0.03 0,-0.03 0,-0.03 0,-0.03 0.01,-0.02 0,-0.03 0.01,-0.02 0,-0.02 0.01,-0.02 0.01,-0.02 0.01,-0.02 0.01,-0.02 0.02,-0.01 0.01,-0.02 0.02,-0.01 0.02,-0.02 0.03,-0.01 0.01,0 0.01,-0.01 0.02,0 0.01,-0.01 0.02,0 0.01,-0.01 0.02,0 0.02,-0.01 0.02,0 0.02,0 0.02,-0.01 0.02,0 0.02,0 0.02,0 0.02,-0.01 0.03,0 0.02,0 0.03,0 0.03,-0.01 0.03,0 0.02,0 0.03,0 0.04,0 0.03,0 0.03,0 0.03,0 0.04,0 0.04,0 h 0.26 v -0.31 c -0.35,0.03 -1.14,0.03 -1.52,0.03 -0.39,0 -1.17,0 -1.52,-0.03 v 0.31 h 0.26 c 0.78,0 0.81,0.11 0.81,0.46 v 5.24 c 0,0.36 -0.03,0.47 -0.81,0.47 h -0.26 v 0.3 c 0.35,-0.03 1.13,-0.03 1.51,-0.03 0.39,0 1.18,0 1.53,0.03 v -0.3 h -0.26 c -0.79,0 -0.82,-0.11 -0.82,-0.47 z"
         inkscape:connector-curvature="0"
         style="font-style:normal;font-variant:normal;font-weight:normal;font-stretch:normal;letter-spacing:normal;word-spacing:normal;text-anchor:start;fill:#000000;stroke:#000000;stroke-width:0;stroke-linecap:butt;stroke-linejoin:miter;stroke-miterlimit:10.43299961;stroke-opacity:1;stroke-dasharray:none;stroke-dashoffset:0" />
      <path
         id="path3104"
         d="m 393.39,332.3171 v 2.66 c 0,0.45 -0.11,0.45 -0.77,0.45 v 0.3 c 0.35,-0.01 0.85,-0.03 1.12,-0.03 0.26,0 0.78,0.02 1.12,0.03 v -0.3 c -0.67,0 -0.78,0 -0.78,-0.45 v -1.83 c 0,-1.03 0.71,-1.59 1.34,-1.59 0.63,0 0.74,0.54 0.74,1.1 v 2.32 c 0,0.45 -0.11,0.45 -0.78,0.45 v 0.3 c 0.35,-0.01 0.86,-0.03 1.13,-0.03 0.26,0 0.77,0.02 1.11,0.03 v -0.3 c -0.51,0 -0.76,0 -0.77,-0.3 v -1.9 c 0,-0.85 0,-1.16 -0.31,-1.52 -0.14,-0.17 -0.47,-0.37 -1.05,-0.37 -0.72,0 -1.19,0.43 -1.47,1.05 v -1.05 l -1.4,0.11 v 0.31 c 0.69,0 0.77,0.07 0.77,0.56 z"
         inkscape:connector-curvature="0"
         style="font-style:normal;font-variant:normal;font-weight:normal;font-stretch:normal;letter-spacing:normal;word-spacing:normal;text-anchor:start;fill:#000000;stroke:#000000;stroke-width:0;stroke-linecap:butt;stroke-linejoin:miter;stroke-miterlimit:10.43299961;stroke-opacity:1;stroke-dasharray:none;stroke-dashoffset:0" />
      <path
         id="path3106"
         d="m 399.55,331.9971 v -0.66 l -1.44,0.11 v 0.31 c 0.71,0 0.78,0.06 0.78,0.5 v 4.65 c 0,0.44 -0.11,0.44 -0.78,0.44 v 0.31 c 0.34,-0.01 0.86,-0.03 1.12,-0.03 0.27,0 0.77,0.02 1.12,0.03 v -0.31 c -0.67,0 -0.77,0 -0.77,-0.44 v -1.67 -0.09 l 0.13,-0.13 c -0.13,-0.21 -0.13,-0.22 -0.13,-0.42 h 0 v -2.21 c 0.28,-0.51 0.77,-0.8 1.28,-0.8 0.72,0 1.33,0.88 1.33,2 0,1.2 -0.69,2.04 -1.43,2.04 -0.4,0 -0.78,-0.2 -1.05,-0.61 l -0.13,0.13 c 0.05,0.16 0.46,0.69 1.22,0.69 1.18,0 2.22,-0.97 2.22,-2.25 0,-1.26 -0.97,-2.25 -2.08,-2.25 -0.78,0 -1.2,0.44 -1.39,0.66 z"
         inkscape:connector-curvature="0"
         style="font-style:normal;font-variant:normal;font-weight:normal;font-stretch:normal;letter-spacing:normal;word-spacing:normal;text-anchor:start;fill:#000000;stroke:#000000;stroke-width:0;stroke-linecap:butt;stroke-linejoin:miter;stroke-miterlimit:10.43299961;stroke-opacity:1;stroke-dasharray:none;stroke-dashoffset:0" />
      <path
         id="path3108"
         d="m 407.26,334.9471 v 0.89 l 1.43,-0.11 v -0.3 c -0.69,0 -0.77,-0.07 -0.77,-0.56 v -3.53 l -1.47,0.11 v 0.31 c 0.7,0 0.78,0.07 0.78,0.56 v 1.77 c 0,0.86 -0.48,1.54 -1.2,1.54 -0.84,0 -0.88,-0.47 -0.88,-0.99 v -3.3 l -1.46,0.11 v 0.31 c 0.77,0 0.77,0.03 0.77,0.92 v 1.49 c 0,0.77 0,1.67 1.52,1.67 0.55,0 0.99,-0.27 1.28,-0.89 z"
         inkscape:connector-curvature="0"
         style="font-style:normal;font-variant:normal;font-weight:normal;font-stretch:normal;letter-spacing:normal;word-spacing:normal;text-anchor:start;fill:#000000;stroke:#000000;stroke-width:0;stroke-linecap:butt;stroke-linejoin:miter;stroke-miterlimit:10.43299961;stroke-opacity:1;stroke-dasharray:none;stroke-dashoffset:0" />
      <path
         id="path3110"
         d="m 410.63,331.7571 h 1.42 v -0.31 h -1.42 v -1.82 h -0.25 c -0.01,0.81 -0.31,1.87 -1.29,1.91 v 0.22 h 0.85 v 2.74 c 0,1.22 0.92,1.34 1.28,1.34 0.71,0 0.99,-0.7 0.99,-1.34 v -0.56 h -0.25 v 0.54 c 0,0.74 -0.3,1.12 -0.67,1.12 -0.66,0 -0.66,-0.91 -0.66,-1.08 z"
         inkscape:connector-curvature="0"
         style="font-style:normal;font-variant:normal;font-weight:normal;font-stretch:normal;letter-spacing:normal;word-spacing:normal;text-anchor:start;fill:#000000;stroke:#000000;stroke-width:0;stroke-linecap:butt;stroke-linejoin:miter;stroke-miterlimit:10.43299961;stroke-opacity:1;stroke-dasharray:none;stroke-dashoffset:0" />
    </g>
    <g
       id="g3234"
       transform="translate(41.428571,72.321428)">
      <path
         id="path3112"
         d="m 423.28,332.3671 0,-0.19 -0.02,-0.19 -0.02,-0.18 -0.03,-0.18 -0.04,-0.18 -0.04,-0.17 -0.05,-0.17 -0.06,-0.17 -0.07,-0.16 -0.07,-0.15 -0.08,-0.16 -0.09,-0.14 -0.09,-0.15 -0.1,-0.13 -0.11,-0.13 -0.11,-0.13 -0.11,-0.12 -0.12,-0.11 -0.13,-0.11 -0.13,-0.1 -0.13,-0.1 -0.14,-0.08 -0.14,-0.08 -0.15,-0.07 -0.15,-0.07 -0.15,-0.06 -0.16,-0.04 -0.16,-0.04 -0.16,-0.04 -0.17,-0.02 -0.16,-0.01 -0.17,-0.01 v 0.25 c 0.86,0 2.29,0.71 2.29,3.25 0,2.63 -1.37,3.47 -2.28,3.47 h 0 c -0.96,0 -2.29,-0.88 -2.29,-3.47 0,-2.58 1.45,-3.25 2.28,-3.25 v -0.25 c -1.78,0 -3.31,1.59 -3.31,3.64 0,2.03 1.54,3.58 3.31,3.58 1.81,0 3.31,-1.58 3.31,-3.58 z"
         inkscape:connector-curvature="0"
         style="font-style:normal;font-variant:normal;font-weight:normal;font-stretch:normal;letter-spacing:normal;word-spacing:normal;text-anchor:start;fill:#000000;stroke:#000000;stroke-width:0;stroke-linecap:butt;stroke-linejoin:miter;stroke-miterlimit:10.43299961;stroke-opacity:1;stroke-dasharray:none;stroke-dashoffset:0" />
      <path
         id="path3114"
         d="m 427.75,334.9471 v 0.89 l 1.43,-0.11 v -0.3 c -0.7,0 -0.78,-0.07 -0.78,-0.56 v -3.53 l -1.46,0.11 v 0.31 c 0.7,0 0.78,0.07 0.78,0.56 v 1.77 c 0,0.86 -0.48,1.54 -1.21,1.54 -0.83,0 -0.87,-0.47 -0.87,-0.99 v -3.3 l -1.47,0.11 v 0.31 c 0.78,0 0.78,0.03 0.78,0.92 v 1.49 c 0,0.77 0,1.67 1.51,1.67 0.56,0 1,-0.27 1.29,-0.89 z"
         inkscape:connector-curvature="0"
         style="font-style:normal;font-variant:normal;font-weight:normal;font-stretch:normal;letter-spacing:normal;word-spacing:normal;text-anchor:start;fill:#000000;stroke:#000000;stroke-width:0;stroke-linecap:butt;stroke-linejoin:miter;stroke-miterlimit:10.43299961;stroke-opacity:1;stroke-dasharray:none;stroke-dashoffset:0" />
      <path
         id="path3116"
         d="m 431.11,331.7571 h 1.43 v -0.31 h -1.43 v -1.82 h -0.25 c -0.01,0.81 -0.31,1.87 -1.28,1.91 v 0.22 h 0.85 v 2.74 c 0,1.22 0.92,1.34 1.28,1.34 0.71,0 0.98,-0.7 0.98,-1.34 v -0.56 h -0.24 v 0.54 c 0,0.74 -0.3,1.12 -0.67,1.12 -0.67,0 -0.67,-0.91 -0.67,-1.08 z"
         inkscape:connector-curvature="0"
         style="font-style:normal;font-variant:normal;font-weight:normal;font-stretch:normal;letter-spacing:normal;word-spacing:normal;text-anchor:start;fill:#000000;stroke:#000000;stroke-width:0;stroke-linecap:butt;stroke-linejoin:miter;stroke-miterlimit:10.43299961;stroke-opacity:1;stroke-dasharray:none;stroke-dashoffset:0" />
      <path
         id="path3118"
         d="m 434.98,331.9971 v -0.66 l -1.44,0.11 v 0.31 c 0.71,0 0.78,0.06 0.78,0.5 v 4.65 c 0,0.44 -0.11,0.44 -0.78,0.44 v 0.31 c 0.34,-0.01 0.86,-0.03 1.12,-0.03 0.27,0 0.77,0.02 1.12,0.03 v -0.31 c -0.66,0 -0.77,0 -0.77,-0.44 v -1.67 -0.09 l 0.14,-0.13 c -0.14,-0.21 -0.14,-0.22 -0.14,-0.42 h 0 v -2.21 c 0.29,-0.51 0.77,-0.8 1.28,-0.8 0.73,0 1.33,0.88 1.33,2 0,1.2 -0.69,2.04 -1.43,2.04 -0.4,0 -0.77,-0.2 -1.04,-0.61 l -0.14,0.13 c 0.05,0.16 0.46,0.69 1.22,0.69 1.18,0 2.22,-0.97 2.22,-2.25 0,-1.26 -0.97,-2.25 -2.08,-2.25 -0.78,0 -1.19,0.44 -1.39,0.66 z"
         inkscape:connector-curvature="0"
         style="font-style:normal;font-variant:normal;font-weight:normal;font-stretch:normal;letter-spacing:normal;word-spacing:normal;text-anchor:start;fill:#000000;stroke:#000000;stroke-width:0;stroke-linecap:butt;stroke-linejoin:miter;stroke-miterlimit:10.43299961;stroke-opacity:1;stroke-dasharray:none;stroke-dashoffset:0" />
      <path
         id="path3120"
         d="m 442.69,334.9471 v 0.89 l 1.43,-0.11 v -0.3 c -0.69,0 -0.77,-0.07 -0.77,-0.56 v -3.53 l -1.46,0.11 v 0.31 c 0.69,0 0.77,0.07 0.77,0.56 v 1.77 c 0,0.86 -0.48,1.54 -1.2,1.54 -0.84,0 -0.88,-0.47 -0.88,-0.99 v -3.3 l -1.46,0.11 v 0.31 c 0.77,0 0.77,0.03 0.77,0.92 v 1.49 c 0,0.77 0,1.67 1.52,1.67 0.55,0 0.99,-0.27 1.28,-0.89 z"
         inkscape:connector-curvature="0"
         style="font-style:normal;font-variant:normal;font-weight:normal;font-stretch:normal;letter-spacing:normal;word-spacing:normal;text-anchor:start;fill:#000000;stroke:#000000;stroke-width:0;stroke-linecap:butt;stroke-linejoin:miter;stroke-miterlimit:10.43299961;stroke-opacity:1;stroke-dasharray:none;stroke-dashoffset:0" />
      <path
         id="path3122"
         d="m 446.06,331.7571 h 1.42 v -0.31 h -1.42 v -1.82 h -0.25 c -0.01,0.81 -0.31,1.87 -1.29,1.91 v 0.22 h 0.85 v 2.74 c 0,1.22 0.93,1.34 1.28,1.34 0.71,0 0.99,-0.7 0.99,-1.34 v -0.56 h -0.25 v 0.54 c 0,0.74 -0.3,1.12 -0.67,1.12 -0.66,0 -0.66,-0.91 -0.66,-1.08 z"
         inkscape:connector-curvature="0"
         style="font-style:normal;font-variant:normal;font-weight:normal;font-stretch:normal;letter-spacing:normal;word-spacing:normal;text-anchor:start;fill:#000000;stroke:#000000;stroke-width:0;stroke-linecap:butt;stroke-linejoin:miter;stroke-miterlimit:10.43299961;stroke-opacity:1;stroke-dasharray:none;stroke-dashoffset:0" />
    </g>
    <path
       style="fill:none;stroke:#000000;stroke-width:1px;stroke-linecap:butt;stroke-linejoin:miter;stroke-opacity:1;marker-end:url(#Arrow2Mend)"
       d="M 36.681164,12.529641 51.959721,26.103566"
       id="path3242"
       inkscape:connector-curvature="0"
       transform="translate(338.92706,383.47972)"
       sodipodi:nodetypes="cc" />
    <path
       style="fill:none;stroke:#000000;stroke-width:1px;stroke-linecap:butt;stroke-linejoin:miter;stroke-opacity:1;marker-end:url(#Arrow2Mend)"
       d="m 327.44195,407.29882 15.85016,5.75268"
       id="path3242-4"
       inkscape:connector-curvature="0"
       sodipodi:nodetypes="cc" />
    <path
       style="fill:none;stroke:#000000;stroke-width:1px;stroke-linecap:butt;stroke-linejoin:miter;stroke-opacity:1;marker-end:url(#Arrow2Mend)"
       d="m 469.04341,411.206 -16.66752,11.04854"
       id="path3242-48"
       inkscape:connector-curvature="0"
       sodipodi:nodetypes="cc" />
  </g>
</svg>
