<?xml version="1.0" encoding="UTF-8" standalone="no"?>
<!-- Created with Inkscape (http://www.inkscape.org/) -->

<svg
   xmlns:ns0="http://www.iki.fi/pav/software/textext/"
   xmlns:dc="http://purl.org/dc/elements/1.1/"
   xmlns:cc="http://creativecommons.org/ns#"
   xmlns:rdf="http://www.w3.org/1999/02/22-rdf-syntax-ns#"
   xmlns:svg="http://www.w3.org/2000/svg"
   xmlns="http://www.w3.org/2000/svg"
   xmlns:sodipodi="http://sodipodi.sourceforge.net/DTD/sodipodi-0.dtd"
   xmlns:inkscape="http://www.inkscape.org/namespaces/inkscape"
   width="182.76167"
   height="208.28351"
   id="svg3121"
   version="1.1"
   inkscape:version="0.48.2 r9819"
   sodipodi:docname="New document 2">
  <sodipodi:namedview
     id="base"
     pagecolor="#ffffff"
     bordercolor="#666666"
     borderopacity="1.0"
     inkscape:pageopacity="0.0"
     inkscape:pageshadow="2"
     inkscape:zoom="0.98994949"
     inkscape:cx="333.39008"
     inkscape:cy="110.51717"
     inkscape:document-units="px"
     inkscape:current-layer="layer1"
     showgrid="false"
     inkscape:window-width="1680"
     inkscape:window-height="988"
     inkscape:window-x="1672"
     inkscape:window-y="-8"
     inkscape:window-maximized="1"
     fit-margin-top="0"
     fit-margin-left="0"
     fit-margin-right="0"
     fit-margin-bottom="0" />
  <defs
     id="defs3123">
    <marker
       inkscape:stockid="Arrow2Mend"
       orient="auto"
       refY="0"
       refX="0"
       id="marker3644"
       style="overflow:visible">
      <path
         id="path3646"
         style="font-size:12px;fill-rule:evenodd;stroke-width:0.625;stroke-linejoin:round"
         d="M 8.7185878,4.0337352 -2.2072895,0.01601326 8.7185884,-4.0017078 c -1.7454984,2.3720609 -1.7354408,5.6174519 -6e-7,8.035443 z"
         transform="scale(-0.6,-0.6)"
         inkscape:connector-curvature="0" />
    </marker>
    <marker
       inkscape:stockid="Arrow2Send"
       orient="auto"
       refY="0"
       refX="0"
       id="Arrow2Send"
       style="overflow:visible">
      <path
         id="path9574"
         style="font-size:12px;fill-rule:evenodd;stroke-width:0.625;stroke-linejoin:round"
         d="M 8.7185878,4.0337352 -2.2072895,0.01601326 8.7185884,-4.0017078 c -1.7454984,2.3720609 -1.7354408,5.6174519 -6e-7,8.035443 z"
         transform="matrix(-0.3,0,0,-0.3,0.69,0)"
         inkscape:connector-curvature="0" />
    </marker>
    <marker
       inkscape:stockid="Arrow2Send"
       orient="auto"
       refY="0"
       refX="0"
       id="marker3053"
       style="overflow:visible">
      <path
         id="path3055"
         style="font-size:12px;fill-rule:evenodd;stroke-width:0.625;stroke-linejoin:round"
         d="M 8.7185878,4.0337352 -2.2072895,0.01601326 8.7185884,-4.0017078 c -1.7454984,2.3720609 -1.7354408,5.6174519 -6e-7,8.035443 z"
         transform="matrix(-0.3,0,0,-0.3,0.69,0)"
         inkscape:connector-curvature="0" />
    </marker>
    <marker
       inkscape:stockid="Arrow2Send"
       orient="auto"
       refY="0"
       refX="0"
       id="marker3057"
       style="overflow:visible">
      <path
         id="path3059"
         style="font-size:12px;fill-rule:evenodd;stroke-width:0.625;stroke-linejoin:round"
         d="M 8.7185878,4.0337352 -2.2072895,0.01601326 8.7185884,-4.0017078 c -1.7454984,2.3720609 -1.7354408,5.6174519 -6e-7,8.035443 z"
         transform="matrix(-0.3,0,0,-0.3,0.69,0)"
         inkscape:connector-curvature="0" />
    </marker>
    <marker
       inkscape:stockid="Arrow2Mend"
       orient="auto"
       refY="0"
       refX="0"
       id="marker3061"
       style="overflow:visible">
      <path
         id="path3063"
         style="font-size:12px;fill-rule:evenodd;stroke-width:0.625;stroke-linejoin:round"
         d="M 8.7185878,4.0337352 -2.2072895,0.01601326 8.7185884,-4.0017078 c -1.7454984,2.3720609 -1.7354408,5.6174519 -6e-7,8.035443 z"
         transform="scale(-0.6,-0.6)"
         inkscape:connector-curvature="0" />
    </marker>
    <marker
       inkscape:stockid="Arrow2Mend"
       orient="auto"
       refY="0"
       refX="0"
       id="marker3065"
       style="overflow:visible">
      <path
         id="path3067"
         style="font-size:12px;fill-rule:evenodd;stroke-width:0.625;stroke-linejoin:round"
         d="M 8.7185878,4.0337352 -2.2072895,0.01601326 8.7185884,-4.0017078 c -1.7454984,2.3720609 -1.7354408,5.6174519 -6e-7,8.035443 z"
         transform="scale(-0.6,-0.6)"
         inkscape:connector-curvature="0" />
    </marker>
    <marker
       inkscape:stockid="Arrow2Mend"
       orient="auto"
       refY="0"
       refX="0"
       id="marker3069"
       style="overflow:visible">
      <path
         id="path3071"
         style="font-size:12px;fill-rule:evenodd;stroke-width:0.625;stroke-linejoin:round"
         d="M 8.7185878,4.0337352 -2.2072895,0.01601326 8.7185884,-4.0017078 c -1.7454984,2.3720609 -1.7354408,5.6174519 -6e-7,8.035443 z"
         transform="scale(-0.6,-0.6)"
         inkscape:connector-curvature="0" />
    </marker>
    <marker
       inkscape:stockid="Arrow2Mend"
       orient="auto"
       refY="0"
       refX="0"
       id="marker3073"
       style="overflow:visible">
      <path
         id="path3075"
         style="font-size:12px;fill-rule:evenodd;stroke-width:0.625;stroke-linejoin:round"
         d="M 8.7185878,4.0337352 -2.2072895,0.01601326 8.7185884,-4.0017078 c -1.7454984,2.3720609 -1.7354408,5.6174519 -6e-7,8.035443 z"
         transform="scale(-0.6,-0.6)"
         inkscape:connector-curvature="0" />
    </marker>
    <marker
       inkscape:stockid="Arrow2Mend"
       orient="auto"
       refY="0"
       refX="0"
       id="marker3077"
       style="overflow:visible">
      <path
         id="path3079"
         style="font-size:12px;fill-rule:evenodd;stroke-width:0.625;stroke-linejoin:round"
         d="M 8.7185878,4.0337352 -2.2072895,0.01601326 8.7185884,-4.0017078 c -1.7454984,2.3720609 -1.7354408,5.6174519 -6e-7,8.035443 z"
         transform="scale(-0.6,-0.6)"
         inkscape:connector-curvature="0" />
    </marker>
    <marker
       inkscape:stockid="Arrow2Mend"
       orient="auto"
       refY="0"
       refX="0"
       id="marker3081"
       style="overflow:visible">
      <path
         id="path3083"
         style="font-size:12px;fill-rule:evenodd;stroke-width:0.625;stroke-linejoin:round"
         d="M 8.7185878,4.0337352 -2.2072895,0.01601326 8.7185884,-4.0017078 c -1.7454984,2.3720609 -1.7354408,5.6174519 -6e-7,8.035443 z"
         transform="scale(-0.6,-0.6)"
         inkscape:connector-curvature="0" />
    </marker>
    <marker
       inkscape:stockid="Arrow2Mend"
       orient="auto"
       refY="0"
       refX="0"
       id="marker3644-553"
       style="overflow:visible">
      <path
         id="path3646-185"
         style="font-size:12px;fill-rule:evenodd;stroke-width:0.625;stroke-linejoin:round"
         d="M 8.7185878,4.0337352 -2.2072895,0.01601326 8.7185884,-4.0017078 c -1.7454984,2.3720609 -1.7354408,5.6174519 -6e-7,8.035443 z"
         transform="scale(-0.6,-0.6)"
         inkscape:connector-curvature="0" />
    </marker>
    <marker
       inkscape:stockid="Arrow2Mend"
       orient="auto"
       refY="0"
       refX="0"
       id="marker3141"
       style="overflow:visible">
      <path
         id="path3143"
         style="font-size:12px;fill-rule:evenodd;stroke-width:0.625;stroke-linejoin:round"
         d="M 8.7185878,4.0337352 -2.2072895,0.01601326 8.7185884,-4.0017078 c -1.7454984,2.3720609 -1.7354408,5.6174519 -6e-7,8.035443 z"
         transform="scale(-0.6,-0.6)"
         inkscape:connector-curvature="0" />
    </marker>
    <marker
       inkscape:stockid="Arrow2Send"
       orient="auto"
       refY="0"
       refX="0"
       id="Arrow2Send-06"
       style="overflow:visible">
      <path
         id="path9574-116"
         style="font-size:12px;fill-rule:evenodd;stroke-width:0.625;stroke-linejoin:round"
         d="M 8.7185878,4.0337352 -2.2072895,0.01601326 8.7185884,-4.0017078 c -1.7454984,2.3720609 -1.7354408,5.6174519 -6e-7,8.035443 z"
         transform="matrix(-0.3,0,0,-0.3,0.69,0)"
         inkscape:connector-curvature="0" />
    </marker>
    <marker
       inkscape:stockid="Arrow2Send"
       orient="auto"
       refY="0"
       refX="0"
       id="marker3147"
       style="overflow:visible">
      <path
         id="path3149"
         style="font-size:12px;fill-rule:evenodd;stroke-width:0.625;stroke-linejoin:round"
         d="M 8.7185878,4.0337352 -2.2072895,0.01601326 8.7185884,-4.0017078 c -1.7454984,2.3720609 -1.7354408,5.6174519 -6e-7,8.035443 z"
         transform="matrix(-0.3,0,0,-0.3,0.69,0)"
         inkscape:connector-curvature="0" />
    </marker>
    <marker
       inkscape:stockid="Arrow2Send"
       orient="auto"
       refY="0"
       refX="0"
       id="marker3151"
       style="overflow:visible">
      <path
         id="path3153"
         style="font-size:12px;fill-rule:evenodd;stroke-width:0.625;stroke-linejoin:round"
         d="M 8.7185878,4.0337352 -2.2072895,0.01601326 8.7185884,-4.0017078 c -1.7454984,2.3720609 -1.7354408,5.6174519 -6e-7,8.035443 z"
         transform="matrix(-0.3,0,0,-0.3,0.69,0)"
         inkscape:connector-curvature="0" />
    </marker>
    <marker
       inkscape:stockid="Arrow2Mend"
       orient="auto"
       refY="0"
       refX="0"
       id="marker3155"
       style="overflow:visible">
      <path
         id="path3157"
         style="font-size:12px;fill-rule:evenodd;stroke-width:0.625;stroke-linejoin:round"
         d="M 8.7185878,4.0337352 -2.2072895,0.01601326 8.7185884,-4.0017078 c -1.7454984,2.3720609 -1.7354408,5.6174519 -6e-7,8.035443 z"
         transform="scale(-0.6,-0.6)"
         inkscape:connector-curvature="0" />
    </marker>
    <marker
       inkscape:stockid="Arrow2Mend"
       orient="auto"
       refY="0"
       refX="0"
       id="marker3159"
       style="overflow:visible">
      <path
         id="path3161"
         style="font-size:12px;fill-rule:evenodd;stroke-width:0.625;stroke-linejoin:round"
         d="M 8.7185878,4.0337352 -2.2072895,0.01601326 8.7185884,-4.0017078 c -1.7454984,2.3720609 -1.7354408,5.6174519 -6e-7,8.035443 z"
         transform="scale(-0.6,-0.6)"
         inkscape:connector-curvature="0" />
    </marker>
    <marker
       inkscape:stockid="Arrow2Mend"
       orient="auto"
       refY="0"
       refX="0"
       id="marker3163"
       style="overflow:visible">
      <path
         id="path3165"
         style="font-size:12px;fill-rule:evenodd;stroke-width:0.625;stroke-linejoin:round"
         d="M 8.7185878,4.0337352 -2.2072895,0.01601326 8.7185884,-4.0017078 c -1.7454984,2.3720609 -1.7354408,5.6174519 -6e-7,8.035443 z"
         transform="scale(-0.6,-0.6)"
         inkscape:connector-curvature="0" />
    </marker>
    <marker
       inkscape:stockid="Arrow2Mend"
       orient="auto"
       refY="0"
       refX="0"
       id="marker3167"
       style="overflow:visible">
      <path
         id="path3169"
         style="font-size:12px;fill-rule:evenodd;stroke-width:0.625;stroke-linejoin:round"
         d="M 8.7185878,4.0337352 -2.2072895,0.01601326 8.7185884,-4.0017078 c -1.7454984,2.3720609 -1.7354408,5.6174519 -6e-7,8.035443 z"
         transform="scale(-0.6,-0.6)"
         inkscape:connector-curvature="0" />
    </marker>
    <marker
       inkscape:stockid="Arrow2Mend"
       orient="auto"
       refY="0"
       refX="0"
       id="marker3171"
       style="overflow:visible">
      <path
         id="path3173"
         style="font-size:12px;fill-rule:evenodd;stroke-width:0.625;stroke-linejoin:round"
         d="M 8.7185878,4.0337352 -2.2072895,0.01601326 8.7185884,-4.0017078 c -1.7454984,2.3720609 -1.7354408,5.6174519 -6e-7,8.035443 z"
         transform="scale(-0.6,-0.6)"
         inkscape:connector-curvature="0" />
    </marker>
    <marker
       inkscape:stockid="Arrow2Mend"
       orient="auto"
       refY="0"
       refX="0"
       id="marker3175"
       style="overflow:visible">
      <path
         id="path3177"
         style="font-size:12px;fill-rule:evenodd;stroke-width:0.625;stroke-linejoin:round"
         d="M 8.7185878,4.0337352 -2.2072895,0.01601326 8.7185884,-4.0017078 c -1.7454984,2.3720609 -1.7354408,5.6174519 -6e-7,8.035443 z"
         transform="scale(-0.6,-0.6)"
         inkscape:connector-curvature="0" />
    </marker>
    <marker
       inkscape:stockid="Arrow2Mend"
       orient="auto"
       refY="0"
       refX="0"
       id="marker3179"
       style="overflow:visible">
      <path
         id="path3181"
         style="font-size:12px;fill-rule:evenodd;stroke-width:0.625;stroke-linejoin:round"
         d="M 8.7185878,4.0337352 -2.2072895,0.01601326 8.7185884,-4.0017078 c -1.7454984,2.3720609 -1.7354408,5.6174519 -6e-7,8.035443 z"
         transform="scale(-0.6,-0.6)"
         inkscape:connector-curvature="0" />
    </marker>
    <marker
       inkscape:stockid="Arrow2Mend"
       orient="auto"
       refY="0"
       refX="0"
       id="marker3183"
       style="overflow:visible">
      <path
         id="path3185"
         style="font-size:12px;fill-rule:evenodd;stroke-width:0.625;stroke-linejoin:round"
         d="M 8.7185878,4.0337352 -2.2072895,0.01601326 8.7185884,-4.0017078 c -1.7454984,2.3720609 -1.7354408,5.6174519 -6e-7,8.035443 z"
         transform="scale(-0.6,-0.6)"
         inkscape:connector-curvature="0" />
    </marker>
    <marker
       inkscape:stockid="Arrow2Mend"
       orient="auto"
       refY="0"
       refX="0"
       id="marker3644-553-4"
       style="overflow:visible">
      <path
         id="path3646-185-9"
         style="font-size:12px;fill-rule:evenodd;stroke-width:0.625;stroke-linejoin:round"
         d="M 8.7185878,4.0337352 -2.2072895,0.01601326 8.7185884,-4.0017078 c -1.7454984,2.3720609 -1.7354408,5.6174519 -6e-7,8.035443 z"
         transform="scale(-0.6,-0.6)"
         inkscape:connector-curvature="0" />
    </marker>
    <marker
       inkscape:stockid="Arrow2Mend"
       orient="auto"
       refY="0"
       refX="0"
       id="marker3644-553-1"
       style="overflow:visible">
      <path
         id="path3646-185-7"
         style="font-size:12px;fill-rule:evenodd;stroke-width:0.625;stroke-linejoin:round"
         d="M 8.7185878,4.0337352 -2.2072895,0.01601326 8.7185884,-4.0017078 c -1.7454984,2.3720609 -1.7354408,5.6174519 -6e-7,8.035443 z"
         transform="scale(-0.6,-0.6)"
         inkscape:connector-curvature="0" />
    </marker>
    <marker
       inkscape:stockid="Arrow2Mend"
       orient="auto"
       refY="0"
       refX="0"
       id="marker3644-1"
       style="overflow:visible">
      <path
         id="path3646-7"
         style="font-size:12px;fill-rule:evenodd;stroke-width:0.625;stroke-linejoin:round"
         d="M 8.7185878,4.0337352 -2.2072895,0.01601326 8.7185884,-4.0017078 c -1.7454984,2.3720609 -1.7354408,5.6174519 -6e-7,8.035443 z"
         transform="scale(-0.6,-0.6)"
         inkscape:connector-curvature="0" />
    </marker>
    <marker
       inkscape:stockid="Arrow2Mend"
       orient="auto"
       refY="0"
       refX="0"
       id="marker3473"
       style="overflow:visible">
      <path
         id="path3475"
         style="font-size:12px;fill-rule:evenodd;stroke-width:0.625;stroke-linejoin:round"
         d="M 8.7185878,4.0337352 -2.2072895,0.01601326 8.7185884,-4.0017078 c -1.7454984,2.3720609 -1.7354408,5.6174519 -6e-7,8.035443 z"
         transform="scale(-0.6,-0.6)"
         inkscape:connector-curvature="0" />
    </marker>
    <marker
       inkscape:stockid="Arrow2Mend"
       orient="auto"
       refY="0"
       refX="0"
       id="marker3477"
       style="overflow:visible">
      <path
         id="path3479"
         style="font-size:12px;fill-rule:evenodd;stroke-width:0.625;stroke-linejoin:round"
         d="M 8.7185878,4.0337352 -2.2072895,0.01601326 8.7185884,-4.0017078 c -1.7454984,2.3720609 -1.7354408,5.6174519 -6e-7,8.035443 z"
         transform="scale(-0.6,-0.6)"
         inkscape:connector-curvature="0" />
    </marker>
    <marker
       inkscape:stockid="Arrow2Mend"
       orient="auto"
       refY="0"
       refX="0"
       id="marker3481"
       style="overflow:visible">
      <path
         id="path3483-4"
         style="font-size:12px;fill-rule:evenodd;stroke-width:0.625;stroke-linejoin:round"
         d="M 8.7185878,4.0337352 -2.2072895,0.01601326 8.7185884,-4.0017078 c -1.7454984,2.3720609 -1.7354408,5.6174519 -6e-7,8.035443 z"
         transform="scale(-0.6,-0.6)"
         inkscape:connector-curvature="0" />
    </marker>
    <marker
       inkscape:stockid="Arrow2Mend"
       orient="auto"
       refY="0"
       refX="0"
       id="marker3485"
       style="overflow:visible">
      <path
         id="path3487"
         style="font-size:12px;fill-rule:evenodd;stroke-width:0.625;stroke-linejoin:round"
         d="M 8.7185878,4.0337352 -2.2072895,0.01601326 8.7185884,-4.0017078 c -1.7454984,2.3720609 -1.7354408,5.6174519 -6e-7,8.035443 z"
         transform="scale(-0.6,-0.6)"
         inkscape:connector-curvature="0" />
    </marker>
    <marker
       inkscape:stockid="Arrow2Mend"
       orient="auto"
       refY="0"
       refX="0"
       id="marker3489"
       style="overflow:visible">
      <path
         id="path3491"
         style="font-size:12px;fill-rule:evenodd;stroke-width:0.625;stroke-linejoin:round"
         d="M 8.7185878,4.0337352 -2.2072895,0.01601326 8.7185884,-4.0017078 c -1.7454984,2.3720609 -1.7354408,5.6174519 -6e-7,8.035443 z"
         transform="scale(-0.6,-0.6)"
         inkscape:connector-curvature="0" />
    </marker>
    <marker
       inkscape:stockid="Arrow2Send"
       orient="auto"
       refY="0"
       refX="0"
       id="Arrow2Send-0"
       style="overflow:visible">
      <path
         id="path9574-9"
         style="font-size:12px;fill-rule:evenodd;stroke-width:0.625;stroke-linejoin:round"
         d="M 8.7185878,4.0337352 -2.2072895,0.01601326 8.7185884,-4.0017078 c -1.7454984,2.3720609 -1.7354408,5.6174519 -6e-7,8.035443 z"
         transform="matrix(-0.3,0,0,-0.3,0.69,0)"
         inkscape:connector-curvature="0" />
    </marker>
    <marker
       inkscape:stockid="Arrow2Send"
       orient="auto"
       refY="0"
       refX="0"
       id="marker3495"
       style="overflow:visible">
      <path
         id="path3497"
         style="font-size:12px;fill-rule:evenodd;stroke-width:0.625;stroke-linejoin:round"
         d="M 8.7185878,4.0337352 -2.2072895,0.01601326 8.7185884,-4.0017078 c -1.7454984,2.3720609 -1.7354408,5.6174519 -6e-7,8.035443 z"
         transform="matrix(-0.3,0,0,-0.3,0.69,0)"
         inkscape:connector-curvature="0" />
    </marker>
    <marker
       inkscape:stockid="Arrow2Send"
       orient="auto"
       refY="0"
       refX="0"
       id="marker3499"
       style="overflow:visible">
      <path
         id="path3501"
         style="font-size:12px;fill-rule:evenodd;stroke-width:0.625;stroke-linejoin:round"
         d="M 8.7185878,4.0337352 -2.2072895,0.01601326 8.7185884,-4.0017078 c -1.7454984,2.3720609 -1.7354408,5.6174519 -6e-7,8.035443 z"
         transform="matrix(-0.3,0,0,-0.3,0.69,0)"
         inkscape:connector-curvature="0" />
    </marker>
    <marker
       inkscape:stockid="Arrow2Mend"
       orient="auto"
       refY="0"
       refX="0"
       id="marker3503"
       style="overflow:visible">
      <path
         id="path3505"
         style="font-size:12px;fill-rule:evenodd;stroke-width:0.625;stroke-linejoin:round"
         d="M 8.7185878,4.0337352 -2.2072895,0.01601326 8.7185884,-4.0017078 c -1.7454984,2.3720609 -1.7354408,5.6174519 -6e-7,8.035443 z"
         transform="scale(-0.6,-0.6)"
         inkscape:connector-curvature="0" />
    </marker>
  </defs>
  <metadata
     id="metadata3126">
    <rdf:RDF>
      <cc:Work
         rdf:about="">
        <dc:format>image/svg+xml</dc:format>
        <dc:type
           rdf:resource="http://purl.org/dc/dcmitype/StillImage" />
        <dc:title></dc:title>
      </cc:Work>
    </rdf:RDF>
  </metadata>
  <g
     id="layer1"
     inkscape:groupmode="layer"
     inkscape:label="Layer 1"
     transform="translate(-262.21519,-510.08918)">
    <path
       sodipodi:nodetypes="cc"
       id="path8288-2-4-1-1-7-2-1"
       d="m 280.43169,553.10886 12.4016,0"
       style="fill:none;stroke:#000000;stroke-width:1px;stroke-linecap:round;stroke-linejoin:round;stroke-opacity:1;marker-start:none;marker-mid:none;marker-end:url(#marker3644)"
       inkscape:connector-curvature="0" />
    <g
       id="g4215-3-2-5-1"
       transform="translate(102.49099,227.12462)">
      <path
         sodipodi:type="arc"
         style="fill:none;stroke:#000000;stroke-width:1;stroke-linecap:round;stroke-linejoin:round;stroke-miterlimit:4;stroke-opacity:1;stroke-dasharray:none"
         id="path7917-9-1-7-42"
         sodipodi:cx="168.30708"
         sodipodi:cy="237.40155"
         sodipodi:rx="8.8582678"
         sodipodi:ry="8.8582678"
         d="m 177.16535,237.40155 c 0,4.89229 -3.96598,8.85827 -8.85827,8.85827 -4.89228,0 -8.85826,-3.96598 -8.85826,-8.85827 0,-4.89229 3.96598,-8.85827 8.85826,-8.85827 4.89229,0 8.85827,3.96598 8.85827,8.85827 z"
         transform="translate(0.7753808,88.582676)" />
      <path
         style="fill:none;stroke:#000000;stroke-width:1;stroke-linecap:butt;stroke-linejoin:miter;stroke-miterlimit:4;stroke-opacity:1;stroke-dasharray:none"
         d="m 163.7675,329.52754 10.62992,0"
         id="path7919-8-6-6-3"
         inkscape:connector-curvature="0" />
      <path
         style="fill:none;stroke:#000000;stroke-width:1;stroke-linecap:butt;stroke-linejoin:miter;stroke-miterlimit:4;stroke-opacity:1;stroke-dasharray:none;marker-end:url(#Arrow2Send)"
         d="m 165.53916,329.52754 0,-7.08662"
         id="path7921-8-8-1-2"
         sodipodi:nodetypes="cc"
         inkscape:connector-curvature="0" />
      <path
         style="fill:none;stroke:#000000;stroke-width:1;stroke-linecap:butt;stroke-linejoin:miter;stroke-miterlimit:4;stroke-opacity:1;stroke-dasharray:none;marker-end:url(#Arrow2Send)"
         d="m 169.08246,329.52754 0,-7.08662"
         id="path7923-0-5-8-2"
         sodipodi:nodetypes="cc"
         inkscape:connector-curvature="0" />
      <path
         style="fill:none;stroke:#000000;stroke-width:1;stroke-linecap:butt;stroke-linejoin:miter;stroke-miterlimit:4;stroke-opacity:1;stroke-dasharray:none;marker-end:url(#Arrow2Send)"
         d="m 172.62577,329.52754 0,-7.08662"
         id="path7925-8-7-9-1"
         sodipodi:nodetypes="cc"
         inkscape:connector-curvature="0" />
    </g>
    <path
       inkscape:connector-curvature="0"
       sodipodi:nodetypes="cc"
       id="path10734-3-61-2-68"
       d="m 342.43959,553.10886 13.2873,0"
       style="fill:none;stroke:#000000;stroke-width:1px;stroke-linecap:round;stroke-linejoin:round;stroke-opacity:1;marker-start:none;marker-mid:none;marker-end:url(#marker3644)" />
    <path
       inkscape:connector-curvature="0"
       sodipodi:nodetypes="cc"
       id="path10734-3-6-9-1-3-8"
       d="m 309.86479,553.10887 24.8032,0"
       style="fill:none;stroke:#000000;stroke-width:1px;stroke-linecap:round;stroke-linejoin:round;stroke-opacity:1;marker-start:none;marker-mid:none;marker-end:url(#marker3644)" />
    <path
       sodipodi:nodetypes="ccccc"
       id="path7886-8-4-1-5-1-1-9"
       d="m 294.60489,540.70729 26.5748,0 0,24.80315 -26.5747,0 -10e-5,-24.80315"
       style="fill:#ffffff;fill-opacity:1;stroke:#0000ff;stroke-width:1;stroke-linecap:round;stroke-linejoin:round;stroke-miterlimit:4;stroke-opacity:1;stroke-dasharray:none"
       inkscape:connector-curvature="0" />
    <path
       style="fill:none;stroke:#000000;stroke-width:1px;stroke-linecap:butt;stroke-linejoin:miter;stroke-opacity:1"
       d="m 376.54389,522.99076 -37.6476,-10e-6"
       id="path18401-7-2-3-2-2"
       inkscape:connector-curvature="0"
       sodipodi:nodetypes="cc" />
    <path
       sodipodi:nodetypes="cc"
       id="path8288-2-4-1-3-1-2-4-6-3-9"
       d="m 338.89629,522.99075 0,24.80315"
       style="fill:none;stroke:#000000;stroke-width:1px;stroke-linecap:round;stroke-linejoin:round;stroke-opacity:1;marker-start:none;marker-mid:none;marker-end:url(#marker3644)"
       inkscape:connector-curvature="0" />
    <path
       inkscape:connector-curvature="0"
       sodipodi:nodetypes="cc"
       id="path10734-3-6-9-4-8-1-4"
       d="m 431.02219,522.99075 -26.5748,0"
       style="fill:none;stroke:#000000;stroke-width:1px;stroke-linecap:round;stroke-linejoin:round;stroke-opacity:1;marker-start:none;marker-mid:none;marker-end:url(#marker3644)" />
    <g
       transform="translate(-392.79666,370.62857)"
       id="g7830-1-3">
      <path
         d="m 735.23624,182.48029 c 0,1.95691 -1.58639,3.5433 -3.54331,3.5433 -1.95691,0 -3.5433,-1.58639 -3.5433,-3.5433 0,-1.95692 1.58639,-3.54331 3.5433,-3.54331 1.95692,0 3.54331,1.58639 3.54331,3.54331 z"
         sodipodi:ry="3.5433071"
         sodipodi:rx="3.5433071"
         sodipodi:cy="182.48029"
         sodipodi:cx="731.69293"
         id="path7806-3-1"
         style="fill:none;stroke:#000000;stroke-width:0.99921262;stroke-miterlimit:4;stroke-opacity:1;stroke-dasharray:none"
         sodipodi:type="arc" />
      <path
         inkscape:connector-curvature="0"
         id="path7808-8-2"
         d="m 731.69291,180.70864 c 0,3.54331 0,3.54331 0,3.54331"
         style="fill:none;stroke:#000000;stroke-width:1px;stroke-linecap:butt;stroke-linejoin:miter;stroke-opacity:1" />
      <path
         inkscape:connector-curvature="0"
         id="path7810-7-3"
         d="m 729.92126,182.48029 3.54331,0"
         style="fill:none;stroke:#000000;stroke-width:1px;stroke-linecap:butt;stroke-linejoin:miter;stroke-opacity:1" />
      <path
         inkscape:connector-curvature="0"
         id="path7810-7-3-1"
         d="m 733.04225,170.3806 3.54331,0"
         style="fill:none;stroke:#000000;stroke-width:1px;stroke-linecap:butt;stroke-linejoin:miter;stroke-opacity:1" />
      <path
         inkscape:connector-curvature="0"
         id="path7808-8-2-7"
         d="m 721.23997,184.64511 c 0,3.54331 0,3.54331 0,3.54331"
         style="fill:none;stroke:#000000;stroke-width:1px;stroke-linecap:butt;stroke-linejoin:miter;stroke-opacity:1" />
      <path
         inkscape:connector-curvature="0"
         id="path7810-7-3-4"
         d="m 719.46832,186.41676 3.54331,0"
         style="fill:none;stroke:#000000;stroke-width:1px;stroke-linecap:butt;stroke-linejoin:miter;stroke-opacity:1" />
    </g>
    <g
       transform="translate(-977.21391,1172.2379)"
       id="g83591-7">
      <path
         style="font-style:normal;font-variant:normal;font-weight:normal;font-stretch:normal;letter-spacing:normal;word-spacing:normal;text-anchor:start;fill:#000000;stroke:#000000;stroke-width:0;stroke-linecap:butt;stroke-linejoin:miter;stroke-miterlimit:10.43299961;stroke-opacity:1;stroke-dasharray:none;stroke-dashoffset:0"
         inkscape:connector-curvature="0"
         d="m 1346.6013,-621.57215 0.02,-0.07 0.01,-0.04 0.02,-0.03 0.01,-0.04 0.01,-0.03 0.02,-0.03 0.01,-0.04 0.02,-0.03 0.02,-0.03 0.02,-0.03 0.02,-0.03 0.02,-0.02 0.02,-0.03 0.03,-0.03 0.03,-0.02 0.03,-0.03 0.03,-0.02 0.04,-0.02 0.03,-0.02 0.04,-0.02 0.05,-0.02 0.04,-0.01 0.05,-0.02 0.05,-0.01 0.05,-0.02 0.06,-0.01 0.06,-0.01 0.06,-0.01 0.07,0 0.07,-0.01 0.03,0 0.04,0 c 0.05,0 0.17,-0.01 0.17,-0.2 0,-0.01 0,-0.11 -0.13,-0.11 -0.33,0 -0.68,0.03 -1.01,0.03 -0.33,0 -0.68,-0.03 -1.01,-0.03 -0.06,0 -0.18,0 -0.18,0.2 0,0.11 0.1,0.11 0.18,0.11 0.57,0.01 0.68,0.22 0.68,0.44 0,0.02 -0.02,0.17 -0.03,0.2 l -1.12,4.42 -2.2,-5.18 c -0.08,-0.18 -0.09,-0.19 -0.32,-0.19 h -1.33 c -0.2,0 -0.29,0 -0.29,0.2 0,0.11 0.09,0.11 0.28,0.11 0.05,0 0.68,0 0.68,0.09 l -1.34,5.33 c -0.1,0.4 -0.27,0.72 -1.07,0.75 -0.06,0 -0.17,0.01 -0.17,0.2 0,0.07 0.05,0.1 0.13,0.1 0.32,0 0.67,-0.03 0.99,-0.03 0.34,0 0.7,0.03 1.03,0.03 0.05,0 0.18,0 0.18,-0.19 0,-0.1 -0.09,-0.11 -0.2,-0.11 -0.58,-0.02 -0.66,-0.24 -0.66,-0.44 0,-0.07 0.01,-0.12 0.04,-0.23 l 1.32,-5.24 c 0.03,0.06 0.03,0.08 0.09,0.18 l 2.47,5.85 c 0.07,0.16 0.1,0.18 0.19,0.18 0.11,0 0.11,-0.03 0.16,-0.2 z"
         id="path76056-7" />
      <path
         style="font-style:normal;font-variant:normal;font-weight:normal;font-stretch:normal;letter-spacing:normal;word-spacing:normal;text-anchor:start;fill:#000000;stroke:#000000;stroke-width:0;stroke-linecap:butt;stroke-linejoin:miter;stroke-miterlimit:10.43299961;stroke-opacity:1;stroke-dasharray:none;stroke-dashoffset:0"
         inkscape:connector-curvature="0"
         d="m 1350.0184,-621.84215 0.01,-0.03 0.01,-0.03 0.01,-0.03 0.01,-0.03 0.01,-0.03 0,-0.02 0.01,-0.03 0.01,-0.02 0.02,-0.02 0.01,-0.02 0.01,-0.02 0.02,-0.02 0.02,-0.02 0.02,-0.01 0.02,-0.02 0.02,-0.01 0.03,-0.02 0.03,-0.01 0.03,-0.01 0.04,-0.01 0.02,0 0.02,-0.01 0.02,0 0.02,-0.01 0.02,0 0.02,0 0.03,-0.01 0.02,0 0.03,0 0.02,0 0.03,-0.01 0.03,0 0.03,0 0.03,0 0.03,-0.01 0.04,0 0.03,0 0.04,0 0.03,0 0.04,0 0.04,0 0.04,0 0.04,0 0.05,0 c 0.3,0 0.38,0 0.38,-0.19 0,-0.12 -0.11,-0.12 -0.16,-0.12 -0.33,0 -1.15,0.03 -1.48,0.03 -0.29,0 -1.02,-0.03 -1.32,-0.03 -0.07,0 -0.19,0 -0.19,0.2 0,0.11 0.09,0.11 0.28,0.11 0.02,0 0.21,0 0.38,0.02 0.18,0.02 0.27,0.03 0.27,0.16 0,0.04 -0.01,0.07 -0.04,0.19 l -1.33,5.33 c -0.1,0.39 -0.13,0.47 -0.91,0.47 -0.17,0 -0.27,0 -0.27,0.2 0,0.1 0.09,0.1 0.27,0.1 h 4.61 c 0.23,0 0.25,0 0.3,-0.16 l 0.79,-2.15 c 0.04,-0.11 0.04,-0.13 0.04,-0.14 0,-0.04 -0.03,-0.11 -0.12,-0.11 -0.09,0 -0.1,0.05 -0.17,0.21 -0.34,0.91 -0.77,2.05 -2.5,2.05 h -0.93 c -0.14,0 -0.16,0 -0.22,-0.01 -0.1,-0.01 -0.13,-0.02 -0.13,-0.1 0,-0.03 0,-0.05 0.05,-0.23 z"
         id="path76058-9" />
      <path
         style="font-style:normal;font-variant:normal;font-weight:normal;font-stretch:normal;letter-spacing:normal;word-spacing:normal;text-anchor:start;fill:#000000;stroke:#000000;stroke-width:0;stroke-linecap:butt;stroke-linejoin:miter;stroke-miterlimit:10.43299961;stroke-opacity:1;stroke-dasharray:none;stroke-dashoffset:0"
         inkscape:connector-curvature="0"
         d="m 1355.4184,-618.75215 0,-0.01 0,-0.01 0,-0.01 0,-0.01 0,0 0,-0.01 0,-0.01 0,-0.01 -0.01,0 0,-0.01 0,-0.01 0,0 0,-0.01 0,0 0,-0.01 0,0 0,-0.01 0,0 0,-0.01 -0.01,-0.01 0,-0.01 0,0 -0.01,-0.01 0,-0.01 -0.01,0 0,-0.01 -0.01,0 0,0 -0.01,-0.01 -0.01,0 -0.01,0 -0.01,0 0,0 -0.01,0 0,0 -0.01,-0.01 -0.01,0 0,0 -0.01,0 0,0 -0.01,0 -0.01,0 -0.01,0 0,0 -0.01,0 -0.01,0 -0.01,0 -0.01,0 0,0 -0.01,0 c -0.45,0.44 -1.08,0.45 -1.37,0.45 v 0.25 c 0.17,0 0.63,0 1.01,-0.2 v 3.55 c 0,0.23 0,0.32 -0.69,0.32 h -0.27 v 0.25 c 0.13,-0.01 0.98,-0.03 1.24,-0.03 0.22,0 1.09,0.02 1.25,0.03 v -0.25 h -0.27 c -0.69,0 -0.69,-0.09 -0.69,-0.32 z"
         id="path76060-3" />
    </g>
    <g
       transform="translate(-996.83978,1172.2379)"
       id="g83604-1">
      <path
         style="font-style:normal;font-variant:normal;font-weight:normal;font-stretch:normal;letter-spacing:normal;word-spacing:normal;text-anchor:start;fill:#000000;stroke:#000000;stroke-width:0;stroke-linecap:butt;stroke-linejoin:miter;stroke-miterlimit:10.43299961;stroke-opacity:1;stroke-dasharray:none;stroke-dashoffset:0"
         inkscape:connector-curvature="0"
         d="m 1406.2913,-621.57215 0.02,-0.07 0.01,-0.04 0.01,-0.03 0.02,-0.04 0.01,-0.03 0.01,-0.03 0.02,-0.04 0.02,-0.03 0.01,-0.03 0.02,-0.03 0.02,-0.03 0.03,-0.02 0.02,-0.03 0.03,-0.03 0.03,-0.02 0.03,-0.03 0.03,-0.02 0.03,-0.02 0.04,-0.02 0.04,-0.02 0.04,-0.02 0.05,-0.01 0.05,-0.02 0.05,-0.01 0.05,-0.02 0.06,-0.01 0.05,-0.01 0.07,-0.01 0.06,0 0.07,-0.01 0.04,0 0.03,0 c 0.06,0 0.17,-0.01 0.17,-0.2 0,-0.01 0,-0.11 -0.12,-0.11 -0.33,0 -0.68,0.03 -1.01,0.03 -0.34,0 -0.69,-0.03 -1.01,-0.03 -0.06,0 -0.18,0 -0.18,0.2 0,0.11 0.1,0.11 0.18,0.11 0.56,0.01 0.67,0.22 0.67,0.44 0,0.02 -0.02,0.17 -0.03,0.2 l -1.11,4.42 -2.2,-5.18 c -0.08,-0.18 -0.09,-0.19 -0.32,-0.19 h -1.33 c -0.2,0 -0.29,0 -0.29,0.2 0,0.11 0.09,0.11 0.28,0.11 0.05,0 0.67,0 0.67,0.09 l -1.33,5.33 c -0.1,0.4 -0.27,0.72 -1.07,0.75 -0.06,0 -0.17,0.01 -0.17,0.2 0,0.07 0.05,0.1 0.13,0.1 0.31,0 0.66,-0.03 0.99,-0.03 0.34,0 0.7,0.03 1.03,0.03 0.05,0 0.17,0 0.17,-0.19 0,-0.1 -0.08,-0.11 -0.19,-0.11 -0.58,-0.02 -0.66,-0.24 -0.66,-0.44 0,-0.07 0.01,-0.12 0.04,-0.23 l 1.31,-5.24 c 0.04,0.06 0.04,0.08 0.09,0.18 l 2.48,5.85 c 0.07,0.16 0.1,0.18 0.19,0.18 0.11,0 0.11,-0.03 0.16,-0.2 z"
         id="path76074-9" />
      <path
         style="font-style:normal;font-variant:normal;font-weight:normal;font-stretch:normal;letter-spacing:normal;word-spacing:normal;text-anchor:start;fill:#000000;stroke:#000000;stroke-width:0;stroke-linecap:butt;stroke-linejoin:miter;stroke-miterlimit:10.43299961;stroke-opacity:1;stroke-dasharray:none;stroke-dashoffset:0"
         inkscape:connector-curvature="0"
         d="m 1409.4884,-621.84215 0.01,-0.03 0.01,-0.03 0.01,-0.03 0,-0.03 0.01,-0.03 0.01,-0.02 0.01,-0.03 0.01,-0.02 0.01,-0.02 0.02,-0.02 0.01,-0.02 0.02,-0.02 0.01,-0.02 0.02,-0.01 0.03,-0.02 0.02,-0.01 0.03,-0.02 0.03,-0.01 0.03,-0.01 0.03,-0.01 0.02,0 0.02,-0.01 0.02,0 0.02,-0.01 0.03,0 0.02,0 0.02,-0.01 0.03,0 0.02,0 0.03,0 0.03,-0.01 0.03,0 0.03,0 0.03,0 0.03,-0.01 0.04,0 0.03,0 0.04,0 0.03,0 0.04,0 0.04,0 0.04,0 0.04,0 0.05,0 c 0.29,0 0.37,0 0.37,-0.19 0,-0.12 -0.11,-0.12 -0.16,-0.12 -0.32,0 -1.14,0.03 -1.47,0.03 -0.3,0 -1.02,-0.03 -1.32,-0.03 -0.07,0 -0.19,0 -0.19,0.2 0,0.11 0.09,0.11 0.28,0.11 0.02,0 0.21,0 0.38,0.02 0.17,0.02 0.26,0.03 0.26,0.16 0,0.04 0,0.07 -0.03,0.19 l -1.34,5.33 c -0.1,0.39 -0.12,0.47 -0.9,0.47 -0.17,0 -0.27,0 -0.27,0.2 0,0.1 0.09,0.1 0.27,0.1 h 4.6 c 0.24,0 0.25,0 0.31,-0.16 l 0.79,-2.15 c 0.04,-0.11 0.04,-0.13 0.04,-0.14 0,-0.04 -0.03,-0.11 -0.12,-0.11 -0.09,0 -0.1,0.05 -0.17,0.21 -0.34,0.91 -0.78,2.05 -2.5,2.05 h -0.93 c -0.14,0 -0.16,0 -0.22,-0.01 -0.1,-0.01 -0.13,-0.02 -0.13,-0.1 0,-0.03 0,-0.05 0.05,-0.23 z"
         id="path76076-8" />
      <path
         style="font-style:normal;font-variant:normal;font-weight:normal;font-stretch:normal;letter-spacing:normal;word-spacing:normal;text-anchor:start;fill:#000000;stroke:#000000;stroke-width:0;stroke-linecap:butt;stroke-linejoin:miter;stroke-miterlimit:10.43299961;stroke-opacity:1;stroke-dasharray:none;stroke-dashoffset:0"
         inkscape:connector-curvature="0"
         d="m 1416.0684,-615.60215 h -0.24 c -0.02,0.16 -0.09,0.57 -0.18,0.64 -0.06,0.04 -0.59,0.04 -0.69,0.04 h -1.28 c 0.73,-0.65 0.97,-0.84 1.39,-1.17 0.52,-0.41 1,-0.84 1,-1.5 0,-0.84 -0.74,-1.36 -1.63,-1.36 -0.87,0 -1.45,0.61 -1.45,1.25 0,0.35 0.3,0.39 0.37,0.39 0.16,0 0.37,-0.12 0.37,-0.37 0,-0.13 -0.05,-0.37 -0.41,-0.37 0.21,-0.49 0.69,-0.65 1.01,-0.65 0.7,0 1.06,0.54 1.06,1.11 0,0.6 -0.43,1.08 -0.65,1.33 l -1.68,1.66 c -0.07,0.06 -0.07,0.07 -0.07,0.27 h 2.87 z"
         id="path76078-6" />
    </g>
    <path
       inkscape:connector-curvature="0"
       sodipodi:nodetypes="cc"
       id="path10734-3-61-2-68-5"
       d="m 383.18759,553.10886 13.2873,0"
       style="fill:none;stroke:#000000;stroke-width:1px;stroke-linecap:round;stroke-linejoin:round;stroke-opacity:1;marker-start:none;marker-mid:none;marker-end:url(#marker3644)" />
    <path
       id="path7886-8-4-1-3-5-1-3-0-8-8"
       d="m 356.61279,540.70729 26.5748,0 0,24.80315 -26.5748,0 0,-24.80315"
       style="fill:none;stroke:#ff0000;stroke-width:1;stroke-linecap:round;stroke-linejoin:round;stroke-miterlimit:4;stroke-opacity:1;stroke-dasharray:none"
       inkscape:connector-curvature="0"
       sodipodi:nodetypes="ccccc" />
    <path
       id="path7886-8-4-1-3-5-1-3-0-8-8-6-0"
       d="m 376.10099,510.58918 26.5748,0 0,24.80315 -26.5748,0 0,-24.80315"
       style="fill:none;stroke:#0000ff;stroke-width:1;stroke-linecap:round;stroke-linejoin:round;stroke-miterlimit:4;stroke-opacity:1;stroke-dasharray:none"
       inkscape:connector-curvature="0"
       sodipodi:nodetypes="ccccc" />
    <path
       inkscape:connector-curvature="0"
       sodipodi:nodetypes="cc"
       id="path10734-3-61-2-68-5-3"
       d="m 423.93559,553.10886 15.502,0"
       style="fill:none;stroke:#000000;stroke-width:1px;stroke-linecap:round;stroke-linejoin:round;stroke-opacity:1;marker-start:none;marker-mid:none;marker-end:url(#marker3644)" />
    <path
       id="path7886-8-4-1-3-5-1-3-0-8-8-6"
       d="m 397.36079,540.70729 26.5748,0 0,24.80315 -26.5748,0 0,-24.80315"
       style="fill:none;stroke:#ff0000;stroke-width:1;stroke-linecap:round;stroke-linejoin:round;stroke-miterlimit:4;stroke-opacity:1;stroke-dasharray:none"
       inkscape:connector-curvature="0"
       sodipodi:nodetypes="ccccc" />
    <path
       inkscape:connector-curvature="0"
       id="path24674"
       d="m 431.02219,553.10886 0,-30.11811"
       style="fill:none;stroke:#000000;stroke-width:1px;stroke-linecap:butt;stroke-linejoin:miter;stroke-opacity:1" />
    <path
       style="font-style:normal;font-variant:normal;font-weight:normal;font-stretch:normal;letter-spacing:normal;word-spacing:normal;text-anchor:start;fill:#000000;stroke:#000000;stroke-width:0;stroke-linecap:butt;stroke-linejoin:miter;stroke-miterlimit:10.43299961;stroke-opacity:1;stroke-dasharray:none;stroke-dashoffset:0"
       inkscape:connector-curvature="0"
       d="m 312.01649,549.84721 0,0 0,-0.01 0,0 0,0 0,-0.01 0,0 0,0 0,-0.01 0,0 0,-0.01 -0.01,0 0,0 0,-0.01 0,0 -0.01,-0.01 0,0 0,0 0,-0.01 -0.01,0 0,0 -0.01,-0.01 0,0 -0.01,0 0,-0.01 -0.01,0 0,0 0,0 -0.01,0 0,0 0,0 -0.01,0 0,-0.01 0,0 -0.01,0 0,0 0,0 -0.01,0 0,0 -0.01,0 c -0.03,0 -0.04,0.01 -0.14,0.12 l -0.7,0.77 c -0.09,-0.14 -0.55,-0.89 -1.65,-0.89 -2.22,0 -4.46,2.2 -4.46,4.5 0,1.58 1.1,2.72 2.72,2.72 0.43,0 0.88,-0.09 1.24,-0.24 0.5,-0.19 0.69,-0.4 0.87,-0.6 0.08,0.25 0.34,0.61 0.44,0.61 0.05,0 0.07,-0.02 0.07,-0.03 0.02,-0.02 0.12,-0.4 0.17,-0.61 l 0.19,-0.77 c 0.04,-0.16 0.09,-0.33 0.13,-0.5 0.11,-0.45 0.12,-0.47 0.69,-0.48 0.05,0 0.15,-0.01 0.15,-0.2 0,-0.07 -0.04,-0.11 -0.12,-0.11 -0.23,0 -0.82,0.03 -1.05,0.03 -0.31,0 -1.08,-0.03 -1.39,-0.03 -0.09,0 -0.21,0 -0.21,0.2 0,0.11 0.08,0.11 0.3,0.11 0.01,0 0.3,0 0.52,0.02 0.26,0.03 0.31,0.06 0.31,0.19 0,0.09 -0.11,0.54 -0.2,0.9 -0.28,1.1 -1.58,1.21 -1.92,1.21 -0.96,0 -2,-0.57 -2,-2.09 0,-0.31 0.09,-1.95 1.14,-3.24 0.54,-0.67 1.5,-1.28 2.49,-1.28 1.01,0 1.6,0.77 1.6,1.92 0,0.39 -0.03,0.4 -0.03,0.5 0,0.1 0.11,0.1 0.15,0.1 0.13,0 0.13,-0.02 0.18,-0.2 z"
       id="path32536" />
    <path
       style="font-style:normal;font-variant:normal;font-weight:normal;font-stretch:normal;letter-spacing:normal;word-spacing:normal;text-anchor:start;fill:#000000;stroke:#000000;stroke-width:0;stroke-linecap:butt;stroke-linejoin:miter;stroke-miterlimit:10.43299961;stroke-opacity:1;stroke-dasharray:none;stroke-dashoffset:0"
       inkscape:connector-curvature="0"
       d="m 388.00419,522.4791 h 0.96 c 0.75,0 0.83,0.15 0.83,0.44 0,0.07 0,0.19 -0.07,0.49 -0.02,0.05 -0.03,0.09 -0.03,0.11 0,0.08 0.06,0.12 0.12,0.12 0.1,0 0.1,-0.03 0.15,-0.21 l 0.54,-2.15 c 0.03,-0.11 0.03,-0.13 0.03,-0.16 0,-0.02 -0.01,-0.11 -0.12,-0.11 -0.09,0 -0.1,0.05 -0.14,0.21 -0.21,0.77 -0.44,0.95 -1.29,0.95 h -0.9 l 0.63,-2.52 c 0.09,-0.35 0.1,-0.39 0.54,-0.39 h 1.31 c 1.23,0 1.46,0.33 1.46,1.09 0,0.23 0,0.27 -0.03,0.54 -0.02,0.13 -0.02,0.15 -0.02,0.18 0,0.05 0.03,0.11 0.12,0.11 0.11,0 0.12,-0.06 0.14,-0.24 l 0.19,-1.72 c 0.03,-0.27 -0.01,-0.27 -0.26,-0.27 h -4.88 c -0.2,0 -0.3,0 -0.3,0.2 0,0.11 0.09,0.11 0.28,0.11 0.37,0 0.65,0 0.65,0.18 0,0.04 0,0.06 -0.05,0.23 l -1.31,5.26 c -0.1,0.39 -0.12,0.47 -0.91,0.47 -0.17,0 -0.28,0 -0.28,0.19 0,0.11 0.12,0.11 0.15,0.11 0.29,0 1.02,-0.03 1.31,-0.03 0.33,0 1.16,0.03 1.49,0.03 0.09,0 0.21,0 0.21,-0.18 0,-0.08 -0.07,-0.1 -0.07,-0.11 -0.02,-0.01 -0.04,-0.01 -0.27,-0.01 -0.22,0 -0.27,0 -0.52,-0.02 -0.29,-0.03 -0.32,-0.07 -0.32,-0.2 0,-0.02 0,-0.08 0.04,-0.23 z"
       id="path32538" />
    <path
       inkscape:connector-curvature="0"
       style="fill:none;stroke:#000000;stroke-width:1px;stroke-linecap:round;stroke-linejoin:round;stroke-opacity:1;marker-start:none;marker-mid:none;marker-end:url(#marker3644-553)"
       d="m 283.97133,687.06736 8.8582,0"
       id="path8288-2-4-1-1-7-2-2"
       sodipodi:nodetypes="cc" />
    <path
       sodipodi:nodetypes="ccccc"
       inkscape:connector-curvature="0"
       style="fill:#ffffff;fill-opacity:1;stroke:#006400;stroke-width:1;stroke-linecap:round;stroke-linejoin:round;stroke-miterlimit:4;stroke-opacity:1;stroke-dasharray:none"
       d="m 351.29413,598.30358 23.03138,-0.25253 0,51.40287 -23.03138,0 0,-51.15034"
       id="path7886-8-4-1-3-6-3-1-2-4" />
    <path
       inkscape:connector-curvature="0"
       style="fill:none;stroke:#000000;stroke-width:1px;stroke-linecap:round;stroke-linejoin:round;stroke-opacity:1;marker-start:none;marker-mid:none;marker-end:url(#marker3644-553)"
       d="m 331.80593,606.67849 0,56.94866"
       id="path8288-2-4-1-3-1-2-4-2-9"
       sodipodi:nodetypes="cc" />
    <path
       sodipodi:nodetypes="cc"
       inkscape:connector-curvature="0"
       id="path18401-7-2-1-34"
       d="m 352.52619,606.75246 -21.25597,0.0275"
       style="fill:none;stroke:#000000;stroke-width:1px;stroke-linecap:butt;stroke-linejoin:miter;stroke-opacity:1" />
    <path
       inkscape:connector-curvature="0"
       id="path18429-9-3-6-0"
       d="m 392.04211,604.68357 0,64.25854"
       style="fill:none;stroke:#000000;stroke-width:1px;stroke-linecap:butt;stroke-linejoin:miter;stroke-opacity:1"
       sodipodi:nodetypes="cc" />
    <g
       transform="translate(106.03064,361.08315)"
       id="g4215-3-2-5-0">
      <circle
         d="m 177.16535,237.40155 c 0,4.89229 -3.96598,8.85827 -8.85827,8.85827 -4.89228,0 -8.85826,-3.96598 -8.85826,-8.85827 0,-4.89229 3.96598,-8.85827 8.85826,-8.85827 4.89229,0 8.85827,3.96598 8.85827,8.85827 z"
         transform="translate(0.7753808,88.582676)"
         id="path7917-9-1-7-49"
         style="fill:none;stroke:#000000;stroke-width:1;stroke-linecap:round;stroke-linejoin:round;stroke-miterlimit:4;stroke-opacity:1;stroke-dasharray:none"
         cx="168.30708"
         cy="237.40155"
         r="8.8582678"
         sodipodi:cx="168.30708"
         sodipodi:cy="237.40155"
         sodipodi:rx="8.8582678"
         sodipodi:ry="8.8582678" />
      <path
         inkscape:connector-curvature="0"
         id="path7919-8-6-6-47"
         d="m 163.7675,329.52754 10.62992,0"
         style="fill:none;stroke:#000000;stroke-width:1;stroke-linecap:butt;stroke-linejoin:miter;stroke-miterlimit:4;stroke-opacity:1;stroke-dasharray:none" />
      <path
         inkscape:connector-curvature="0"
         sodipodi:nodetypes="cc"
         id="path7921-8-8-1-3"
         d="m 165.53916,329.52754 0,-7.08662"
         style="fill:none;stroke:#000000;stroke-width:1;stroke-linecap:butt;stroke-linejoin:miter;stroke-miterlimit:4;stroke-opacity:1;stroke-dasharray:none;marker-end:url(#Arrow2Send-06)" />
      <path
         inkscape:connector-curvature="0"
         sodipodi:nodetypes="cc"
         id="path7923-0-5-8-8"
         d="m 169.08246,329.52754 0,-7.08662"
         style="fill:none;stroke:#000000;stroke-width:1;stroke-linecap:butt;stroke-linejoin:miter;stroke-miterlimit:4;stroke-opacity:1;stroke-dasharray:none;marker-end:url(#Arrow2Send-06)" />
      <path
         inkscape:connector-curvature="0"
         sodipodi:nodetypes="cc"
         id="path7925-8-7-9-5"
         d="m 172.62577,329.52754 0,-7.08662"
         style="fill:none;stroke:#000000;stroke-width:1;stroke-linecap:butt;stroke-linejoin:miter;stroke-miterlimit:4;stroke-opacity:1;stroke-dasharray:none;marker-end:url(#Arrow2Send-06)" />
    </g>
    <path
       style="fill:none;stroke:#000000;stroke-width:1px;stroke-linecap:round;stroke-linejoin:round;stroke-opacity:1;marker-start:none;marker-mid:none;marker-end:url(#marker3644-553)"
       d="m 341.55003,709.1024 8.8582,0"
       id="path10734-3-61-2-4"
       sodipodi:nodetypes="cc"
       inkscape:connector-curvature="0" />
    <path
       style="fill:none;stroke:#000000;stroke-width:1px;stroke-linecap:round;stroke-linejoin:round;stroke-opacity:1;marker-start:none;marker-mid:none;marker-end:url(#marker3644-553)"
       d="m 374.32561,668.94211 24.8031,0"
       id="path10734-3-9-8-7-0"
       sodipodi:nodetypes="cc"
       inkscape:connector-curvature="0" />
    <path
       style="fill:none;stroke:#000000;stroke-width:1px;stroke-linecap:round;stroke-linejoin:round;stroke-opacity:1;marker-start:none;marker-mid:none;marker-end:url(#marker3644-553)"
       d="m 335.34923,668.94211 14.1732,0"
       id="path10734-3-61-9-5-2"
       sodipodi:nodetypes="cc"
       inkscape:connector-curvature="0" />
    <path
       style="fill:none;stroke:#000000;stroke-width:1px;stroke-linecap:round;stroke-linejoin:round;stroke-opacity:1;marker-start:none;marker-mid:none;marker-end:url(#marker3644-553)"
       d="m 374.32561,709.1024 24.8031,0"
       id="path10734-3-9-8-6-4-3"
       sodipodi:nodetypes="cc"
       inkscape:connector-curvature="0" />
    <path
       style="fill:none;stroke:#000000;stroke-width:1px;stroke-linecap:round;stroke-linejoin:round;stroke-opacity:1;marker-start:none;marker-mid:none;marker-end:url(#marker3644-553)"
       d="m 315.86093,709.1024 15.945,0"
       id="path10734-3-6-9-1-3-5"
       sodipodi:nodetypes="cc"
       inkscape:connector-curvature="0" />
    <path
       inkscape:connector-curvature="0"
       style="fill:#ffffff;fill-opacity:1;stroke:#006400;stroke-width:1;stroke-linecap:round;stroke-linejoin:round;stroke-miterlimit:4;stroke-opacity:1;stroke-dasharray:none"
       d="m 294.60123,660.08384 23.0315,0 0,57.57327 -23.0315,0 0,-57.57327"
       id="path7886-8-4-1-5-1-1-1"
       sodipodi:nodetypes="ccccc" />
    <path
       sodipodi:nodetypes="cc"
       inkscape:connector-curvature="0"
       id="path18401-7-2-3-2-0"
       d="m 352.93563,640.73772 -15.8147,0.0551"
       style="fill:none;stroke:#000000;stroke-width:1px;stroke-linecap:butt;stroke-linejoin:miter;stroke-opacity:1" />
    <path
       inkscape:connector-curvature="0"
       id="path18429-9-3-8-3-5"
       d="m 386.72721,644.13896 0,64.63232"
       style="fill:none;stroke:#000000;stroke-width:0.99921262;stroke-linecap:butt;stroke-linejoin:miter;stroke-miterlimit:4;stroke-opacity:1;stroke-dasharray:none"
       sodipodi:nodetypes="cc" />
    <path
       inkscape:connector-curvature="0"
       style="fill:none;stroke:#000000;stroke-width:1px;stroke-linecap:round;stroke-linejoin:round;stroke-opacity:1;marker-start:none;marker-mid:none;marker-end:url(#marker3644-553)"
       d="m 337.12093,640.79283 -10e-5,63.72875"
       id="path8288-2-4-1-3-1-2-4-6-3-85"
       sodipodi:nodetypes="cc" />
    <path
       style="fill:none;stroke:#000000;stroke-width:1px;stroke-linecap:round;stroke-linejoin:round;stroke-opacity:1;marker-start:none;marker-mid:none;marker-end:url(#marker3644-553)"
       d="m 392.1314,604.17849 -15.9448,0"
       id="path10734-3-6-9-4-4-27"
       sodipodi:nodetypes="cc"
       inkscape:connector-curvature="0" />
    <path
       style="fill:none;stroke:#000000;stroke-width:1px;stroke-linecap:round;stroke-linejoin:round;stroke-opacity:1;marker-start:none;marker-mid:none;marker-end:url(#marker3644-553)"
       d="m 386.72721,644.13896 -10.6299,0"
       id="path10734-3-6-9-4-8-1-0"
       sodipodi:nodetypes="cc"
       inkscape:connector-curvature="0" />
    <g
       id="g7830-1-7"
       transform="translate(-394.57202,526.6221)">
      <circle
         sodipodi:ry="3.5433071"
         sodipodi:rx="3.5433071"
         sodipodi:cy="182.48029"
         sodipodi:cx="731.69293"
         d="m 735.23624,182.48029 c 0,1.95691 -1.58639,3.5433 -3.54331,3.5433 -1.95691,0 -3.5433,-1.58639 -3.5433,-3.5433 0,-1.95692 1.58639,-3.54331 3.5433,-3.54331 1.95692,0 3.54331,1.58639 3.54331,3.54331 z"
         style="fill:none;stroke:#000000;stroke-width:0.99921262;stroke-miterlimit:4;stroke-opacity:1;stroke-dasharray:none"
         id="path7806-3-32"
         cx="731.69293"
         cy="182.48029"
         r="3.5433071" />
      <path
         style="fill:none;stroke:#000000;stroke-width:1px;stroke-linecap:butt;stroke-linejoin:miter;stroke-opacity:1"
         d="m 731.69291,180.70864 c 0,3.54331 0,3.54331 0,3.54331"
         id="path7808-8-7"
         inkscape:connector-curvature="0" />
      <path
         style="fill:none;stroke:#000000;stroke-width:1px;stroke-linecap:butt;stroke-linejoin:miter;stroke-opacity:1"
         d="m 729.92126,182.48029 3.54331,0"
         id="path7810-7-7"
         inkscape:connector-curvature="0" />
    </g>
    <g
       id="g7830-9-4-4"
       transform="translate(-399.88699,486.46178)">
      <circle
         sodipodi:ry="3.5433071"
         sodipodi:rx="3.5433071"
         sodipodi:cy="182.48029"
         sodipodi:cx="731.69293"
         d="m 735.23624,182.48029 c 0,1.95691 -1.58639,3.5433 -3.54331,3.5433 -1.95691,0 -3.5433,-1.58639 -3.5433,-3.5433 0,-1.95692 1.58639,-3.54331 3.5433,-3.54331 1.95692,0 3.54331,1.58639 3.54331,3.54331 z"
         style="fill:none;stroke:#000000;stroke-width:0.99921262;stroke-miterlimit:4;stroke-opacity:1;stroke-dasharray:none"
         id="path7806-1-2-2"
         cx="731.69293"
         cy="182.48029"
         r="3.5433071" />
      <path
         style="fill:none;stroke:#000000;stroke-width:1px;stroke-linecap:butt;stroke-linejoin:miter;stroke-opacity:1"
         d="m 731.69291,180.70864 c 0,3.54331 0,3.54331 0,3.54331"
         id="path7808-3-7-3"
         inkscape:connector-curvature="0" />
      <path
         style="fill:none;stroke:#000000;stroke-width:1px;stroke-linecap:butt;stroke-linejoin:miter;stroke-opacity:1"
         d="m 729.92126,182.48029 3.54331,0"
         id="path7810-5-7-2"
         inkscape:connector-curvature="0" />
    </g>
    <path
       id="path25233-2-6-2"
       d="m 288.95793,678.99133 0.09,-0.02 0.1,-0.03 0.09,-0.03 0.1,-0.03 0.09,-0.03 0.1,-0.03 0.1,-0.04 0.09,-0.04 0.1,-0.05 0.09,-0.04 0.09,-0.05 0.09,-0.05 0.09,-0.05 0.08,-0.06 0.09,-0.06 0.08,-0.06 0.07,-0.06 0.08,-0.06 0.07,-0.07 0.07,-0.07 0.06,-0.07 0.06,-0.07 0.05,-0.08 0.05,-0.08 0.05,-0.08 0.04,-0.08 0.03,-0.08 0.03,-0.09 0.02,-0.09 0.02,-0.09 0.01,-0.09 0,-0.09 c 0,-0.85 -0.89,-1.49 -2.19,-1.49 l -2.84,0 c -0.2,0 -0.29,0 -0.29,0.2 0,0.11 0.09,0.11 0.28,0.11 0.02,0 0.21,0 0.38,0.02 0.18,0.02 0.27,0.03 0.27,0.16 0,0.04 -0.01,0.07 -0.04,0.19 l -1.34,5.33 c -0.1,0.39 -0.11,0.47 -0.9,0.47 -0.18,0 -0.27,0 -0.27,0.2 0,0.1 0.12,0.1 0.14,0.1 0.28,0 0.97,-0.03 1.25,-0.03 0.28,0 0.99,0.03 1.27,0.03 0.08,0 0.2,0 0.2,-0.19 0,-0.11 -0.09,-0.11 -0.28,-0.11 -0.37,0 -0.65,0 -0.65,-0.18 0,-0.06 0.02,-0.11 0.03,-0.17 l 0.66,-2.63 1.18,0 -0.01,-0.22 -1.11,0 0.64,-2.59 c 0.06,-0.24 0.09,-0.34 0.28,-0.37 0.09,-0.01 0.41,-0.01 0.61,-0.01 0.71,0 1.81,0 1.81,0.98 0,0.34 -0.16,1.03 -0.55,1.41 -0.26,0.26 -0.78,0.58 -1.68,0.58 l 0.01,0.22 c 0.91,0 1.09,0.55 1.09,0.9 0,0.15 -0.08,0.46 -0.14,0.69 -0.07,0.27 -0.16,0.64 -0.16,0.84 0,1.07 1.19,1.07 1.32,1.07 0.85,0 1.19,-1 1.19,-1.14 0,-0.12 -0.11,-0.12 -0.12,-0.12 -0.08,0 -0.11,0.07 -0.12,0.14 -0.25,0.74 -0.68,0.9 -0.91,0.9 -0.33,0 -0.4,-0.21 -0.4,-0.6 0,-0.31 0.06,-0.82 0.1,-1.13 0.02,-0.14 0.04,-0.33 0.04,-0.47 0,-0.76 -0.67,-1.07 -0.93,-1.17 z"
       inkscape:connector-curvature="0"
       style="font-style:normal;font-variant:normal;font-weight:normal;font-stretch:normal;letter-spacing:normal;word-spacing:normal;text-anchor:start;fill:#000000;stroke:#000000;stroke-width:0;stroke-linecap:butt;stroke-linejoin:miter;stroke-miterlimit:10.43299961;stroke-opacity:1;stroke-dasharray:none;stroke-dashoffset:0" />
    <path
       sodipodi:nodetypes="ccccc"
       inkscape:connector-curvature="0"
       style="fill:none;stroke:#ff0000;stroke-width:1;stroke-linecap:round;stroke-linejoin:round;stroke-miterlimit:4;stroke-opacity:1;stroke-dasharray:none"
       d="m 351.18663,659.99588 23.03148,0 0,17.71653 -23.03148,0 0,-17.71653"
       id="path7886-8-4-1-3-5-1-3-09" />
    <g
       id="g83591-8"
       transform="translate(-985.85807,1286.9146)">
      <path
         id="path76056-2"
         d="m 1346.6013,-621.57215 0.02,-0.07 0.01,-0.04 0.02,-0.03 0.01,-0.04 0.01,-0.03 0.02,-0.03 0.01,-0.04 0.02,-0.03 0.02,-0.03 0.02,-0.03 0.02,-0.03 0.02,-0.02 0.02,-0.03 0.03,-0.03 0.03,-0.02 0.03,-0.03 0.03,-0.02 0.04,-0.02 0.03,-0.02 0.04,-0.02 0.05,-0.02 0.04,-0.01 0.05,-0.02 0.05,-0.01 0.05,-0.02 0.06,-0.01 0.06,-0.01 0.06,-0.01 0.07,0 0.07,-0.01 0.03,0 0.04,0 c 0.05,0 0.17,-0.01 0.17,-0.2 0,-0.01 0,-0.11 -0.13,-0.11 -0.33,0 -0.68,0.03 -1.01,0.03 -0.33,0 -0.68,-0.03 -1.01,-0.03 -0.06,0 -0.18,0 -0.18,0.2 0,0.11 0.1,0.11 0.18,0.11 0.57,0.01 0.68,0.22 0.68,0.44 0,0.02 -0.02,0.17 -0.03,0.2 l -1.12,4.42 -2.2,-5.18 c -0.08,-0.18 -0.09,-0.19 -0.32,-0.19 l -1.33,0 c -0.2,0 -0.29,0 -0.29,0.2 0,0.11 0.09,0.11 0.28,0.11 0.05,0 0.68,0 0.68,0.09 l -1.34,5.33 c -0.1,0.4 -0.27,0.72 -1.07,0.75 -0.06,0 -0.17,0.01 -0.17,0.2 0,0.07 0.05,0.1 0.13,0.1 0.32,0 0.67,-0.03 0.99,-0.03 0.34,0 0.7,0.03 1.03,0.03 0.05,0 0.18,0 0.18,-0.19 0,-0.1 -0.09,-0.11 -0.2,-0.11 -0.58,-0.02 -0.66,-0.24 -0.66,-0.44 0,-0.07 0.01,-0.12 0.04,-0.23 l 1.32,-5.24 c 0.03,0.06 0.03,0.08 0.09,0.18 l 2.47,5.85 c 0.07,0.16 0.1,0.18 0.19,0.18 0.11,0 0.11,-0.03 0.16,-0.2 z"
         inkscape:connector-curvature="0"
         style="font-style:normal;font-variant:normal;font-weight:normal;font-stretch:normal;letter-spacing:normal;word-spacing:normal;text-anchor:start;fill:#000000;stroke:#000000;stroke-width:0;stroke-linecap:butt;stroke-linejoin:miter;stroke-miterlimit:10.43299961;stroke-opacity:1;stroke-dasharray:none;stroke-dashoffset:0" />
      <path
         id="path76058-7"
         d="m 1350.0184,-621.84215 0.01,-0.03 0.01,-0.03 0.01,-0.03 0.01,-0.03 0.01,-0.03 0,-0.02 0.01,-0.03 0.01,-0.02 0.02,-0.02 0.01,-0.02 0.01,-0.02 0.02,-0.02 0.02,-0.02 0.02,-0.01 0.02,-0.02 0.02,-0.01 0.03,-0.02 0.03,-0.01 0.03,-0.01 0.04,-0.01 0.02,0 0.02,-0.01 0.02,0 0.02,-0.01 0.02,0 0.02,0 0.03,-0.01 0.02,0 0.03,0 0.02,0 0.03,-0.01 0.03,0 0.03,0 0.03,0 0.03,-0.01 0.04,0 0.03,0 0.04,0 0.03,0 0.04,0 0.04,0 0.04,0 0.04,0 0.05,0 c 0.3,0 0.38,0 0.38,-0.19 0,-0.12 -0.11,-0.12 -0.16,-0.12 -0.33,0 -1.15,0.03 -1.48,0.03 -0.29,0 -1.02,-0.03 -1.32,-0.03 -0.07,0 -0.19,0 -0.19,0.2 0,0.11 0.09,0.11 0.28,0.11 0.02,0 0.21,0 0.38,0.02 0.18,0.02 0.27,0.03 0.27,0.16 0,0.04 -0.01,0.07 -0.04,0.19 l -1.33,5.33 c -0.1,0.39 -0.13,0.47 -0.91,0.47 -0.17,0 -0.27,0 -0.27,0.2 0,0.1 0.09,0.1 0.27,0.1 l 4.61,0 c 0.23,0 0.25,0 0.3,-0.16 l 0.79,-2.15 c 0.04,-0.11 0.04,-0.13 0.04,-0.14 0,-0.04 -0.03,-0.11 -0.12,-0.11 -0.09,0 -0.1,0.05 -0.17,0.21 -0.34,0.91 -0.77,2.05 -2.5,2.05 l -0.93,0 c -0.14,0 -0.16,0 -0.22,-0.01 -0.1,-0.01 -0.13,-0.02 -0.13,-0.1 0,-0.03 0,-0.05 0.05,-0.23 z"
         inkscape:connector-curvature="0"
         style="font-style:normal;font-variant:normal;font-weight:normal;font-stretch:normal;letter-spacing:normal;word-spacing:normal;text-anchor:start;fill:#000000;stroke:#000000;stroke-width:0;stroke-linecap:butt;stroke-linejoin:miter;stroke-miterlimit:10.43299961;stroke-opacity:1;stroke-dasharray:none;stroke-dashoffset:0" />
      <path
         id="path76060-30"
         d="m 1355.4184,-618.75215 0,-0.01 0,-0.01 0,-0.01 0,-0.01 0,0 0,-0.01 0,-0.01 0,-0.01 -0.01,0 0,-0.01 0,-0.01 0,0 0,-0.01 0,0 0,-0.01 0,0 0,-0.01 0,0 0,-0.01 -0.01,-0.01 0,-0.01 0,0 -0.01,-0.01 0,-0.01 -0.01,0 0,-0.01 -0.01,0 0,0 -0.01,-0.01 -0.01,0 -0.01,0 -0.01,0 0,0 -0.01,0 0,0 -0.01,-0.01 -0.01,0 0,0 -0.01,0 0,0 -0.01,0 -0.01,0 -0.01,0 0,0 -0.01,0 -0.01,0 -0.01,0 -0.01,0 0,0 -0.01,0 c -0.45,0.44 -1.08,0.45 -1.37,0.45 l 0,0.25 c 0.17,0 0.63,0 1.01,-0.2 l 0,3.55 c 0,0.23 0,0.32 -0.69,0.32 l -0.27,0 0,0.25 c 0.13,-0.01 0.98,-0.03 1.24,-0.03 0.22,0 1.09,0.02 1.25,0.03 l 0,-0.25 -0.27,0 c -0.69,0 -0.69,-0.09 -0.69,-0.32 z"
         inkscape:connector-curvature="0"
         style="font-style:normal;font-variant:normal;font-weight:normal;font-stretch:normal;letter-spacing:normal;word-spacing:normal;text-anchor:start;fill:#000000;stroke:#000000;stroke-width:0;stroke-linecap:butt;stroke-linejoin:miter;stroke-miterlimit:10.43299961;stroke-opacity:1;stroke-dasharray:none;stroke-dashoffset:0" />
    </g>
    <path
       style="font-style:normal;font-variant:normal;font-weight:normal;font-stretch:normal;letter-spacing:normal;word-spacing:normal;text-anchor:start;fill:#000000;stroke:#000000;stroke-width:0;stroke-linecap:butt;stroke-linejoin:miter;stroke-miterlimit:10.43299961;stroke-opacity:1;stroke-dasharray:none;stroke-dashoffset:0"
       inkscape:connector-curvature="0"
       d="m 362.11903,593.78704 -2.39,-5.25 c -0.11,-0.25 -0.22,-0.25 -0.44,-0.25 l -2.21,0 0,0.47 1.08,0 0,5.59 c 0,0.22 -0.01,0.23 -0.29,0.26 -0.24,0.03 -0.26,0.03 -0.54,0.03 l -0.25,0 0,0.46 c 0.38,-0.03 0.95,-0.03 1.34,-0.03 0.42,0 0.93,0 1.34,0.03 l 0,-0.46 -0.25,0 c -0.18,0 -0.35,-0.01 -0.53,-0.03 -0.28,-0.03 -0.29,-0.04 -0.29,-0.26 l 0,-5.46 0.01,0 2.7,5.97 c 0.09,0.2 0.21,0.24 0.32,0.24 0.2,0 0.28,-0.14 0.32,-0.23 l 2.76999,-6.11 0.01,0 0,5.88 -1.06999,0 0,0.46 c 0.35999,-0.03 1.27999,-0.03 1.68999,-0.03 0.40999,0 1.33999,0 1.69999,0.03 l 0,-0.46 -1.07,0 0,-5.88 1.07,0 0,-0.47 -2.19999,0 c -0.22,0 -0.32,0 -0.43,0.25 z"
       id="path76092-9" />
    <path
       style="font-style:normal;font-variant:normal;font-weight:normal;font-stretch:normal;letter-spacing:normal;word-spacing:normal;text-anchor:start;fill:#000000;stroke:#000000;stroke-width:0;stroke-linecap:butt;stroke-linejoin:miter;stroke-miterlimit:10.43299961;stroke-opacity:1;stroke-dasharray:none;stroke-dashoffset:0"
       inkscape:connector-curvature="0"
       d="m 306.02246,651.65738 -0.01,-0.01 0,-0.01 -0.01,-0.02 0,-0.01 -0.02,-0.02 -0.01,-0.02 -0.01,-0.01 -0.01,-0.02 -0.01,-0.02 -0.01,-0.01 -0.01,-0.01 -0.01,-0.02 -0.01,-0.01 -0.01,-0.01 -0.02,-0.01 -0.01,0 -0.01,-0.01 -0.01,-0.01 -0.01,0 -0.02,-0.01 -0.01,0 -0.01,-0.01 -0.01,0 -0.02,0 -0.01,0 -0.01,0 -0.02,-0.01 -0.01,0 -0.02,0 -0.01,0 -0.03,0 -0.03,0 c -0.28,0 -0.32,0.08 -0.39,0.26 l -2.47,5.98 c -0.06,0.15 -0.09,0.23 -0.84,0.23 l -0.21,0 0,0.46 c 0.38,-0.01 0.85,-0.03 1.16,-0.03 0.39,0 0.95,0 1.32,0.03 l 0,-0.46 c -0.03,0 -0.89,0 -0.89,-0.13 0,-0.01 0.03,-0.11 0.04,-0.12 l 0.5,-1.2 0.2,-0.47 1.13,-2.76 1.13,2.76 -2.26,0 -0.2,0.47 2.66,0 0.6,1.45 -0.94,0 0,0.46 c 0.37,-0.03 1.32,-0.03 1.75,-0.03 0.39,0 1.27,0 1.62,0.03 l 0,-0.46 -0.97,0 z"
       id="path76094-6" />
    <path
       sodipodi:nodetypes="ccccc"
       inkscape:connector-curvature="0"
       style="fill:none;stroke:#ff0000;stroke-width:1;stroke-linecap:round;stroke-linejoin:round;stroke-miterlimit:4;stroke-opacity:1;stroke-dasharray:none"
       d="m 351.18663,700.15616 23.03148,0 0,17.71653 -23.03148,0 0,-17.71653"
       id="path7886-8-4-1-3-5-1-3-09-5" />
    <path
       inkscape:connector-curvature="0"
       style="fill:#ffffff;fill-opacity:1;stroke:#006400;stroke-width:1;stroke-linecap:round;stroke-linejoin:round;stroke-miterlimit:4;stroke-opacity:1;stroke-dasharray:none"
       d="m 400.90041,660.08384 23.0315,0 0,57.57327 -23.0315,0 0,-57.57327"
       id="path7886-8-4-1-5-1-1-1-4"
       sodipodi:nodetypes="ccccc" />
    <path
       style="fill:none;stroke:#000000;stroke-width:1px;stroke-linecap:round;stroke-linejoin:round;stroke-opacity:1;marker-start:none;marker-mid:none;marker-end:url(#marker3644-553-4)"
       d="m 423.93181,687.06736 10.63,0"
       id="path10734-3-6-9-9-3-2"
       sodipodi:nodetypes="cc"
       inkscape:connector-curvature="0" />
    <path
       style="fill:none;stroke:#000000;stroke-width:1px;stroke-linecap:round;stroke-linejoin:round;stroke-opacity:1;marker-start:none;marker-mid:none;marker-end:url(#marker3644-553-1)"
       d="m 317.63273,668.94211 8.8582,0"
       id="path10734-3-61-2-4-2"
       sodipodi:nodetypes="cc"
       inkscape:connector-curvature="0" />
    <g
       ns0:preamble=""
       ns0:text="$\\mathbf{B}$\n"
       word-spacing="normal"
       letter-spacing="normal"
       font-size-adjust="none"
       font-stretch="normal"
       font-weight="normal"
       font-variant="normal"
       font-style="normal"
       stroke-miterlimit="10.433"
       xml:space="preserve"
       transform="matrix(0.99999999,0,0,-0.99999999,184.87824,1361.7424)"
       id="content"
       style="font-style:normal;font-variant:normal;font-weight:normal;font-stretch:normal;letter-spacing:normal;word-spacing:normal;text-anchor:start;fill:none;stroke:#000000;stroke-linecap:butt;stroke-linejoin:miter;stroke-miterlimit:10.43299961;stroke-opacity:1;stroke-dasharray:none;stroke-dashoffset:0">
<path
   id="path3220"
   d="m 228.88,706.72798 0.1,0.02 0.1,0.02 0.09,0.02 0.1,0.03 0.09,0.03 0.08,0.03 0.09,0.03 0.08,0.04 0.07,0.03 0.08,0.04 0.07,0.04 0.07,0.04 0.07,0.05 0.06,0.04 0.06,0.05 0.06,0.05 0.05,0.05 0.05,0.05 0.05,0.06 0.04,0.05 0.04,0.06 0.04,0.06 0.04,0.06 0.03,0.06 0.02,0.07 0.03,0.06 0.02,0.07 0.02,0.06 0.01,0.07 0.01,0.07 0,0.07 0,0.07 c 0,0.92 -0.86,1.71 -2.46,1.71 l -0.13,-0.47 c 1,0 1.18,-0.78 1.18,-1.24 0,-0.76 -0.48,-1.38 -1.44,-1.38 h -1.55 v -0.36 h 1.93 c 0.2,0 0.66,0 1,-0.42 0.33,-0.42 0.33,-0.98 0.33,-1.09 0,-0.12 0,-1.39 -1.43,-1.39 h 0 -1.83 v 2.9 0.36 2.62 h 1.81 l 0.13,0.47 h -4.32 v -0.47 h 1.08 v -5.88 h -1.08 v -0.46 h 4.62 c 1.65,0 2.48,0.87 2.48,1.84 0,0.96 -0.85,1.62 -2.04,1.71 z"
   inkscape:connector-curvature="0"
   style="fill:#000000;stroke-width:0" />
</g>    <g
       style="font-style:normal;font-variant:normal;font-weight:normal;font-stretch:normal;letter-spacing:normal;word-spacing:normal;text-anchor:start;fill:none;stroke:#000000;stroke-linecap:butt;stroke-linejoin:miter;stroke-miterlimit:10.43299961;stroke-opacity:1;stroke-dasharray:none;stroke-dashoffset:0"
       id="g3223"
       transform="matrix(0.99999999,0,0,-0.99999999,213.11686,1397.093)"
       xml:space="preserve"
       stroke-miterlimit="10.433"
       font-style="normal"
       font-variant="normal"
       font-weight="normal"
       font-stretch="normal"
       font-size-adjust="none"
       letter-spacing="normal"
       word-spacing="normal"
       ns0:text="$Y_t$\n"
       ns0:preamble="">
<path
   style="fill:#000000;stroke-width:0"
   inkscape:connector-curvature="0"
   d="m 229.37,712.78 0.14,0.14 c 0.3,0.29 0.63,0.63 1.3,0.68 0.11,0.01 0.2,0.01 0.2,0.19 0,0.08 -0.05,0.12 -0.13,0.12 -0.25,0 -0.54,-0.03 -0.81,-0.03 -0.33,0 -0.68,0.03 -1,0.03 -0.06,0 -0.19,0 -0.19,-0.19 0,-0.11 0.1,-0.12 0.15,-0.12 0.07,0 0.36,-0.02 0.36,-0.23 0,-0.16 -0.23,-0.42 -0.27,-0.47 l -2.3,-2.66 -1.1,2.96 c -0.06,0.13 -0.06,0.15 -0.06,0.16 0,0.24 0.49,0.24 0.59,0.24 0.14,0 0.24,0 0.24,0.2 0,0.11 -0.12,0.11 -0.15,0.11 -0.28,0 -0.98,-0.03 -1.26,-0.03 -0.24,0 -0.86,0.03 -1.11,0.03 -0.06,0 -0.19,0 -0.19,-0.2 0,-0.11 0.1,-0.11 0.23,-0.11 0.6,0 0.64,-0.09 0.73,-0.34 l 1.22,-3.26 c 0.01,-0.03 0.04,-0.14 0.04,-0.17 0,-0.03 -0.4,-1.63 -0.45,-1.81 -0.13,-0.55 -0.14,-0.58 -0.93,-0.59 -0.19,0 -0.27,0 -0.27,-0.2 0,-0.1 0.12,-0.1 0.14,-0.1 0.27,0 0.97,0.03 1.25,0.03 0.28,0 1,-0.03 1.27,-0.03 0.07,0 0.19,0 0.19,0.19 0,0.11 -0.09,0.11 -0.28,0.11 -0.02,0 -0.21,0 -0.37,0.02 -0.21,0.02 -0.27,0.04 -0.27,0.16 0,0.07 0.09,0.42 0.14,0.63 l 0.34,1.4 c 0.06,0.19 0.06,0.22 0.14,0.31 z"
   id="path3225" />
<path
   style="fill:#000000;stroke-width:0"
   inkscape:connector-curvature="0"
   d="m 230.93,708.38 h 0.71 c 0.13,0 0.22,0 0.22,0.15 0,0.1 -0.09,0.1 -0.21,0.1 h -0.66 l 0.26,1.03 c 0.01,0.03 0.02,0.07 0.02,0.1 0,0.12 -0.1,0.22 -0.24,0.22 -0.17,0 -0.27,-0.12 -0.32,-0.3 -0.05,-0.18 0.04,0.16 -0.27,-1.05 h -0.71 c -0.13,0 -0.22,0 -0.22,-0.16 0,-0.09 0.08,-0.09 0.21,-0.09 h 0.66 l -0.41,-1.64 c -0.04,-0.18 -0.11,-0.43 -0.11,-0.52 0,-0.41 0.35,-0.66 0.75,-0.66 0.77,0 1.21,0.97 1.21,1.07 0,0.09 -0.09,0.09 -0.11,0.09 -0.08,0 -0.09,-0.02 -0.15,-0.14 -0.19,-0.43 -0.55,-0.82 -0.93,-0.82 -0.15,0 -0.24,0.09 -0.24,0.34 0,0.07 0.02,0.21 0.04,0.28 z"
   id="path3227" />
</g>    <path
       inkscape:connector-curvature="0"
       id="path3127"
       d="m 327.8084,662.9709 2.27679,0"
       style="fill:none;stroke:#000000;stroke-width:1px;stroke-linecap:butt;stroke-linejoin:miter;stroke-opacity:1" />
    <path
       inkscape:connector-curvature="0"
       id="path3127-1"
       d="m 331.40215,705.24769 2.27679,0"
       style="fill:none;stroke:#000000;stroke-width:1px;stroke-linecap:butt;stroke-linejoin:miter;stroke-opacity:1" />
    <g
       transform="translate(-1045.1148,1328.3343)"
       id="g83604-1-3">
      <path
         style="font-style:normal;font-variant:normal;font-weight:normal;font-stretch:normal;letter-spacing:normal;word-spacing:normal;text-anchor:start;fill:#000000;stroke:#000000;stroke-width:0;stroke-linecap:butt;stroke-linejoin:miter;stroke-miterlimit:10.43299961;stroke-opacity:1;stroke-dasharray:none;stroke-dashoffset:0"
         inkscape:connector-curvature="0"
         d="m 1406.2913,-621.57215 0.02,-0.07 0.01,-0.04 0.01,-0.03 0.02,-0.04 0.01,-0.03 0.01,-0.03 0.02,-0.04 0.02,-0.03 0.01,-0.03 0.02,-0.03 0.02,-0.03 0.03,-0.02 0.02,-0.03 0.03,-0.03 0.03,-0.02 0.03,-0.03 0.03,-0.02 0.03,-0.02 0.04,-0.02 0.04,-0.02 0.04,-0.02 0.05,-0.01 0.05,-0.02 0.05,-0.01 0.05,-0.02 0.06,-0.01 0.05,-0.01 0.07,-0.01 0.06,0 0.07,-0.01 0.04,0 0.03,0 c 0.06,0 0.17,-0.01 0.17,-0.2 0,-0.01 0,-0.11 -0.12,-0.11 -0.33,0 -0.68,0.03 -1.01,0.03 -0.34,0 -0.69,-0.03 -1.01,-0.03 -0.06,0 -0.18,0 -0.18,0.2 0,0.11 0.1,0.11 0.18,0.11 0.56,0.01 0.67,0.22 0.67,0.44 0,0.02 -0.02,0.17 -0.03,0.2 l -1.11,4.42 -2.2,-5.18 c -0.08,-0.18 -0.09,-0.19 -0.32,-0.19 h -1.33 c -0.2,0 -0.29,0 -0.29,0.2 0,0.11 0.09,0.11 0.28,0.11 0.05,0 0.67,0 0.67,0.09 l -1.33,5.33 c -0.1,0.4 -0.27,0.72 -1.07,0.75 -0.06,0 -0.17,0.01 -0.17,0.2 0,0.07 0.05,0.1 0.13,0.1 0.31,0 0.66,-0.03 0.99,-0.03 0.34,0 0.7,0.03 1.03,0.03 0.05,0 0.17,0 0.17,-0.19 0,-0.1 -0.08,-0.11 -0.19,-0.11 -0.58,-0.02 -0.66,-0.24 -0.66,-0.44 0,-0.07 0.01,-0.12 0.04,-0.23 l 1.31,-5.24 c 0.04,0.06 0.04,0.08 0.09,0.18 l 2.48,5.85 c 0.07,0.16 0.1,0.18 0.19,0.18 0.11,0 0.11,-0.03 0.16,-0.2 z"
         id="path76074-9-4" />
      <path
         style="font-style:normal;font-variant:normal;font-weight:normal;font-stretch:normal;letter-spacing:normal;word-spacing:normal;text-anchor:start;fill:#000000;stroke:#000000;stroke-width:0;stroke-linecap:butt;stroke-linejoin:miter;stroke-miterlimit:10.43299961;stroke-opacity:1;stroke-dasharray:none;stroke-dashoffset:0"
         inkscape:connector-curvature="0"
         d="m 1409.4884,-621.84215 0.01,-0.03 0.01,-0.03 0.01,-0.03 0,-0.03 0.01,-0.03 0.01,-0.02 0.01,-0.03 0.01,-0.02 0.01,-0.02 0.02,-0.02 0.01,-0.02 0.02,-0.02 0.01,-0.02 0.02,-0.01 0.03,-0.02 0.02,-0.01 0.03,-0.02 0.03,-0.01 0.03,-0.01 0.03,-0.01 0.02,0 0.02,-0.01 0.02,0 0.02,-0.01 0.03,0 0.02,0 0.02,-0.01 0.03,0 0.02,0 0.03,0 0.03,-0.01 0.03,0 0.03,0 0.03,0 0.03,-0.01 0.04,0 0.03,0 0.04,0 0.03,0 0.04,0 0.04,0 0.04,0 0.04,0 0.05,0 c 0.29,0 0.37,0 0.37,-0.19 0,-0.12 -0.11,-0.12 -0.16,-0.12 -0.32,0 -1.14,0.03 -1.47,0.03 -0.3,0 -1.02,-0.03 -1.32,-0.03 -0.07,0 -0.19,0 -0.19,0.2 0,0.11 0.09,0.11 0.28,0.11 0.02,0 0.21,0 0.38,0.02 0.17,0.02 0.26,0.03 0.26,0.16 0,0.04 0,0.07 -0.03,0.19 l -1.34,5.33 c -0.1,0.39 -0.12,0.47 -0.9,0.47 -0.17,0 -0.27,0 -0.27,0.2 0,0.1 0.09,0.1 0.27,0.1 h 4.6 c 0.24,0 0.25,0 0.31,-0.16 l 0.79,-2.15 c 0.04,-0.11 0.04,-0.13 0.04,-0.14 0,-0.04 -0.03,-0.11 -0.12,-0.11 -0.09,0 -0.1,0.05 -0.17,0.21 -0.34,0.91 -0.78,2.05 -2.5,2.05 h -0.93 c -0.14,0 -0.16,0 -0.22,-0.01 -0.1,-0.01 -0.13,-0.02 -0.13,-0.1 0,-0.03 0,-0.05 0.05,-0.23 z"
         id="path76076-8-1" />
      <path
         style="font-style:normal;font-variant:normal;font-weight:normal;font-stretch:normal;letter-spacing:normal;word-spacing:normal;text-anchor:start;fill:#000000;stroke:#000000;stroke-width:0;stroke-linecap:butt;stroke-linejoin:miter;stroke-miterlimit:10.43299961;stroke-opacity:1;stroke-dasharray:none;stroke-dashoffset:0"
         inkscape:connector-curvature="0"
         d="m 1416.0684,-615.60215 h -0.24 c -0.02,0.16 -0.09,0.57 -0.18,0.64 -0.06,0.04 -0.59,0.04 -0.69,0.04 h -1.28 c 0.73,-0.65 0.97,-0.84 1.39,-1.17 0.52,-0.41 1,-0.84 1,-1.5 0,-0.84 -0.74,-1.36 -1.63,-1.36 -0.87,0 -1.45,0.61 -1.45,1.25 0,0.35 0.3,0.39 0.37,0.39 0.16,0 0.37,-0.12 0.37,-0.37 0,-0.13 -0.05,-0.37 -0.41,-0.37 0.21,-0.49 0.69,-0.65 1.01,-0.65 0.7,0 1.06,0.54 1.06,1.11 0,0.6 -0.43,1.08 -0.65,1.33 l -1.68,1.66 c -0.07,0.06 -0.07,0.07 -0.07,0.27 h 2.87 z"
         id="path76078-6-1" />
    </g>
    <path
       sodipodi:nodetypes="ccccc"
       id="path7886-8-4-1-5-1-1-9-3"
       d="m 299.78487,664.01854 13.2874,0 0,12.40157 -13.28735,0 -5e-5,-12.40157"
       style="fill:#ffffff;fill-opacity:1;stroke:#0000ff;stroke-width:0.5;stroke-linecap:round;stroke-linejoin:round;stroke-miterlimit:4;stroke-opacity:1;stroke-dasharray:none"
       inkscape:connector-curvature="0" />
    <path
       style="font-style:normal;font-variant:normal;font-weight:normal;font-stretch:normal;letter-spacing:normal;word-spacing:normal;text-anchor:start;fill:#000000;stroke:#000000;stroke-width:0;stroke-linecap:butt;stroke-linejoin:miter;stroke-miterlimit:10.43299961;stroke-opacity:1;stroke-dasharray:none;stroke-dashoffset:0"
       inkscape:connector-curvature="0"
       d="m 308.49067,668.5885 0,0 0,-0.005 0,0 0,0 0,-0.005 0,0 0,0 0,-0.005 0,0 0,-0.005 -0.005,0 0,0 0,-0.005 0,0 -0.005,-0.005 0,0 0,0 0,-0.005 -0.005,0 0,0 -0.005,-0.005 0,0 -0.005,0 0,-0.005 -0.005,0 0,0 0,0 -0.005,0 0,0 0,0 -0.005,0 0,-0.005 0,0 -0.005,0 0,0 0,0 -0.005,0 0,0 -0.005,0 c -0.015,0 -0.02,0.005 -0.07,0.06 l -0.35,0.385 c -0.045,-0.07 -0.275,-0.445 -0.825,-0.445 -1.11,0 -2.23,1.1 -2.23,2.25 0,0.79 0.55,1.36 1.36,1.36 0.215,0 0.44,-0.045 0.62,-0.12 0.25,-0.095 0.345,-0.2 0.435,-0.3 0.04,0.125 0.17,0.305 0.22,0.305 0.025,0 0.035,-0.01 0.035,-0.015 0.01,-0.01 0.06,-0.2 0.085,-0.305 l 0.095,-0.385 c 0.02,-0.08 0.045,-0.165 0.065,-0.25 0.055,-0.225 0.06,-0.235 0.345,-0.24 0.025,0 0.075,-0.005 0.075,-0.1 0,-0.035 -0.02,-0.055 -0.06,-0.055 -0.115,0 -0.41,0.015 -0.525,0.015 -0.155,0 -0.54,-0.015 -0.695,-0.015 -0.045,0 -0.105,0 -0.105,0.1 0,0.055 0.04,0.055 0.15,0.055 0.005,0 0.15,0 0.26,0.01 0.13,0.015 0.155,0.03 0.155,0.095 0,0.045 -0.055,0.27 -0.1,0.45 -0.14,0.55 -0.79,0.605 -0.96,0.605 -0.48,0 -1,-0.285 -1,-1.045 0,-0.155 0.045,-0.975 0.57,-1.62 0.27,-0.335 0.75,-0.64 1.245,-0.64 0.505,0 0.8,0.385 0.8,0.96 0,0.195 -0.015,0.2 -0.015,0.25 0,0.05 0.055,0.05 0.075,0.05 0.065,0 0.065,-0.01 0.09,-0.1 z"
       id="path32536-8" />
    <path
       inkscape:connector-curvature="0"
       id="path4730"
       d="m 293.63872,687.06577 c 5.80838,-17.42513 5.68211,-17.5514 5.68211,-17.5514"
       style="fill:none;stroke:#000000;stroke-width:1px;stroke-linecap:butt;stroke-linejoin:miter;stroke-opacity:1" />
    <path
       inkscape:connector-curvature="0"
       id="path4732"
       d="m 313.14729,669.00929 c 4.86136,-0.0631 4.60882,-0.0631 4.60882,-0.0631"
       style="fill:none;stroke:#000000;stroke-width:1px;stroke-linecap:butt;stroke-linejoin:miter;stroke-opacity:1" />
    <path
       inkscape:connector-curvature="0"
       id="path4734"
       d="m 401.03056,708.91032 c 22.60216,-21.59201 22.60216,-21.59201 22.60216,-21.59201"
       style="fill:none;stroke:#000000;stroke-width:1px;stroke-linecap:butt;stroke-linejoin:miter;stroke-opacity:1" />
    <path
       id="path7886-8-4-1-3-5-1-3-0-8-8-6-0-7"
       d="m 352.82059,600.26854 13.2874,0 0,12.40157 -13.2874,0 0,-12.40157"
       style="fill:none;stroke:#0000ff;stroke-width:0.5;stroke-linecap:round;stroke-linejoin:round;stroke-miterlimit:4;stroke-opacity:1;stroke-dasharray:none"
       inkscape:connector-curvature="0"
       sodipodi:nodetypes="ccccc" />
    <path
       style="font-style:normal;font-variant:normal;font-weight:normal;font-stretch:normal;letter-spacing:normal;word-spacing:normal;text-anchor:start;fill:#000000;stroke:#000000;stroke-width:0;stroke-linecap:butt;stroke-linejoin:miter;stroke-miterlimit:10.43299961;stroke-opacity:1;stroke-dasharray:none;stroke-dashoffset:0"
       inkscape:connector-curvature="0"
       d="m 358.77219,606.2135 h 0.48 c 0.375,0 0.415,0.075 0.415,0.22 0,0.035 0,0.095 -0.035,0.245 -0.01,0.025 -0.015,0.045 -0.015,0.055 0,0.04 0.03,0.06 0.06,0.06 0.05,0 0.05,-0.015 0.075,-0.105 l 0.27,-1.075 c 0.015,-0.055 0.015,-0.065 0.015,-0.08 0,-0.01 -0.005,-0.055 -0.06,-0.055 -0.045,0 -0.05,0.025 -0.07,0.105 -0.105,0.385 -0.22,0.475 -0.645,0.475 h -0.45 l 0.315,-1.26 c 0.045,-0.175 0.05,-0.195 0.27,-0.195 h 0.655 c 0.615,0 0.73,0.165 0.73,0.545 0,0.115 0,0.135 -0.015,0.27 -0.01,0.065 -0.01,0.075 -0.01,0.09 0,0.025 0.015,0.055 0.06,0.055 0.055,0 0.06,-0.03 0.07,-0.12 l 0.095,-0.86 c 0.015,-0.135 -0.005,-0.135 -0.13,-0.135 h -2.44 c -0.1,0 -0.15,0 -0.15,0.1 0,0.055 0.045,0.055 0.14,0.055 0.185,0 0.325,0 0.325,0.09 0,0.02 0,0.03 -0.025,0.115 l -0.655,2.63 c -0.05,0.195 -0.06,0.235 -0.455,0.235 -0.085,0 -0.14,0 -0.14,0.095 0,0.055 0.06,0.055 0.075,0.055 0.145,0 0.51,-0.015 0.655,-0.015 0.165,0 0.58,0.015 0.745,0.015 0.045,0 0.105,0 0.105,-0.09 0,-0.04 -0.035,-0.05 -0.035,-0.055 -0.01,-0.005 -0.02,-0.005 -0.135,-0.005 -0.11,0 -0.135,0 -0.26,-0.01 -0.145,-0.015 -0.16,-0.035 -0.16,-0.1 0,-0.01 0,-0.04 0.02,-0.115 z"
       id="path32538-4" />
    <path
       id="path7886-8-4-1-3-5-1-3-0-8-8-6-0-7-2"
       d="m 353.17773,634.19711 13.2874,0 0,12.40157 -13.2874,0 0,-12.40157"
       style="fill:none;stroke:#0000ff;stroke-width:0.5;stroke-linecap:round;stroke-linejoin:round;stroke-miterlimit:4;stroke-opacity:1;stroke-dasharray:none"
       inkscape:connector-curvature="0"
       sodipodi:nodetypes="ccccc" />
    <g
       ns0:preamble=""
       ns0:text="$-1$\n"
       word-spacing="normal"
       letter-spacing="normal"
       font-size-adjust="none"
       font-stretch="normal"
       font-weight="normal"
       font-variant="normal"
       font-style="normal"
       stroke-miterlimit="10.433"
       xml:space="preserve"
       transform="matrix(0.5,0,0,-0.5,243.89723,995.73572)"
       id="g4949"
       style="font-style:normal;font-variant:normal;font-weight:normal;font-stretch:normal;letter-spacing:normal;word-spacing:normal;text-anchor:start;fill:none;stroke:#000000;stroke-linecap:butt;stroke-linejoin:miter;stroke-miterlimit:10.43299961;stroke-opacity:1;stroke-dasharray:none;stroke-dashoffset:0">
<path
   id="path4951"
   d="m 229.99,709.41 0.03,0 0.03,0 0.03,0 0.02,0 0.01,0 0.02,0 0.01,0.01 0.02,0 0.01,0 0.02,0 0.01,0.01 0.01,0 0.02,0 0.01,0.01 0.01,0.01 0.01,0 0.01,0.01 0.01,0.01 0.01,0 0.01,0.01 0.01,0.01 0,0.01 0,0 0.01,0.01 0,0.01 0,0 0,0.01 0.01,0.01 0,0 0,0.01 0,0.01 0,0.01 0,0 0.01,0.01 0,0.01 0,0.01 0,0.01 c 0,0.2 -0.18,0.2 -0.35,0.2 h -5.38 c -0.17,0 -0.35,0 -0.35,-0.2 0,-0.2 0.18,-0.2 0.35,-0.2 z"
   inkscape:connector-curvature="0"
   style="fill:#000000;stroke-width:0" />
<path
   id="path4953"
   d="m 234.11,713.48 0,0.01 0,0.01 0,0.02 0,0.01 0,0 0,0.01 0,0.01 0,0.01 0,0.01 0,0.01 -0.01,0.01 0,0.01 0,0 0,0.01 0,0.01 0,0 0,0.01 0,0.01 0,0.01 0,0.01 -0.01,0.01 0,0.01 0,0.01 -0.01,0 0,0.01 -0.01,0.01 0,0 -0.01,0.01 -0.01,0 -0.01,0.01 0,0 -0.01,0 0,0 -0.01,0 0,0 -0.01,0 -0.01,0.01 0,0 -0.01,0 -0.01,0 0,0 -0.01,0 -0.01,0 -0.01,0 -0.01,0 0,0 -0.01,0 -0.01,0 -0.01,0 -0.01,0 -0.01,0 -0.01,0 c -0.62,-0.64 -1.5,-0.64 -1.81,-0.64 v -0.3 c 0.19,0 0.78,0 1.3,0.25 v -5.14 c 0,-0.36 -0.03,-0.48 -0.92,-0.48 h -0.32 v -0.3 c 0.34,0.03 1.21,0.03 1.61,0.03 0.4,0 1.26,0 1.61,-0.03 v 0.3 h -0.32 c -0.89,0 -0.92,0.11 -0.92,0.48 z"
   inkscape:connector-curvature="0"
   style="fill:#000000;stroke-width:0" />
</g>    <path
       style="fill:none;stroke:#000000;stroke-width:1px;stroke-linecap:butt;stroke-linejoin:miter;stroke-opacity:1"
       d="m 374.82143,603.96932 c -8.03571,37.67858 -8.03571,37.67858 -8.03571,37.67858"
       id="path5128"
       inkscape:connector-curvature="0" />
    <path
       style="fill:none;stroke:#000000;stroke-width:1px;stroke-linecap:butt;stroke-linejoin:miter;stroke-opacity:1"
       d="m 374.64286,644.1479 c -8.30357,-38.75 -8.30357,-38.57143 -8.30357,-38.57143"
       id="path5132"
       inkscape:connector-curvature="0" />
  </g>
</svg>
