<?xml version="1.0" encoding="UTF-8" standalone="no"?>
<!-- Created with Inkscape (http://www.inkscape.org/) -->

<svg
   xmlns:dc="http://purl.org/dc/elements/1.1/"
   xmlns:cc="http://creativecommons.org/ns#"
   xmlns:rdf="http://www.w3.org/1999/02/22-rdf-syntax-ns#"
   xmlns:svg="http://www.w3.org/2000/svg"
   xmlns="http://www.w3.org/2000/svg"
   xmlns:sodipodi="http://sodipodi.sourceforge.net/DTD/sodipodi-0.dtd"
   xmlns:inkscape="http://www.inkscape.org/namespaces/inkscape"
   width="93.167076mm"
   height="22.275805mm"
   viewBox="0 0 330.11956 78.930016"
   id="svg2"
   version="1.1"
   inkscape:version="0.91 r13725"
   sodipodi:docname="amplifierOneTone.svg">
  <sodipodi:namedview
     id="base"
     pagecolor="#ffffff"
     bordercolor="#666666"
     borderopacity="1.0"
     inkscape:pageopacity="0.0"
     inkscape:pageshadow="2"
     inkscape:zoom="1.979899"
     inkscape:cx="114.92502"
     inkscape:cy="-37.300253"
     inkscape:document-units="px"
     inkscape:current-layer="layer1"
     showgrid="true"
     inkscape:snap-bbox="true"
     inkscape:object-nodes="true"
     inkscape:window-width="1600"
     inkscape:window-height="837"
     inkscape:window-x="-8"
     inkscape:window-y="-8"
     inkscape:window-maximized="1"
     fit-margin-top="0"
     fit-margin-left="0"
     fit-margin-right="0"
     fit-margin-bottom="0">
    <inkscape:grid
       type="xygrid"
       id="grid4138"
       originx="-12.392279"
       originy="-933.99002" />
  </sodipodi:namedview>
  <defs
     id="defs4">
    <marker
       inkscape:isstock="true"
       style="overflow:visible"
       id="marker4705"
       refX="0"
       refY="0"
       orient="auto"
       inkscape:stockid="Arrow2Mend">
      <path
         transform="scale(-0.6,-0.6)"
         d="M 8.7185878,4.0337352 -2.2072895,0.01601326 8.7185884,-4.0017078 c -1.7454984,2.3720609 -1.7354408,5.6174519 -6e-7,8.035443 z"
         style="fill:#000000;fill-opacity:1;fill-rule:evenodd;stroke:#000000;stroke-width:0.625;stroke-linejoin:round;stroke-opacity:1"
         id="path4707"
         inkscape:connector-curvature="0" />
    </marker>
    <marker
       inkscape:stockid="Arrow2Mend"
       orient="auto"
       refY="0"
       refX="0"
       id="marker4566"
       style="overflow:visible"
       inkscape:isstock="true">
      <path
         id="path4568"
         style="fill:#000000;fill-opacity:1;fill-rule:evenodd;stroke:#000000;stroke-width:0.625;stroke-linejoin:round;stroke-opacity:1"
         d="M 8.7185878,4.0337352 -2.2072895,0.01601326 8.7185884,-4.0017078 c -1.7454984,2.3720609 -1.7354408,5.6174519 -6e-7,8.035443 z"
         transform="scale(-0.6,-0.6)"
         inkscape:connector-curvature="0" />
    </marker>
    <marker
       inkscape:isstock="true"
       style="overflow:visible"
       id="marker4520"
       refX="0"
       refY="0"
       orient="auto"
       inkscape:stockid="Arrow2Mend">
      <path
         transform="scale(-0.6,-0.6)"
         d="M 8.7185878,4.0337352 -2.2072895,0.01601326 8.7185884,-4.0017078 c -1.7454984,2.3720609 -1.7354408,5.6174519 -6e-7,8.035443 z"
         style="fill:#000000;fill-opacity:1;fill-rule:evenodd;stroke:#000000;stroke-width:0.625;stroke-linejoin:round;stroke-opacity:1"
         id="path4522"
         inkscape:connector-curvature="0" />
    </marker>
    <marker
       inkscape:isstock="true"
       style="overflow:visible"
       id="marker4486"
       refX="0"
       refY="0"
       orient="auto"
       inkscape:stockid="Arrow2Mend">
      <path
         transform="scale(-0.6,-0.6)"
         d="M 8.7185878,4.0337352 -2.2072895,0.01601326 8.7185884,-4.0017078 c -1.7454984,2.3720609 -1.7354408,5.6174519 -6e-7,8.035443 z"
         style="fill:#0000ff;fill-opacity:1;fill-rule:evenodd;stroke:#0000ff;stroke-width:0.625;stroke-linejoin:round;stroke-opacity:1"
         id="path4488"
         inkscape:connector-curvature="0" />
    </marker>
    <marker
       inkscape:isstock="true"
       style="overflow:visible"
       id="marker4458"
       refX="0"
       refY="0"
       orient="auto"
       inkscape:stockid="Arrow2Mend">
      <path
         transform="scale(-0.6,-0.6)"
         d="M 8.7185878,4.0337352 -2.2072895,0.01601326 8.7185884,-4.0017078 c -1.7454984,2.3720609 -1.7354408,5.6174519 -6e-7,8.035443 z"
         style="fill:#ff0000;fill-opacity:1;fill-rule:evenodd;stroke:#ff0000;stroke-width:0.625;stroke-linejoin:round;stroke-opacity:1"
         id="path4460"
         inkscape:connector-curvature="0" />
    </marker>
    <marker
       inkscape:stockid="Arrow2Mend"
       orient="auto"
       refY="0"
       refX="0"
       id="marker4430"
       style="overflow:visible"
       inkscape:isstock="true"
       inkscape:collect="always">
      <path
         id="path4432"
         style="fill:#0000ff;fill-opacity:1;fill-rule:evenodd;stroke:#0000ff;stroke-width:0.625;stroke-linejoin:round;stroke-opacity:1"
         d="M 8.7185878,4.0337352 -2.2072895,0.01601326 8.7185884,-4.0017078 c -1.7454984,2.3720609 -1.7354408,5.6174519 -6e-7,8.035443 z"
         transform="scale(-0.6,-0.6)"
         inkscape:connector-curvature="0" />
    </marker>
    <marker
       inkscape:stockid="Arrow2Mend"
       orient="auto"
       refY="0"
       refX="0"
       id="Arrow2Mend"
       style="overflow:visible"
       inkscape:isstock="true">
      <path
         id="path4181"
         style="fill:#ff0000;fill-opacity:1;fill-rule:evenodd;stroke:#ff0000;stroke-width:0.625;stroke-linejoin:round;stroke-opacity:1"
         d="M 8.7185878,4.0337352 -2.2072895,0.01601326 8.7185884,-4.0017078 c -1.7454984,2.3720609 -1.7354408,5.6174519 -6e-7,8.035443 z"
         transform="scale(-0.6,-0.6)"
         inkscape:connector-curvature="0" />
    </marker>
    <marker
       inkscape:isstock="true"
       style="overflow:visible"
       id="marker4520-8"
       refX="0"
       refY="0"
       orient="auto"
       inkscape:stockid="Arrow2Mend">
      <path
         transform="scale(-0.6,-0.6)"
         d="M 8.7185878,4.0337352 -2.2072895,0.01601326 8.7185884,-4.0017078 c -1.7454984,2.3720609 -1.7354408,5.6174519 -6e-7,8.035443 z"
         style="fill:#000000;fill-opacity:1;fill-rule:evenodd;stroke:#000000;stroke-width:0.625;stroke-linejoin:round;stroke-opacity:1"
         id="path4522-4"
         inkscape:connector-curvature="0" />
    </marker>
    <marker
       inkscape:stockid="Arrow2Mend"
       orient="auto"
       refY="0"
       refX="0"
       id="marker4566-1"
       style="overflow:visible"
       inkscape:isstock="true">
      <path
         id="path4568-6"
         style="fill:#000000;fill-opacity:1;fill-rule:evenodd;stroke:#000000;stroke-width:0.625;stroke-linejoin:round;stroke-opacity:1"
         d="M 8.7185878,4.0337352 -2.2072895,0.01601326 8.7185884,-4.0017078 c -1.7454984,2.3720609 -1.7354408,5.6174519 -6e-7,8.035443 z"
         transform="scale(-0.6,-0.6)"
         inkscape:connector-curvature="0" />
    </marker>
    <marker
       inkscape:isstock="true"
       style="overflow:visible"
       id="marker4705-9"
       refX="0"
       refY="0"
       orient="auto"
       inkscape:stockid="Arrow2Mend">
      <path
         transform="scale(-0.6,-0.6)"
         d="M 8.7185878,4.0337352 -2.2072895,0.01601326 8.7185884,-4.0017078 c -1.7454984,2.3720609 -1.7354408,5.6174519 -6e-7,8.035443 z"
         style="fill:#000000;fill-opacity:1;fill-rule:evenodd;stroke:#000000;stroke-width:0.625;stroke-linejoin:round;stroke-opacity:1"
         id="path4707-4"
         inkscape:connector-curvature="0" />
    </marker>
    <marker
       inkscape:isstock="true"
       style="overflow:visible"
       id="marker4520-8-4"
       refX="0"
       refY="0"
       orient="auto"
       inkscape:stockid="Arrow2Mend">
      <path
         transform="scale(-0.6,-0.6)"
         d="M 8.7185878,4.0337352 -2.2072895,0.01601326 8.7185884,-4.0017078 c -1.7454984,2.3720609 -1.7354408,5.6174519 -6e-7,8.035443 z"
         style="fill:#000000;fill-opacity:1;fill-rule:evenodd;stroke:#000000;stroke-width:0.625;stroke-linejoin:round;stroke-opacity:1"
         id="path4522-4-7"
         inkscape:connector-curvature="0" />
    </marker>
    <marker
       inkscape:isstock="true"
       style="overflow:visible"
       id="marker4520-8-4-3"
       refX="0"
       refY="0"
       orient="auto"
       inkscape:stockid="Arrow2Mend">
      <path
         transform="scale(-0.6,-0.6)"
         d="M 8.7185878,4.0337352 -2.2072895,0.01601326 8.7185884,-4.0017078 c -1.7454984,2.3720609 -1.7354408,5.6174519 -6e-7,8.035443 z"
         style="fill:#000000;fill-opacity:1;fill-rule:evenodd;stroke:#000000;stroke-width:0.625;stroke-linejoin:round;stroke-opacity:1"
         id="path4522-4-7-8"
         inkscape:connector-curvature="0" />
    </marker>
    <marker
       inkscape:isstock="true"
       style="overflow:visible"
       id="marker4520-8-6"
       refX="0"
       refY="0"
       orient="auto"
       inkscape:stockid="Arrow2Mend">
      <path
         transform="scale(-0.6,-0.6)"
         d="M 8.7185878,4.0337352 -2.2072895,0.01601326 8.7185884,-4.0017078 c -1.7454984,2.3720609 -1.7354408,5.6174519 -6e-7,8.035443 z"
         style="fill:#000000;fill-opacity:1;fill-rule:evenodd;stroke:#000000;stroke-width:0.625;stroke-linejoin:round;stroke-opacity:1"
         id="path4522-4-2"
         inkscape:connector-curvature="0" />
    </marker>
    <marker
       inkscape:isstock="true"
       style="overflow:visible"
       id="marker4520-8-4-7"
       refX="0"
       refY="0"
       orient="auto"
       inkscape:stockid="Arrow2Mend">
      <path
         transform="scale(-0.6,-0.6)"
         d="M 8.7185878,4.0337352 -2.2072895,0.01601326 8.7185884,-4.0017078 c -1.7454984,2.3720609 -1.7354408,5.6174519 -6e-7,8.035443 z"
         style="fill:#000000;fill-opacity:1;fill-rule:evenodd;stroke:#000000;stroke-width:0.625;stroke-linejoin:round;stroke-opacity:1"
         id="path4522-4-7-9"
         inkscape:connector-curvature="0" />
    </marker>
    <marker
       inkscape:isstock="true"
       style="overflow:visible"
       id="marker4520-8-7"
       refX="0"
       refY="0"
       orient="auto"
       inkscape:stockid="Arrow2Mend">
      <path
         transform="scale(-0.6,-0.6)"
         d="M 8.7185878,4.0337352 -2.2072895,0.01601326 8.7185884,-4.0017078 c -1.7454984,2.3720609 -1.7354408,5.6174519 -6e-7,8.035443 z"
         style="fill:#000000;fill-opacity:1;fill-rule:evenodd;stroke:#000000;stroke-width:0.625;stroke-linejoin:round;stroke-opacity:1"
         id="path4522-4-8"
         inkscape:connector-curvature="0" />
    </marker>
    <marker
       inkscape:isstock="true"
       style="overflow:visible"
       id="marker4486-2"
       refX="0"
       refY="0"
       orient="auto"
       inkscape:stockid="Arrow2Mend">
      <path
         transform="scale(-0.6,-0.6)"
         d="M 8.7185878,4.0337352 -2.2072895,0.01601326 8.7185884,-4.0017078 c -1.7454984,2.3720609 -1.7354408,5.6174519 -6e-7,8.035443 z"
         style="fill:#0000ff;fill-opacity:1;fill-rule:evenodd;stroke:#0000ff;stroke-width:0.625;stroke-linejoin:round;stroke-opacity:1"
         id="path4488-8"
         inkscape:connector-curvature="0" />
    </marker>
    <marker
       inkscape:stockid="Arrow2Mend"
       orient="auto"
       refY="0"
       refX="0"
       id="Arrow2Mend-3"
       style="overflow:visible"
       inkscape:isstock="true">
      <path
         id="path4181-9"
         style="fill:#ff0000;fill-opacity:1;fill-rule:evenodd;stroke:#ff0000;stroke-width:0.625;stroke-linejoin:round;stroke-opacity:1"
         d="M 8.7185878,4.0337352 -2.2072895,0.01601326 8.7185884,-4.0017078 c -1.7454984,2.3720609 -1.7354408,5.6174519 -6e-7,8.035443 z"
         transform="scale(-0.6,-0.6)"
         inkscape:connector-curvature="0" />
    </marker>
    <marker
       inkscape:stockid="Arrow2Mend"
       orient="auto"
       refY="0"
       refX="0"
       id="Arrow2Mend-3-6"
       style="overflow:visible"
       inkscape:isstock="true">
      <path
         id="path4181-9-0"
         style="fill:#ff0000;fill-opacity:1;fill-rule:evenodd;stroke:#ff0000;stroke-width:0.625;stroke-linejoin:round;stroke-opacity:1"
         d="M 8.7185878,4.0337352 -2.2072895,0.01601326 8.7185884,-4.0017078 c -1.7454984,2.3720609 -1.7354408,5.6174519 -6e-7,8.035443 z"
         transform="scale(-0.6,-0.6)"
         inkscape:connector-curvature="0" />
    </marker>
    <marker
       inkscape:stockid="Arrow2Mend"
       orient="auto"
       refY="0"
       refX="0"
       id="Arrow2Mend-3-6-3"
       style="overflow:visible"
       inkscape:isstock="true">
      <path
         id="path4181-9-0-8"
         style="fill:#ff0000;fill-opacity:1;fill-rule:evenodd;stroke:#ff0000;stroke-width:0.625;stroke-linejoin:round;stroke-opacity:1"
         d="M 8.7185878,4.0337352 -2.2072895,0.01601326 8.7185884,-4.0017078 c -1.7454984,2.3720609 -1.7354408,5.6174519 -6e-7,8.035443 z"
         transform="scale(-0.6,-0.6)"
         inkscape:connector-curvature="0" />
    </marker>
    <marker
       inkscape:isstock="true"
       style="overflow:visible"
       id="marker4486-4"
       refX="0"
       refY="0"
       orient="auto"
       inkscape:stockid="Arrow2Mend">
      <path
         transform="scale(-0.6,-0.6)"
         d="M 8.7185878,4.0337352 -2.2072895,0.01601326 8.7185884,-4.0017078 c -1.7454984,2.3720609 -1.7354408,5.6174519 -6e-7,8.035443 z"
         style="fill:#0000ff;fill-opacity:1;fill-rule:evenodd;stroke:#0000ff;stroke-width:0.625;stroke-linejoin:round;stroke-opacity:1"
         id="path4488-4"
         inkscape:connector-curvature="0" />
    </marker>
    <marker
       inkscape:isstock="true"
       style="overflow:visible"
       id="marker4486-6"
       refX="0"
       refY="0"
       orient="auto"
       inkscape:stockid="Arrow2Mend">
      <path
         transform="scale(-0.6,-0.6)"
         d="M 8.7185878,4.0337352 -2.2072895,0.01601326 8.7185884,-4.0017078 c -1.7454984,2.3720609 -1.7354408,5.6174519 -6e-7,8.035443 z"
         style="fill:#0000ff;fill-opacity:1;fill-rule:evenodd;stroke:#0000ff;stroke-width:0.625;stroke-linejoin:round;stroke-opacity:1"
         id="path4488-1"
         inkscape:connector-curvature="0" />
    </marker>
    <marker
       inkscape:isstock="true"
       style="overflow:visible"
       id="marker4458-7"
       refX="0"
       refY="0"
       orient="auto"
       inkscape:stockid="Arrow2Mend">
      <path
         transform="scale(-0.6,-0.6)"
         d="M 8.7185878,4.0337352 -2.2072895,0.01601326 8.7185884,-4.0017078 c -1.7454984,2.3720609 -1.7354408,5.6174519 -6e-7,8.035443 z"
         style="fill:#ff0000;fill-opacity:1;fill-rule:evenodd;stroke:#ff0000;stroke-width:0.625;stroke-linejoin:round;stroke-opacity:1"
         id="path4460-1"
         inkscape:connector-curvature="0" />
    </marker>
    <marker
       inkscape:stockid="Arrow2Mend"
       orient="auto"
       refY="0"
       refX="0"
       id="Arrow2Mend-3-6-6"
       style="overflow:visible"
       inkscape:isstock="true">
      <path
         id="path4181-9-0-6"
         style="fill:#ff0000;fill-opacity:1;fill-rule:evenodd;stroke:#ff0000;stroke-width:0.625;stroke-linejoin:round;stroke-opacity:1"
         d="M 8.7185878,4.0337352 -2.2072895,0.01601326 8.7185884,-4.0017078 c -1.7454984,2.3720609 -1.7354408,5.6174519 -6e-7,8.035443 z"
         transform="scale(-0.6,-0.6)"
         inkscape:connector-curvature="0" />
    </marker>
    <marker
       inkscape:stockid="Arrow2Mend"
       orient="auto"
       refY="0"
       refX="0"
       id="Arrow2Mend-3-6-1"
       style="overflow:visible"
       inkscape:isstock="true">
      <path
         id="path4181-9-0-4"
         style="fill:#ff0000;fill-opacity:1;fill-rule:evenodd;stroke:#ff0000;stroke-width:0.625;stroke-linejoin:round;stroke-opacity:1"
         d="M 8.7185878,4.0337352 -2.2072895,0.01601326 8.7185884,-4.0017078 c -1.7454984,2.3720609 -1.7354408,5.6174519 -6e-7,8.035443 z"
         transform="scale(-0.6,-0.6)"
         inkscape:connector-curvature="0" />
    </marker>
  </defs>
  <metadata
     id="metadata7">
    <rdf:RDF>
      <cc:Work
         rdf:about="">
        <dc:format>image/svg+xml</dc:format>
        <dc:type
           rdf:resource="http://purl.org/dc/dcmitype/StillImage" />
        <dc:title></dc:title>
      </cc:Work>
    </rdf:RDF>
  </metadata>
  <g
     inkscape:label="Layer 1"
     inkscape:groupmode="layer"
     id="layer1"
     transform="translate(-12.39228,-39.442175)">
    <path
       style="fill:none;fill-rule:evenodd;stroke:#000000;stroke-width:1px;stroke-linecap:butt;stroke-linejoin:miter;stroke-opacity:1;marker-end:url(#marker4566)"
       d="m 165,97.362205 176,10e-7"
       id="path4136"
       inkscape:connector-curvature="0"
       sodipodi:nodetypes="cc" />
    <path
       style="fill:none;fill-rule:evenodd;stroke:#0000ff;stroke-width:1px;stroke-linecap:butt;stroke-linejoin:miter;stroke-opacity:1;marker-end:url(#marker4486)"
       d="m 265,97.362206 0,-15"
       id="path4142"
       inkscape:connector-curvature="0" />
    <path
       style="fill:none;fill-rule:evenodd;stroke:#ff0000;stroke-width:1px;stroke-linecap:butt;stroke-linejoin:miter;stroke-opacity:1;marker-end:url(#marker4458)"
       d="m 315,97.362205 0,-20"
       id="path4144"
       inkscape:connector-curvature="0" />
    <path
       style="fill:none;fill-rule:evenodd;stroke:#ff0000;stroke-width:1px;stroke-linecap:butt;stroke-linejoin:miter;stroke-opacity:1;marker-end:url(#Arrow2Mend)"
       d="m 215,57.362205 0,-6"
       id="path4148"
       inkscape:connector-curvature="0"
       sodipodi:nodetypes="cc" />
    <path
       style="fill:none;fill-rule:evenodd;stroke:#000000;stroke-width:1px;stroke-linecap:butt;stroke-linejoin:miter;stroke-opacity:1;marker-end:url(#marker4705)"
       d="m 165,97.362205 0,-50"
       id="path4618"
       inkscape:connector-curvature="0" />
    <path
       style="fill:none;fill-rule:evenodd;stroke:#0000ff;stroke-width:1px;stroke-linecap:butt;stroke-linejoin:miter;stroke-opacity:1;marker-end:url(#marker4430)"
       d="m 165,97.362205 0,-15"
       id="path4146"
       inkscape:connector-curvature="0" />
    <g
       transform="translate(122.84,-20.889996)"
       id="g4694">
      <path
         style="font-style:normal;font-variant:normal;font-weight:normal;font-stretch:normal;letter-spacing:normal;word-spacing:normal;text-anchor:start;fill:#000000;fill-opacity:1;fill-rule:evenodd;stroke:#000000;stroke-width:0;stroke-linecap:butt;stroke-linejoin:miter;stroke-miterlimit:10.43299961;stroke-dasharray:none;stroke-dashoffset:0;stroke-opacity:1"
         inkscape:connector-curvature="0"
         d="m 95.52,123.06218 0,-0.04 0,-0.04 0,-0.04 -0.01,-0.04 0,-0.03 -0.01,-0.04 0,-0.03 -0.01,-0.04 -0.01,-0.03 -0.01,-0.03 -0.01,-0.03 -0.01,-0.03 -0.01,-0.02 -0.01,-0.03 -0.01,-0.02 -0.02,-0.03 -0.01,-0.02 -0.01,-0.02 -0.02,-0.02 -0.01,-0.01 -0.02,-0.02 -0.02,-0.01 -0.01,-0.02 -0.02,-0.01 -0.02,-0.01 -0.02,-0.01 -0.02,-0.01 -0.02,0 -0.02,-0.01 -0.02,0 -0.02,-0.01 -0.02,0 c -0.26,0 -0.52,0.24 -0.52,0.47 0,0.1 0.05,0.21 0.15,0.3 0.16,0.15 0.34,0.42 0.34,0.83 0,0.4 -0.19,0.97 -0.49,1.42 -0.3,0.43 -0.67,0.77 -1.14,0.77 -0.57,0 -0.87,-0.36 -0.96,-0.9 0.11,-0.25 0.33,-0.89 0.33,-1.17 0,-0.12 -0.05,-0.22 -0.17,-0.22 -0.08,0 -0.19,0.02 -0.27,0.17 -0.11,0.2 -0.23,0.85 -0.23,1.2 -0.33,0.47 -0.73,0.92 -1.36,0.92 -0.65,0 -0.86,-0.59 -0.86,-1.14 0,-1.24 1.01,-2.29 1.01,-2.42 0,-0.11 -0.07,-0.19 -0.18,-0.19 -0.13,0 -0.2,0.13 -0.26,0.22 -0.51,0.74 -0.89,1.92 -0.89,2.82 0,0.69 0.23,1.42 1.05,1.42 0.7,0 1.17,-0.49 1.53,-1.04 0.09,0.58 0.48,1.04 1.09,1.04 0.78,0 1.26,-0.6 1.61,-1.35 0.24,-0.48 0.62,-1.83 0.62,-2.45 z"
         id="path4646" />
    </g>
    <g
       transform="translate(160,-20.889996)"
       id="g4697">
      <path
         style="font-style:normal;font-variant:normal;font-weight:normal;font-stretch:normal;letter-spacing:normal;word-spacing:normal;text-anchor:start;fill:#000000;fill-opacity:1;fill-rule:evenodd;stroke:#000000;stroke-width:0;stroke-linecap:butt;stroke-linejoin:miter;stroke-miterlimit:10.43299961;stroke-dasharray:none;stroke-dashoffset:0;stroke-opacity:1"
         inkscape:connector-curvature="0"
         d="m 100.65,125.99218 1.05,-1.02 c 1.55,-1.37 2.15,-1.91 2.15,-2.9 0,-1.14 -0.9,-1.93 -2.11,-1.93 -1.12,0 -1.86,0.91 -1.86,1.8 0,0.55 0.5,0.55 0.53,0.55 0.17,0 0.51,-0.12 0.51,-0.52 0,-0.26 -0.17,-0.52 -0.52,-0.52 -0.08,0 -0.1,0 -0.13,0.01 0.23,-0.65 0.76,-1.01 1.34,-1.01 0.91,0 1.33,0.8 1.33,1.62 0,0.79 -0.49,1.58 -1.04,2.19 l -1.91,2.13 c -0.11,0.11 -0.11,0.13 -0.11,0.36 l 3.69,0 0.28,-1.72 -0.25,0 c -0.05,0.3 -0.12,0.73 -0.22,0.88 -0.07,0.08 -0.72,0.08 -0.94,0.08 z"
         id="path4648" />
      <path
         style="font-style:normal;font-variant:normal;font-weight:normal;font-stretch:normal;letter-spacing:normal;word-spacing:normal;text-anchor:start;fill:#000000;fill-opacity:1;fill-rule:evenodd;stroke:#000000;stroke-width:0;stroke-linecap:butt;stroke-linejoin:miter;stroke-miterlimit:10.43299961;stroke-dasharray:none;stroke-dashoffset:0;stroke-opacity:1"
         inkscape:connector-curvature="0"
         d="m 110.38,123.06218 0,-0.04 0,-0.04 0,-0.04 -0.01,-0.04 0,-0.03 -0.01,-0.04 0,-0.03 -0.01,-0.04 -0.01,-0.03 -0.01,-0.03 -0.01,-0.03 -0.01,-0.03 -0.01,-0.02 -0.01,-0.03 -0.01,-0.02 -0.01,-0.03 -0.02,-0.02 -0.01,-0.02 -0.02,-0.02 -0.01,-0.01 -0.02,-0.02 -0.02,-0.01 -0.01,-0.02 -0.02,-0.01 -0.02,-0.01 -0.02,-0.01 -0.02,-0.01 -0.02,0 -0.02,-0.01 -0.02,0 -0.02,-0.01 -0.02,0 c -0.25,0 -0.52,0.24 -0.52,0.47 0,0.1 0.05,0.21 0.15,0.3 0.17,0.15 0.34,0.42 0.34,0.83 0,0.4 -0.18,0.97 -0.49,1.42 -0.3,0.43 -0.67,0.77 -1.14,0.77 -0.56,0 -0.87,-0.36 -0.96,-0.9 0.11,-0.25 0.34,-0.89 0.34,-1.17 0,-0.12 -0.05,-0.22 -0.18,-0.22 -0.08,0 -0.19,0.02 -0.27,0.17 -0.11,0.2 -0.23,0.85 -0.23,1.2 -0.33,0.47 -0.73,0.92 -1.35,0.92 -0.66,0 -0.87,-0.59 -0.87,-1.14 0,-1.24 1.02,-2.29 1.02,-2.42 0,-0.11 -0.08,-0.19 -0.19,-0.19 -0.13,0 -0.2,0.13 -0.26,0.22 -0.51,0.74 -0.89,1.92 -0.89,2.82 0,0.69 0.23,1.42 1.05,1.42 0.7,0 1.17,-0.49 1.53,-1.04 0.09,0.58 0.48,1.04 1.09,1.04 0.78,0 1.26,-0.6 1.62,-1.35 0.23,-0.48 0.61,-1.83 0.61,-2.45 z"
         id="path4650" />
    </g>
    <g
       transform="translate(193.12,-21.000001)"
       id="g4701">
      <path
         style="font-style:normal;font-variant:normal;font-weight:normal;font-stretch:normal;letter-spacing:normal;word-spacing:normal;text-anchor:start;fill:#000000;fill-opacity:1;fill-rule:evenodd;stroke:#000000;stroke-width:0;stroke-linecap:butt;stroke-linejoin:miter;stroke-miterlimit:10.43299961;stroke-dasharray:none;stroke-dashoffset:0;stroke-opacity:1"
         inkscape:connector-curvature="0"
         d="m 117.13,123.26218 0.07,-0.03 0.08,-0.03 0.07,-0.03 0.07,-0.03 0.07,-0.04 0.07,-0.04 0.07,-0.04 0.06,-0.04 0.06,-0.04 0.06,-0.05 0.06,-0.05 0.06,-0.05 0.05,-0.05 0.05,-0.05 0.05,-0.06 0.05,-0.05 0.05,-0.06 0.04,-0.06 0.04,-0.06 0.04,-0.06 0.03,-0.07 0.03,-0.06 0.03,-0.07 0.03,-0.06 0.02,-0.07 0.02,-0.07 0.02,-0.07 0.01,-0.07 0.02,-0.07 0,-0.07 0.01,-0.08 0,-0.07 c 0,-0.81 -0.87,-1.37 -1.83,-1.37 -1,0 -1.76,0.59 -1.76,1.35 0,0.33 0.22,0.52 0.51,0.52 0.31,0 0.5,-0.22 0.5,-0.51 0,-0.5 -0.46,-0.5 -0.61,-0.5 0.31,-0.48 0.96,-0.61 1.32,-0.61 0.41,0 0.96,0.22 0.96,1.11 0,0.12 -0.02,0.7 -0.28,1.13 -0.3,0.48 -0.64,0.51 -0.89,0.52 -0.08,0.01 -0.32,0.03 -0.39,0.03 -0.08,0.01 -0.14,0.02 -0.14,0.12 0,0.11 0.06,0.11 0.23,0.11 l 0.44,0 c 0.82,0 1.19,0.67 1.19,1.65 0,1.35 -0.69,1.64 -1.13,1.64 -0.43,0 -1.17,-0.17 -1.52,-0.76 0.35,0.05 0.66,-0.17 0.66,-0.55 0,-0.35 -0.27,-0.55 -0.56,-0.55 -0.24,0 -0.56,0.14 -0.56,0.57 0,0.91 0.93,1.56 2.01,1.56 1.21,0 2.12,-0.9 2.12,-1.91 0,-0.82 -0.63,-1.59 -1.66,-1.8 z"
         id="path4652" />
      <path
         style="font-style:normal;font-variant:normal;font-weight:normal;font-stretch:normal;letter-spacing:normal;word-spacing:normal;text-anchor:start;fill:#000000;fill-opacity:1;fill-rule:evenodd;stroke:#000000;stroke-width:0;stroke-linecap:butt;stroke-linejoin:miter;stroke-miterlimit:10.43299961;stroke-dasharray:none;stroke-dashoffset:0;stroke-opacity:1"
         inkscape:connector-curvature="0"
         d="m 125.24,123.06218 0,-0.04 0,-0.04 0,-0.04 -0.01,-0.04 0,-0.03 0,-0.04 -0.01,-0.03 -0.01,-0.04 -0.01,-0.03 -0.01,-0.03 0,-0.03 -0.02,-0.03 -0.01,-0.02 -0.01,-0.03 -0.01,-0.02 -0.01,-0.03 -0.02,-0.02 -0.01,-0.02 -0.02,-0.02 -0.01,-0.01 -0.02,-0.02 -0.02,-0.01 -0.01,-0.02 -0.02,-0.01 -0.02,-0.01 -0.02,-0.01 -0.02,-0.01 -0.02,0 -0.01,-0.01 -0.02,0 -0.02,-0.01 -0.03,0 c -0.25,0 -0.52,0.24 -0.52,0.47 0,0.1 0.05,0.21 0.15,0.3 0.17,0.15 0.35,0.42 0.35,0.83 0,0.4 -0.19,0.97 -0.5,1.42 -0.3,0.43 -0.67,0.77 -1.14,0.77 -0.56,0 -0.87,-0.36 -0.96,-0.9 0.11,-0.25 0.34,-0.89 0.34,-1.17 0,-0.12 -0.05,-0.22 -0.18,-0.22 -0.08,0 -0.19,0.02 -0.27,0.17 -0.11,0.2 -0.23,0.85 -0.23,1.2 -0.33,0.47 -0.73,0.92 -1.35,0.92 -0.66,0 -0.87,-0.59 -0.87,-1.14 0,-1.24 1.02,-2.29 1.02,-2.42 0,-0.11 -0.08,-0.19 -0.19,-0.19 -0.13,0 -0.2,0.13 -0.26,0.22 -0.51,0.74 -0.89,1.92 -0.89,2.82 0,0.69 0.23,1.42 1.05,1.42 0.7,0 1.17,-0.49 1.53,-1.04 0.09,0.58 0.48,1.04 1.1,1.04 0.77,0 1.25,-0.6 1.61,-1.35 0.23,-0.48 0.61,-1.83 0.61,-2.45 z"
         id="path4654" />
    </g>
    <path
       id="path4656"
       d="m 167.1,102.58218 0,-0.15 0,-0.15 -0.01,-0.15 0,-0.15 -0.01,-0.15 -0.01,-0.14 -0.02,-0.15 -0.02,-0.15 -0.02,-0.14 -0.03,-0.15 -0.03,-0.14 -0.04,-0.15 -0.04,-0.14 -0.05,-0.14 -0.06,-0.14 -0.03,-0.07 -0.03,-0.07 c -0.45,-0.949997 -1.27,-1.109997 -1.69,-1.109997 -0.6,0 -1.32,0.26 -1.73,1.179997 -0.32,0.69 -0.37,1.46 -0.37,2.26 0,0.74 0.04,1.64 0.45,2.39 0.43,0.81 1.15,1 1.64,1 l 0,-0.22 c -0.39,0 -0.97,-0.24 -1.15,-1.2 -0.11,-0.59 -0.11,-1.51 -0.11,-2.09 0,-0.64 0,-1.29 0.08,-1.83 0.19,-1.179997 0.93,-1.269997 1.18,-1.269997 0.33,0 0.99,0.18 1.17,1.159997 0.11,0.56 0.11,1.31 0.11,1.94 0,0.74 0,1.42 -0.11,2.05 -0.15,0.95 -0.72,1.24 -1.17,1.24 l 0,0 0,0.22 c 0.54,0 1.3,-0.2 1.73,-1.15 0.32,-0.68 0.37,-1.46 0.37,-2.24 z"
       inkscape:connector-curvature="0"
       style="font-style:normal;font-variant:normal;font-weight:normal;font-stretch:normal;letter-spacing:normal;word-spacing:normal;text-anchor:start;fill:#000000;fill-opacity:1;fill-rule:evenodd;stroke:#000000;stroke-width:0;stroke-linecap:butt;stroke-linejoin:miter;stroke-miterlimit:10.43299961;stroke-dasharray:none;stroke-dashoffset:0;stroke-opacity:1" />
    <path
       style="fill:none;fill-rule:evenodd;stroke:#000000;stroke-width:1px;stroke-linecap:butt;stroke-linejoin:miter;stroke-opacity:1;marker-end:url(#marker4566-1)"
       d="m 15.000001,97.362183 119.999999,0"
       id="path4136-4"
       inkscape:connector-curvature="0"
       sodipodi:nodetypes="cc" />
    <path
       style="fill:none;fill-rule:evenodd;stroke:#000000;stroke-width:1px;stroke-linecap:butt;stroke-linejoin:miter;stroke-opacity:1;marker-end:url(#marker4520-8)"
       d="M 65,97.362205 65,57.362208"
       id="path4140-6"
       inkscape:connector-curvature="0" />
    <path
       style="fill:none;fill-rule:evenodd;stroke:#000000;stroke-width:1px;stroke-linecap:butt;stroke-linejoin:miter;stroke-opacity:1;marker-end:url(#marker4705-9)"
       d="m 15.000001,97.362183 0,-49.999997"
       id="path4618-5"
       inkscape:connector-curvature="0" />
    <g
       transform="translate(-27.5,-20.889996)"
       id="g4694-3">
      <path
         style="font-style:normal;font-variant:normal;font-weight:normal;font-stretch:normal;letter-spacing:normal;word-spacing:normal;text-anchor:start;fill:#000000;fill-opacity:1;fill-rule:evenodd;stroke:#000000;stroke-width:0;stroke-linecap:butt;stroke-linejoin:miter;stroke-miterlimit:10.43299961;stroke-dasharray:none;stroke-dashoffset:0;stroke-opacity:1"
         inkscape:connector-curvature="0"
         d="m 95.52,123.06218 0,-0.04 0,-0.04 0,-0.04 -0.01,-0.04 0,-0.03 -0.01,-0.04 0,-0.03 -0.01,-0.04 -0.01,-0.03 -0.01,-0.03 -0.01,-0.03 -0.01,-0.03 -0.01,-0.02 -0.01,-0.03 -0.01,-0.02 -0.02,-0.03 -0.01,-0.02 -0.01,-0.02 -0.02,-0.02 -0.01,-0.01 -0.02,-0.02 -0.02,-0.01 -0.01,-0.02 -0.02,-0.01 -0.02,-0.01 -0.02,-0.01 -0.02,-0.01 -0.02,0 -0.02,-0.01 -0.02,0 -0.02,-0.01 -0.02,0 c -0.26,0 -0.52,0.24 -0.52,0.47 0,0.1 0.05,0.21 0.15,0.3 0.16,0.15 0.34,0.42 0.34,0.83 0,0.4 -0.19,0.97 -0.49,1.42 -0.3,0.43 -0.67,0.77 -1.14,0.77 -0.57,0 -0.87,-0.36 -0.96,-0.9 0.11,-0.25 0.33,-0.89 0.33,-1.17 0,-0.12 -0.05,-0.22 -0.17,-0.22 -0.08,0 -0.19,0.02 -0.27,0.17 -0.11,0.2 -0.23,0.85 -0.23,1.2 -0.33,0.47 -0.73,0.92 -1.36,0.92 -0.65,0 -0.86,-0.59 -0.86,-1.14 0,-1.24 1.01,-2.29 1.01,-2.42 0,-0.11 -0.07,-0.19 -0.18,-0.19 -0.13,0 -0.2,0.13 -0.26,0.22 -0.51,0.74 -0.89,1.92 -0.89,2.82 0,0.69 0.23,1.42 1.05,1.42 0.7,0 1.17,-0.49 1.53,-1.04 0.09,0.58 0.48,1.04 1.09,1.04 0.78,0 1.26,-0.6 1.61,-1.35 0.24,-0.48 0.62,-1.83 0.62,-2.45 z"
         id="path4646-3" />
    </g>
    <g
       transform="translate(10.640001,-20.889997)"
       id="g4697-7">
      <path
         style="font-style:normal;font-variant:normal;font-weight:normal;font-stretch:normal;letter-spacing:normal;word-spacing:normal;text-anchor:start;fill:#000000;fill-opacity:1;fill-rule:evenodd;stroke:#000000;stroke-width:0;stroke-linecap:butt;stroke-linejoin:miter;stroke-miterlimit:10.43299961;stroke-dasharray:none;stroke-dashoffset:0;stroke-opacity:1"
         inkscape:connector-curvature="0"
         d="m 100.65,125.99218 1.05,-1.02 c 1.55,-1.37 2.15,-1.91 2.15,-2.9 0,-1.14 -0.9,-1.93 -2.11,-1.93 -1.12,0 -1.86,0.91 -1.86,1.8 0,0.55 0.5,0.55 0.53,0.55 0.17,0 0.51,-0.12 0.51,-0.52 0,-0.26 -0.17,-0.52 -0.52,-0.52 -0.08,0 -0.1,0 -0.13,0.01 0.23,-0.65 0.76,-1.01 1.34,-1.01 0.91,0 1.33,0.8 1.33,1.62 0,0.79 -0.49,1.58 -1.04,2.19 l -1.91,2.13 c -0.11,0.11 -0.11,0.13 -0.11,0.36 l 3.69,0 0.28,-1.72 -0.25,0 c -0.05,0.3 -0.12,0.73 -0.22,0.88 -0.07,0.08 -0.72,0.08 -0.94,0.08 z"
         id="path4648-5" />
      <path
         style="font-style:normal;font-variant:normal;font-weight:normal;font-stretch:normal;letter-spacing:normal;word-spacing:normal;text-anchor:start;fill:#000000;fill-opacity:1;fill-rule:evenodd;stroke:#000000;stroke-width:0;stroke-linecap:butt;stroke-linejoin:miter;stroke-miterlimit:10.43299961;stroke-dasharray:none;stroke-dashoffset:0;stroke-opacity:1"
         inkscape:connector-curvature="0"
         d="m 110.38,123.06218 0,-0.04 0,-0.04 0,-0.04 -0.01,-0.04 0,-0.03 -0.01,-0.04 0,-0.03 -0.01,-0.04 -0.01,-0.03 -0.01,-0.03 -0.01,-0.03 -0.01,-0.03 -0.01,-0.02 -0.01,-0.03 -0.01,-0.02 -0.01,-0.03 -0.02,-0.02 -0.01,-0.02 -0.02,-0.02 -0.01,-0.01 -0.02,-0.02 -0.02,-0.01 -0.01,-0.02 -0.02,-0.01 -0.02,-0.01 -0.02,-0.01 -0.02,-0.01 -0.02,0 -0.02,-0.01 -0.02,0 -0.02,-0.01 -0.02,0 c -0.25,0 -0.52,0.24 -0.52,0.47 0,0.1 0.05,0.21 0.15,0.3 0.17,0.15 0.34,0.42 0.34,0.83 0,0.4 -0.18,0.97 -0.49,1.42 -0.3,0.43 -0.67,0.77 -1.14,0.77 -0.56,0 -0.87,-0.36 -0.96,-0.9 0.11,-0.25 0.34,-0.89 0.34,-1.17 0,-0.12 -0.05,-0.22 -0.18,-0.22 -0.08,0 -0.19,0.02 -0.27,0.17 -0.11,0.2 -0.23,0.85 -0.23,1.2 -0.33,0.47 -0.73,0.92 -1.35,0.92 -0.66,0 -0.87,-0.59 -0.87,-1.14 0,-1.24 1.02,-2.29 1.02,-2.42 0,-0.11 -0.08,-0.19 -0.19,-0.19 -0.13,0 -0.2,0.13 -0.26,0.22 -0.51,0.74 -0.89,1.92 -0.89,2.82 0,0.69 0.23,1.42 1.05,1.42 0.7,0 1.17,-0.49 1.53,-1.04 0.09,0.58 0.48,1.04 1.09,1.04 0.78,0 1.26,-0.6 1.62,-1.35 0.23,-0.48 0.61,-1.83 0.61,-2.45 z"
         id="path4650-7" />
    </g>
    <path
       id="path4656-2"
       d="m 16.76,102.58218 0,-0.15 0,-0.15 -0.01,-0.15 0,-0.15 -0.01,-0.15 -0.01,-0.14 -0.02,-0.15 -0.02,-0.15 -0.02,-0.14 -0.03,-0.15 -0.03,-0.14 -0.04,-0.15 -0.04,-0.14 -0.05,-0.14 -0.06,-0.14 -0.03,-0.07 -0.03,-0.07 c -0.45,-0.949997 -1.27,-1.109997 -1.69,-1.109997 -0.6,0 -1.32,0.26 -1.73,1.179997 -0.32,0.69 -0.37,1.46 -0.37,2.26 0,0.74 0.04,1.64 0.45,2.39 0.43,0.81 1.15,1 1.64,1 l 0,-0.22 c -0.39,0 -0.97,-0.24 -1.15,-1.2 -0.11,-0.59 -0.11,-1.51 -0.11,-2.09 0,-0.64 0,-1.29 0.08,-1.83 0.19,-1.179997 0.93,-1.269997 1.18,-1.269997 0.33,0 0.99,0.18 1.17,1.159997 0.11,0.56 0.11,1.31 0.11,1.94 0,0.74 0,1.42 -0.11,2.05 -0.15,0.95 -0.72,1.24 -1.17,1.24 l 0,0 0,0.22 c 0.54,0 1.3,-0.2 1.73,-1.15 0.32,-0.68 0.37,-1.46 0.37,-2.24 z"
       inkscape:connector-curvature="0"
       style="font-style:normal;font-variant:normal;font-weight:normal;font-stretch:normal;letter-spacing:normal;word-spacing:normal;text-anchor:start;fill:#000000;fill-opacity:1;fill-rule:evenodd;stroke:#000000;stroke-width:0;stroke-linecap:butt;stroke-linejoin:miter;stroke-miterlimit:10.43299961;stroke-dasharray:none;stroke-dashoffset:0;stroke-opacity:1" />
    <g
       id="g5197"
       transform="translate(-86.56,-42.779997)">
      <path
         id="path5008"
         d="m 140,152.36218 -5.46,0 0,0.31 0.24,0 c 0.76,0 0.79,0.11 0.79,0.47 l 0,5.2 c 0,0.36 -0.03,0.47 -0.79,0.47 l -0.24,0 0,0.3 c 0.35,-0.03 1.12,-0.03 1.51,-0.03 0.41,0 1.32,0 1.67,0.03 l 0,-0.3 -0.32,0 c -0.95,0 -0.95,-0.13 -0.95,-0.48 l 0,-2.44 0.86,0 c 0.95,0 1.05,0.31 1.05,1.16 l 0.25,0 0,-2.63 -0.25,0 c 0,0.83 -0.1,1.16 -1.05,1.16 l -0.86,0 0,-2.51 c 0,-0.33 0.02,-0.4 0.49,-0.4 l 1.19,0 c 1.49,0 1.74,0.55 1.9,1.92 l 0.25,0 z"
         inkscape:connector-curvature="0"
         style="font-style:normal;font-variant:normal;font-weight:normal;font-stretch:normal;letter-spacing:normal;word-spacing:normal;text-anchor:start;fill:#000000;fill-opacity:1;fill-rule:evenodd;stroke:#000000;stroke-width:0;stroke-linecap:butt;stroke-linejoin:miter;stroke-miterlimit:10.43299961;stroke-dasharray:none;stroke-dashoffset:0;stroke-opacity:1" />
      <path
         id="path5010"
         d="m 141.55,155.82218 0,-1.1 -1.38,0.11 0,0.31 c 0.69,0 0.77,0.07 0.77,0.56 l 0,2.66 c 0,0.45 -0.11,0.45 -0.77,0.45 l 0,0.3 c 0.38,-0.01 0.85,-0.03 1.13,-0.03 0.4,0 0.87,0 1.27,0.03 l 0,-0.3 -0.21,0 c -0.74,0 -0.76,-0.11 -0.76,-0.47 l 0,-1.53 c 0,-0.98 0.42,-1.87 1.17,-1.87 0.07,0 0.09,0 0.11,0.01 -0.03,0.01 -0.23,0.13 -0.23,0.39 0,0.28 0.21,0.43 0.43,0.43 0.18,0 0.43,-0.12 0.43,-0.44 0,-0.32 -0.31,-0.61 -0.74,-0.61 -0.72,0 -1.08,0.67 -1.22,1.1 z"
         inkscape:connector-curvature="0"
         style="font-style:normal;font-variant:normal;font-weight:normal;font-stretch:normal;letter-spacing:normal;word-spacing:normal;text-anchor:start;fill:#000000;fill-opacity:1;fill-rule:evenodd;stroke:#000000;stroke-width:0;stroke-linecap:butt;stroke-linejoin:miter;stroke-miterlimit:10.43299961;stroke-dasharray:none;stroke-dashoffset:0;stroke-opacity:1" />
      <path
         id="path5012"
         d="m 144.9,156.82218 0,-0.21 c 0.06,-1.48 0.9,-1.73 1.24,-1.73 1.02,0 1.12,1.34 1.12,1.73 l -2.36,0 0,0.21 2.77,0 c 0.22,0 0.25,0 0.25,-0.21 0,-0.98 -0.54,-1.95 -1.78,-1.95 -1.15,0 -2.07,1.03 -2.07,2.27 0,1.33 1.04,2.29 2.19,2.29 1.21,0 1.66,-1.1 1.66,-1.29 0,-0.1 -0.08,-0.12 -0.13,-0.12 -0.09,0 -0.11,0.06 -0.13,0.14 -0.35,1.03 -1.24,1.03 -1.34,1.03 -0.5,0 -0.9,-0.3 -1.13,-0.67 -0.29,-0.48 -0.29,-1.13 -0.29,-1.49 z"
         inkscape:connector-curvature="0"
         style="font-style:normal;font-variant:normal;font-weight:normal;font-stretch:normal;letter-spacing:normal;word-spacing:normal;text-anchor:start;fill:#000000;fill-opacity:1;fill-rule:evenodd;stroke:#000000;stroke-width:0;stroke-linecap:butt;stroke-linejoin:miter;stroke-miterlimit:10.43299961;stroke-dasharray:none;stroke-dashoffset:0;stroke-opacity:1" />
      <path
         id="path5014"
         d="m 152,158.51218 0,1.78 c 0,0.44 -0.11,0.44 -0.78,0.44 l 0,0.31 c 0.34,-0.01 0.86,-0.03 1.12,-0.03 0.27,0 0.77,0.02 1.12,0.03 l 0,-0.31 c -0.67,0 -0.77,0 -0.77,-0.44 l 0,-5.57 -0.22,0 -0.38,0.91 c -0.13,-0.28 -0.54,-0.91 -1.33,-0.91 -1.16,0 -2.2,0.97 -2.2,2.26 0,1.24 0.96,2.24 2.12,2.24 l 0.04,-0.21 c -0.73,0 -1.34,-0.89 -1.34,-2.03 0,-1.18 0.7,-2.01 1.44,-2.01 0.79,0 1.21,0.87 1.21,1.39 l 0,0 0,1.4 c 0,0.32 -0.18,0.6 -0.4,0.84 -0.13,0.14 -0.45,0.41 -0.91,0.41 l -0.04,0.21 c 0.69,0 1.1,-0.42 1.32,-0.71 z"
         inkscape:connector-curvature="0"
         style="font-style:normal;font-variant:normal;font-weight:normal;font-stretch:normal;letter-spacing:normal;word-spacing:normal;text-anchor:start;fill:#000000;fill-opacity:1;fill-rule:evenodd;stroke:#000000;stroke-width:0;stroke-linecap:butt;stroke-linejoin:miter;stroke-miterlimit:10.43299961;stroke-dasharray:none;stroke-dashoffset:0;stroke-opacity:1" />
      <path
         id="path5016"
         d="m 157.37,158.33218 0,0.89 1.43,-0.11 0,-0.3 c -0.7,0 -0.78,-0.07 -0.78,-0.56 l 0,-3.53 -1.46,0.11 0,0.31 c 0.7,0 0.78,0.07 0.78,0.56 l 0,1.77 c 0,0.86 -0.48,1.54 -1.21,1.54 -0.83,0 -0.87,-0.47 -0.87,-0.99 l 0,-3.3 -1.47,0.11 0,0.31 c 0.78,0 0.78,0.03 0.78,0.92 l 0,1.49 c 0,0.77 0,1.67 1.51,1.67 0.56,0 1,-0.27 1.29,-0.89 z"
         inkscape:connector-curvature="0"
         style="font-style:normal;font-variant:normal;font-weight:normal;font-stretch:normal;letter-spacing:normal;word-spacing:normal;text-anchor:start;fill:#000000;fill-opacity:1;fill-rule:evenodd;stroke:#000000;stroke-width:0;stroke-linecap:butt;stroke-linejoin:miter;stroke-miterlimit:10.43299961;stroke-dasharray:none;stroke-dashoffset:0;stroke-opacity:1" />
      <path
         id="path5018"
         d="m 160.12,156.82218 0.01,-0.21 c 0.06,-1.48 0.89,-1.73 1.23,-1.73 1.02,0 1.12,1.34 1.12,1.73 l -2.35,0 -0.01,0.21 2.77,0 c 0.22,0 0.25,0 0.25,-0.21 0,-0.98 -0.54,-1.95 -1.78,-1.95 -1.15,0 -2.07,1.03 -2.07,2.27 0,1.33 1.05,2.29 2.19,2.29 1.21,0 1.66,-1.1 1.66,-1.29 0,-0.1 -0.08,-0.12 -0.13,-0.12 -0.09,0 -0.11,0.06 -0.13,0.14 -0.35,1.03 -1.24,1.03 -1.34,1.03 -0.5,0 -0.9,-0.3 -1.13,-0.67 -0.29,-0.48 -0.29,-1.13 -0.29,-1.49 z"
         inkscape:connector-curvature="0"
         style="font-style:normal;font-variant:normal;font-weight:normal;font-stretch:normal;letter-spacing:normal;word-spacing:normal;text-anchor:start;fill:#000000;fill-opacity:1;fill-rule:evenodd;stroke:#000000;stroke-width:0;stroke-linecap:butt;stroke-linejoin:miter;stroke-miterlimit:10.43299961;stroke-dasharray:none;stroke-dashoffset:0;stroke-opacity:1" />
      <path
         id="path5020"
         d="m 164.53,155.70218 0,2.66 c 0,0.45 -0.11,0.45 -0.77,0.45 l 0,0.3 c 0.35,-0.01 0.85,-0.03 1.12,-0.03 0.26,0 0.78,0.02 1.12,0.03 l 0,-0.3 c -0.67,0 -0.78,0 -0.78,-0.45 l 0,-1.83 c 0,-1.03 0.71,-1.59 1.34,-1.59 0.63,0 0.74,0.54 0.74,1.1 l 0,2.32 c 0,0.45 -0.11,0.45 -0.78,0.45 l 0,0.3 c 0.35,-0.01 0.86,-0.03 1.13,-0.03 0.26,0 0.77,0.02 1.11,0.03 l 0,-0.3 c -0.52,0 -0.76,0 -0.77,-0.3 l 0,-1.9 c 0,-0.85 0,-1.16 -0.31,-1.52 -0.14,-0.17 -0.47,-0.37 -1.05,-0.37 -0.72,0 -1.19,0.43 -1.47,1.05 l 0,-1.05 -1.4,0.11 0,0.31 c 0.69,0 0.77,0.07 0.77,0.56 z"
         inkscape:connector-curvature="0"
         style="font-style:normal;font-variant:normal;font-weight:normal;font-stretch:normal;letter-spacing:normal;word-spacing:normal;text-anchor:start;fill:#000000;fill-opacity:1;fill-rule:evenodd;stroke:#000000;stroke-width:0;stroke-linecap:butt;stroke-linejoin:miter;stroke-miterlimit:10.43299961;stroke-dasharray:none;stroke-dashoffset:0;stroke-opacity:1" />
      <path
         id="path5022"
         d="m 170.14,156.95218 0,-0.08 0,-0.07 0,-0.07 0.01,-0.07 0,-0.07 0.01,-0.07 0.01,-0.06 0,-0.06 0.01,-0.06 0.01,-0.06 0.01,-0.06 0.02,-0.06 0.02,-0.11 0.03,-0.1 0.04,-0.1 0.03,-0.09 0.04,-0.09 0.04,-0.08 0.05,-0.07 0.04,-0.07 0.05,-0.07 0.05,-0.06 0.05,-0.05 0.06,-0.05 0.05,-0.05 0.05,-0.04 0.06,-0.04 0.06,-0.03 0.05,-0.03 0.06,-0.03 0.06,-0.02 0.05,-0.02 0.06,-0.01 0.05,-0.02 0.06,-0.01 0.05,0 0.05,-0.01 0.05,0 c 0.09,0 0.72,0.01 1.07,0.37 -0.41,0.03 -0.47,0.33 -0.47,0.46 0,0.26 0.18,0.45 0.46,0.45 0.25,0 0.45,-0.16 0.45,-0.46 0,-0.68 -0.75,-1.07 -1.52,-1.07 -1.24,0 -2.16,1.08 -2.16,2.31 0,1.27 0.99,2.25 2.14,2.25 1.34,0 1.65,-1.19 1.65,-1.29 0,-0.1 -0.1,-0.1 -0.13,-0.1 -0.09,0 -0.1,0.04 -0.12,0.1 -0.29,0.93 -0.94,1.05 -1.31,1.05 -0.53,0 -1.4,-0.43 -1.4,-2.03 z"
         inkscape:connector-curvature="0"
         style="font-style:normal;font-variant:normal;font-weight:normal;font-stretch:normal;letter-spacing:normal;word-spacing:normal;text-anchor:start;fill:#000000;fill-opacity:1;fill-rule:evenodd;stroke:#000000;stroke-width:0;stroke-linecap:butt;stroke-linejoin:miter;stroke-miterlimit:10.43299961;stroke-dasharray:none;stroke-dashoffset:0;stroke-opacity:1" />
      <path
         id="path5024"
         d="m 177.53,155.78218 0.01,-0.03 0.02,-0.03 0.01,-0.03 0.01,-0.02 0.02,-0.03 0.01,-0.02 0.01,-0.03 0.02,-0.02 0.03,-0.04 0.03,-0.04 0.03,-0.04 0.03,-0.04 0.03,-0.03 0.04,-0.03 0.03,-0.02 0.04,-0.03 0.03,-0.02 0.03,-0.02 0.04,-0.02 0.03,-0.02 0.03,-0.01 0.04,-0.01 0.03,-0.01 0.03,-0.01 0.03,-0.01 0.03,-0.01 0.03,0 0.03,-0.01 0.03,0 0.02,0 0.03,-0.01 0.02,0 0.02,0 0.02,0 0.02,0 0.02,0 0,-0.31 c -0.23,0.02 -0.52,0.03 -0.75,0.03 -0.18,0 -0.65,-0.02 -0.87,-0.03 l 0,0.31 c 0.31,0.01 0.47,0.18 0.47,0.43 0,0.1 -0.01,0.12 -0.06,0.24 l -1,2.44 -1.11,-2.67 c -0.04,-0.1 -0.06,-0.14 -0.06,-0.18 0,-0.26 0.37,-0.26 0.56,-0.26 l 0,-0.31 c -0.26,0.01 -0.91,0.03 -1.08,0.03 -0.27,0 -0.67,-0.01 -0.97,-0.03 l 0,0.31 c 0.48,0 0.67,0 0.81,0.35 l 1.49,3.62 c -0.05,0.13 -0.19,0.46 -0.25,0.59 -0.22,0.55 -0.5,1.23 -1.13,1.23 -0.05,0 -0.28,0 -0.47,-0.18 0.31,-0.04 0.39,-0.25 0.39,-0.41 0,-0.26 -0.19,-0.42 -0.42,-0.42 -0.2,0 -0.42,0.13 -0.42,0.43 0,0.44 0.42,0.8 0.92,0.8 0.62,0 1.03,-0.57 1.27,-1.13 z"
         inkscape:connector-curvature="0"
         style="font-style:normal;font-variant:normal;font-weight:normal;font-stretch:normal;letter-spacing:normal;word-spacing:normal;text-anchor:start;fill:#000000;fill-opacity:1;fill-rule:evenodd;stroke:#000000;stroke-width:0;stroke-linecap:butt;stroke-linejoin:miter;stroke-miterlimit:10.43299961;stroke-dasharray:none;stroke-dashoffset:0;stroke-opacity:1" />
    </g>
    <g
       id="g5208"
       transform="translate(-99.25,-124.74)">
      <path
         id="path5026"
         d="m 121.51,165.06218 0,-0.03 0,-0.03 0,-0.03 0,-0.03 0,-0.03 0,-0.03 0.01,-0.02 0,-0.02 0.01,-0.03 0.01,-0.02 0.01,-0.02 0.01,-0.02 0.01,-0.01 0.01,-0.02 0.02,-0.01 0.02,-0.02 0.02,-0.01 0.02,-0.01 0.02,-0.01 0.01,0 0.01,-0.01 0.02,0 0.01,-0.01 0.02,0 0.02,-0.01 0.01,0 0.02,0 0.02,-0.01 0.02,0 0.02,0 0.02,-0.01 0.03,0 0.02,0 0.02,0 0.03,-0.01 0.03,0 0.02,0 0.03,0 0.03,0 0.03,0 0.03,0 0.03,-0.01 0.04,0 0.03,0 0.04,0 0.03,0 0.26,0 0,-0.31 c -0.35,0.04 -1.13,0.04 -1.51,0.04 -0.39,0 -1.17,0 -1.52,-0.04 l 0,0.31 0.25,0 c 0.79,0 0.82,0.11 0.82,0.47 l 0,5.23 c 0,0.36 -0.03,0.47 -0.82,0.47 l -0.25,0 0,0.31 c 0.35,-0.03 1.13,-0.03 1.51,-0.03 0.39,0 1.17,0 1.52,0.03 l 0,-0.31 -0.26,0 c -0.78,0 -0.81,-0.11 -0.81,-0.47 z"
         inkscape:connector-curvature="0"
         style="font-style:normal;font-variant:normal;font-weight:normal;font-stretch:normal;letter-spacing:normal;word-spacing:normal;text-anchor:start;fill:#000000;fill-opacity:1;fill-rule:evenodd;stroke:#000000;stroke-width:0;stroke-linecap:butt;stroke-linejoin:miter;stroke-miterlimit:10.43299961;stroke-dasharray:none;stroke-dashoffset:0;stroke-opacity:1" />
      <path
         id="path5028"
         d="m 123.96,167.65218 0,2.67 c 0,0.44 -0.11,0.44 -0.78,0.44 l 0,0.31 c 0.35,-0.01 0.86,-0.03 1.13,-0.03 0.26,0 0.77,0.02 1.11,0.03 l 0,-0.31 c -0.66,0 -0.77,0 -0.77,-0.44 l 0,-1.83 c 0,-1.04 0.7,-1.59 1.34,-1.59 0.63,0 0.74,0.53 0.74,1.1 l 0,2.32 c 0,0.44 -0.11,0.44 -0.78,0.44 l 0,0.31 c 0.35,-0.01 0.85,-0.03 1.12,-0.03 0.26,0 0.78,0.02 1.12,0.03 l 0,-0.31 c -0.52,0 -0.77,0 -0.78,-0.3 l 0,-1.89 c 0,-0.86 0,-1.17 -0.31,-1.52 -0.14,-0.17 -0.46,-0.37 -1.04,-0.37 -0.73,0 -1.19,0.43 -1.47,1.04 l 0,-1.04 -1.41,0.11 0,0.31 c 0.7,0 0.78,0.07 0.78,0.55 z"
         inkscape:connector-curvature="0"
         style="font-style:normal;font-variant:normal;font-weight:normal;font-stretch:normal;letter-spacing:normal;word-spacing:normal;text-anchor:start;fill:#000000;fill-opacity:1;fill-rule:evenodd;stroke:#000000;stroke-width:0;stroke-linecap:butt;stroke-linejoin:miter;stroke-miterlimit:10.43299961;stroke-dasharray:none;stroke-dashoffset:0;stroke-opacity:1" />
      <path
         id="path5030"
         d="m 130.11,167.33218 0,-0.65 -1.43,0.11 0,0.31 c 0.71,0 0.78,0.06 0.78,0.49 l 0,4.65 c 0,0.45 -0.11,0.45 -0.78,0.45 l 0,0.31 c 0.34,-0.01 0.86,-0.03 1.11,-0.03 0.27,0 0.78,0.02 1.13,0.03 l 0,-0.31 c -0.67,0 -0.78,0 -0.78,-0.45 l 0,-1.67 0,-0.09 0.14,-0.13 c -0.14,-0.2 -0.14,-0.21 -0.14,-0.41 l 0,0 0,-2.22 c 0.29,-0.5 0.78,-0.79 1.29,-0.79 0.72,0 1.33,0.87 1.33,1.99 0,1.21 -0.7,2.04 -1.43,2.04 -0.4,0 -0.78,-0.2 -1.05,-0.61 l -0.14,0.13 c 0.05,0.16 0.47,0.7 1.23,0.7 1.18,0 2.21,-0.97 2.21,-2.26 0,-1.26 -0.96,-2.24 -2.07,-2.24 -0.78,0 -1.2,0.44 -1.4,0.65 z"
         inkscape:connector-curvature="0"
         style="font-style:normal;font-variant:normal;font-weight:normal;font-stretch:normal;letter-spacing:normal;word-spacing:normal;text-anchor:start;fill:#000000;fill-opacity:1;fill-rule:evenodd;stroke:#000000;stroke-width:0;stroke-linecap:butt;stroke-linejoin:miter;stroke-miterlimit:10.43299961;stroke-dasharray:none;stroke-dashoffset:0;stroke-opacity:1" />
      <path
         id="path5032"
         d="m 137.83,170.28218 0,0.9 1.43,-0.11 0,-0.31 c -0.7,0 -0.78,-0.07 -0.78,-0.55 l 0,-3.53 -1.46,0.11 0,0.31 c 0.7,0 0.78,0.07 0.78,0.55 l 0,1.77 c 0,0.86 -0.48,1.54 -1.21,1.54 -0.83,0 -0.87,-0.47 -0.87,-0.98 l 0,-3.3 -1.47,0.11 0,0.31 c 0.78,0 0.78,0.03 0.78,0.91 l 0,1.49 c 0,0.77 0,1.68 1.51,1.68 0.56,0 1,-0.28 1.29,-0.9 z"
         inkscape:connector-curvature="0"
         style="font-style:normal;font-variant:normal;font-weight:normal;font-stretch:normal;letter-spacing:normal;word-spacing:normal;text-anchor:start;fill:#000000;fill-opacity:1;fill-rule:evenodd;stroke:#000000;stroke-width:0;stroke-linecap:butt;stroke-linejoin:miter;stroke-miterlimit:10.43299961;stroke-dasharray:none;stroke-dashoffset:0;stroke-opacity:1" />
      <path
         id="path5034"
         d="m 141.19,167.10218 1.43,0 0,-0.31 -1.43,0 0,-1.83 -0.25,0 c -0.01,0.81 -0.31,1.88 -1.28,1.92 l 0,0.22 0.85,0 0,2.74 c 0,1.22 0.92,1.34 1.28,1.34 0.71,0 0.98,-0.71 0.98,-1.34 l 0,-0.57 -0.25,0 0,0.55 c 0,0.73 -0.29,1.11 -0.66,1.11 -0.67,0 -0.67,-0.9 -0.67,-1.07 z"
         inkscape:connector-curvature="0"
         style="font-style:normal;font-variant:normal;font-weight:normal;font-stretch:normal;letter-spacing:normal;word-spacing:normal;text-anchor:start;fill:#000000;fill-opacity:1;fill-rule:evenodd;stroke:#000000;stroke-width:0;stroke-linecap:butt;stroke-linejoin:miter;stroke-miterlimit:10.43299961;stroke-dasharray:none;stroke-dashoffset:0;stroke-opacity:1" />
      <path
         id="path5036"
         d="m 148.73,169.14218 0.03,0.01 0.02,0 0.03,0.01 0.03,0 0.03,0.01 0.04,0.01 0.04,0.01 0.04,0.01 0.04,0.01 0.04,0.02 0.04,0.01 0.05,0.02 0.04,0.02 0.04,0.02 0.05,0.02 0.04,0.03 0.04,0.02 0.05,0.03 0.04,0.03 0.04,0.03 0.04,0.04 0.03,0.04 0.03,0.04 0.04,0.04 0.02,0.04 0.02,0.03 0.01,0.02 0.01,0.03 0.01,0.02 0.01,0.03 0.01,0.02 0.01,0.03 0.01,0.03 0,0.03 0.01,0.03 0,0.03 0,0.03 0.01,0.03 0,0.04 c 0,0.5 -0.35,0.9 -1.13,0.9 -0.83,0 -1.19,-0.56 -1.38,-1.41 -0.03,-0.13 -0.04,-0.17 -0.14,-0.17 -0.13,0 -0.13,0.07 -0.13,0.25 l 0,1.31 c 0,0.17 0,0.24 0.11,0.24 0.05,0 0.06,-0.01 0.25,-0.2 0.02,-0.02 0.02,-0.04 0.2,-0.23 0.44,0.42 0.88,0.43 1.09,0.43 1.15,0 1.6,-0.67 1.6,-1.38 0,-0.53 -0.29,-0.83 -0.41,-0.95 -0.33,-0.31 -0.72,-0.39 -1.14,-0.47 -0.55,-0.11 -1.22,-0.24 -1.22,-0.82 0,-0.34 0.26,-0.75 1.11,-0.75 1.1,0 1.15,0.89 1.17,1.2 0.01,0.09 0.1,0.09 0.12,0.09 0.13,0 0.13,-0.05 0.13,-0.24 l 0,-1 c 0,-0.17 0,-0.24 -0.11,-0.24 -0.05,0 -0.07,0 -0.2,0.12 -0.03,0.04 -0.13,0.13 -0.17,0.16 -0.38,-0.28 -0.79,-0.28 -0.94,-0.28 -1.21,0 -1.59,0.66 -1.59,1.22 0,0.35 0.16,0.63 0.43,0.85 0.32,0.25 0.6,0.31 1.31,0.45 z"
         inkscape:connector-curvature="0"
         style="font-style:normal;font-variant:normal;font-weight:normal;font-stretch:normal;letter-spacing:normal;word-spacing:normal;text-anchor:start;fill:#000000;fill-opacity:1;fill-rule:evenodd;stroke:#000000;stroke-width:0;stroke-linecap:butt;stroke-linejoin:miter;stroke-miterlimit:10.43299961;stroke-dasharray:none;stroke-dashoffset:0;stroke-opacity:1" />
      <path
         id="path5038"
         d="m 152.35,166.68218 -1.39,0.11 0,0.31 c 0.65,0 0.74,0.06 0.74,0.54 l 0,2.68 c 0,0.44 -0.11,0.44 -0.78,0.44 l 0,0.31 c 0.32,-0.01 0.86,-0.03 1.09,-0.03 0.35,0 0.7,0.02 1.04,0.03 l 0,-0.31 c -0.66,0 -0.7,-0.05 -0.7,-0.43 z"
         inkscape:connector-curvature="0"
         style="font-style:normal;font-variant:normal;font-weight:normal;font-stretch:normal;letter-spacing:normal;word-spacing:normal;text-anchor:start;fill:#000000;fill-opacity:1;fill-rule:evenodd;stroke:#000000;stroke-width:0;stroke-linecap:butt;stroke-linejoin:miter;stroke-miterlimit:10.43299961;stroke-dasharray:none;stroke-dashoffset:0;stroke-opacity:1" />
      <path
         id="path5040"
         d="m 152.39,164.95218 0,-0.03 0,-0.03 0,-0.03 -0.01,-0.02 0,-0.03 -0.01,-0.03 -0.01,-0.02 -0.01,-0.03 -0.01,-0.02 -0.01,-0.02 -0.02,-0.02 -0.01,-0.03 -0.02,-0.02 -0.01,-0.02 -0.02,-0.01 -0.02,-0.02 -0.01,-0.02 -0.02,-0.01 -0.02,-0.02 -0.03,-0.01 -0.02,-0.02 -0.02,-0.01 -0.02,-0.01 -0.02,-0.01 -0.03,-0.01 -0.02,0 -0.03,-0.01 -0.02,-0.01 -0.03,0 -0.02,0 -0.03,-0.01 -0.02,0 c -0.31,0 -0.53,0.27 -0.53,0.53 0,0.27 0.22,0.53 0.53,0.53 0.27,0 0.52,-0.21 0.52,-0.53 z"
         inkscape:connector-curvature="0"
         style="font-style:normal;font-variant:normal;font-weight:normal;font-stretch:normal;letter-spacing:normal;word-spacing:normal;text-anchor:start;fill:#000000;fill-opacity:1;fill-rule:evenodd;stroke:#000000;stroke-width:0;stroke-linecap:butt;stroke-linejoin:miter;stroke-miterlimit:10.43299961;stroke-dasharray:none;stroke-dashoffset:0;stroke-opacity:1" />
      <path
         id="path5042"
         d="m 154.41,169.75218 0,-0.01 0.01,0 0,-0.01 0,0 0,-0.01 0,-0.01 0,-0.01 0,-0.01 0,-0.01 0,-0.02 0,-0.01 0,-0.01 0.01,-0.02 0,-0.01 0,-0.02 0.01,-0.01 0,-0.02 0.01,-0.02 0,-0.02 0.01,-0.01 0,-0.02 0.01,-0.02 0.01,-0.02 0.01,-0.02 0.01,-0.02 0.01,-0.01 0.01,-0.02 0.01,-0.02 0.01,-0.02 0.01,-0.02 0.02,-0.02 0.01,-0.02 c 0.39,0.28 0.8,0.31 0.99,0.31 l 0,-0.23 c -0.87,0 -0.87,-0.99 -0.87,-1.22 0,-0.27 0.01,-0.59 0.16,-0.83 0.08,-0.12 0.31,-0.4 0.71,-0.4 0.86,0 0.86,0.99 0.86,1.22 0,0.27 -0.01,0.59 -0.16,0.83 -0.07,0.12 -0.3,0.4 -0.7,0.4 l 0,0 0,0.23 c 0.92,0 1.61,-0.69 1.61,-1.45 0,-0.37 -0.16,-0.74 -0.41,-0.96 0.36,-0.34 0.72,-0.39 0.9,-0.39 0.02,0 0.07,0 0.1,0.01 -0.11,0.04 -0.16,0.15 -0.16,0.27 0,0.17 0.13,0.28 0.29,0.28 0.1,0 0.28,-0.07 0.28,-0.29 0,-0.17 -0.11,-0.49 -0.5,-0.49 -0.2,0 -0.64,0.06 -1.06,0.47 -0.41,-0.33 -0.83,-0.36 -1.05,-0.36 -0.93,0 -1.61,0.68 -1.61,1.45 0,0.44 0.22,0.81 0.46,1.02 -0.13,0.15 -0.3,0.48 -0.3,0.83 0,0.3 0.12,0.68 0.43,0.88 -0.59,0.17 -0.91,0.6 -0.91,0.99 0,0.72 0.98,1.27 2.2,1.27 l 0.01,-0.23 c -1.01,0 -1.69,-0.51 -1.69,-1.04 0,-0.45 0.37,-0.82 0.81,-0.85 l 0.59,0 c 0.85,0 1.97,0 1.97,0.85 0,0.54 -0.71,1.04 -1.68,1.04 l 0,0 -0.01,0.23 c 1.17,0 2.21,-0.51 2.21,-1.29 0,-0.34 -0.14,-0.85 -0.65,-1.13 -0.53,-0.28 -1.11,-0.28 -1.71,-0.28 -0.25,0 -0.68,0 -0.75,-0.01 -0.32,-0.03 -0.53,-0.34 -0.53,-0.66 z"
         inkscape:connector-curvature="0"
         style="font-style:normal;font-variant:normal;font-weight:normal;font-stretch:normal;letter-spacing:normal;word-spacing:normal;text-anchor:start;fill:#000000;fill-opacity:1;fill-rule:evenodd;stroke:#000000;stroke-width:0;stroke-linecap:butt;stroke-linejoin:miter;stroke-miterlimit:10.43299961;stroke-dasharray:none;stroke-dashoffset:0;stroke-opacity:1" />
      <path
         id="path5044"
         d="m 159.44,167.65218 0,2.67 c 0,0.44 -0.11,0.44 -0.78,0.44 l 0,0.31 c 0.35,-0.01 0.85,-0.03 1.12,-0.03 0.26,0 0.78,0.02 1.12,0.03 l 0,-0.31 c -0.67,0 -0.78,0 -0.78,-0.44 l 0,-1.83 c 0,-1.04 0.71,-1.59 1.34,-1.59 0.63,0 0.74,0.53 0.74,1.1 l 0,2.32 c 0,0.44 -0.11,0.44 -0.77,0.44 l 0,0.31 c 0.34,-0.01 0.85,-0.03 1.12,-0.03 0.26,0 0.78,0.02 1.11,0.03 l 0,-0.31 c -0.51,0 -0.76,0 -0.77,-0.3 l 0,-1.89 c 0,-0.86 0,-1.17 -0.31,-1.52 -0.14,-0.17 -0.47,-0.37 -1.04,-0.37 -0.73,0 -1.2,0.43 -1.48,1.04 l 0,-1.04 -1.4,0.11 0,0.31 c 0.7,0 0.78,0.07 0.78,0.55 z"
         inkscape:connector-curvature="0"
         style="font-style:normal;font-variant:normal;font-weight:normal;font-stretch:normal;letter-spacing:normal;word-spacing:normal;text-anchor:start;fill:#000000;fill-opacity:1;fill-rule:evenodd;stroke:#000000;stroke-width:0;stroke-linecap:butt;stroke-linejoin:miter;stroke-miterlimit:10.43299961;stroke-dasharray:none;stroke-dashoffset:0;stroke-opacity:1" />
      <path
         id="path5046"
         d="m 167.19,170.32218 0,0.03 0.01,0.04 0.01,0.04 0.01,0.03 0.01,0.04 0.01,0.04 0.01,0.03 0.01,0.04 0.02,0.04 0.01,0.03 0.02,0.03 0.02,0.04 0.02,0.03 0.02,0.03 0.02,0.03 0.03,0.03 0.02,0.03 0.03,0.03 0.03,0.02 0.03,0.03 0.03,0.02 0.03,0.02 0.03,0.02 0.03,0.02 0.04,0.01 0.03,0.02 0.04,0.01 0.04,0.01 0.04,0.01 0.04,0.01 0.04,0 0.05,0 c 0.21,0 0.81,-0.14 0.81,-0.94 l 0,-0.56 -0.25,0 0,0.56 c 0,0.57 -0.25,0.63 -0.35,0.63 -0.33,0 -0.37,-0.44 -0.37,-0.49 l 0,-1.99 c 0,-0.42 0,-0.81 -0.36,-1.17 -0.39,-0.39 -0.89,-0.55 -1.36,-0.55 -0.82,0 -1.51,0.47 -1.51,1.12 0,0.3 0.2,0.47 0.46,0.47 0.28,0 0.46,-0.2 0.46,-0.46 0,-0.12 -0.05,-0.44 -0.51,-0.46 0.27,-0.34 0.76,-0.45 1.08,-0.45 0.48,0 1.05,0.39 1.05,1.27 l 0,0.37 0,0.21 0,0.99 c 0,0.94 -0.72,1.28 -1.16,1.28 -0.49,0 -0.9,-0.35 -0.9,-0.84 0,-0.55 0.42,-1.37 2.06,-1.43 l 0,0 0,-0.21 c -0.51,0.03 -1.2,0.06 -1.83,0.35 -0.75,0.34 -1,0.86 -1,1.3 0,0.8 0.97,1.05 1.6,1.05 0.65,0 1.11,-0.4 1.3,-0.86 z"
         inkscape:connector-curvature="0"
         style="font-style:normal;font-variant:normal;font-weight:normal;font-stretch:normal;letter-spacing:normal;word-spacing:normal;text-anchor:start;fill:#000000;fill-opacity:1;fill-rule:evenodd;stroke:#000000;stroke-width:0;stroke-linecap:butt;stroke-linejoin:miter;stroke-miterlimit:10.43299961;stroke-dasharray:none;stroke-dashoffset:0;stroke-opacity:1" />
      <path
         id="path5048"
         d="m 170.62,164.18218 -1.43,0.1 0,0.31 c 0.69,0 0.77,0.07 0.77,0.56 l 0,5.17 c 0,0.44 -0.11,0.44 -0.77,0.44 l 0,0.31 c 0.32,-0.01 0.85,-0.03 1.1,-0.03 0.25,0 0.74,0.02 1.11,0.03 l 0,-0.31 c -0.67,0 -0.78,0 -0.78,-0.44 z"
         inkscape:connector-curvature="0"
         style="font-style:normal;font-variant:normal;font-weight:normal;font-stretch:normal;letter-spacing:normal;word-spacing:normal;text-anchor:start;fill:#000000;fill-opacity:1;fill-rule:evenodd;stroke:#000000;stroke-width:0;stroke-linecap:butt;stroke-linejoin:miter;stroke-miterlimit:10.43299961;stroke-dasharray:none;stroke-dashoffset:0;stroke-opacity:1" />
    </g>
    <g
       id="g5222"
       transform="translate(-6.23,-124.63)">
      <path
         id="path5050"
         d="m 182.13,167.70218 -0.01,-0.19 -0.01,-0.18 -0.02,-0.19 -0.03,-0.18 -0.04,-0.17 -0.04,-0.18 -0.06,-0.17 -0.06,-0.16 -0.06,-0.16 -0.08,-0.16 -0.08,-0.15 -0.08,-0.15 -0.1,-0.14 -0.1,-0.14 -0.1,-0.13 -0.11,-0.13 -0.12,-0.12 -0.12,-0.11 -0.12,-0.11 -0.13,-0.1 -0.14,-0.09 -0.14,-0.09 -0.14,-0.08 -0.15,-0.07 -0.15,-0.06 -0.15,-0.06 -0.16,-0.05 -0.15,-0.04 -0.17,-0.03 -0.16,-0.02 -0.17,-0.02 -0.17,0 0,0.25 c 0.87,0 2.29,0.7 2.29,3.24 0,2.64 -1.36,3.47 -2.28,3.47 l 0,0 c -0.95,0 -2.28,-0.87 -2.28,-3.47 0,-2.57 1.45,-3.24 2.27,-3.24 l 0,-0.25 c -1.78,0 -3.3,1.59 -3.3,3.63 0,2.04 1.53,3.59 3.3,3.59 1.81,0 3.32,-1.58 3.32,-3.59 z"
         inkscape:connector-curvature="0"
         style="font-style:normal;font-variant:normal;font-weight:normal;font-stretch:normal;letter-spacing:normal;word-spacing:normal;text-anchor:start;fill:#000000;fill-opacity:1;fill-rule:evenodd;stroke:#000000;stroke-width:0;stroke-linecap:butt;stroke-linejoin:miter;stroke-miterlimit:10.43299961;stroke-dasharray:none;stroke-dashoffset:0;stroke-opacity:1" />
      <path
         id="path5052"
         d="m 186.59,170.28218 0,0.9 1.43,-0.11 0,-0.31 c -0.69,0 -0.77,-0.07 -0.77,-0.55 l 0,-3.53 -1.46,0.11 0,0.31 c 0.69,0 0.77,0.07 0.77,0.55 l 0,1.77 c 0,0.86 -0.48,1.54 -1.2,1.54 -0.84,0 -0.88,-0.47 -0.88,-0.98 l 0,-3.3 -1.46,0.11 0,0.31 c 0.78,0 0.78,0.03 0.78,0.91 l 0,1.49 c 0,0.77 0,1.68 1.51,1.68 0.56,0 0.99,-0.28 1.28,-0.9 z"
         inkscape:connector-curvature="0"
         style="font-style:normal;font-variant:normal;font-weight:normal;font-stretch:normal;letter-spacing:normal;word-spacing:normal;text-anchor:start;fill:#000000;fill-opacity:1;fill-rule:evenodd;stroke:#000000;stroke-width:0;stroke-linecap:butt;stroke-linejoin:miter;stroke-miterlimit:10.43299961;stroke-dasharray:none;stroke-dashoffset:0;stroke-opacity:1" />
      <path
         id="path5054"
         d="m 189.96,167.10218 1.42,0 0,-0.31 -1.42,0 0,-1.83 -0.25,0 c -0.01,0.81 -0.31,1.88 -1.28,1.92 l 0,0.22 0.84,0 0,2.74 c 0,1.22 0.93,1.34 1.28,1.34 0.71,0 0.99,-0.71 0.99,-1.34 l 0,-0.57 -0.25,0 0,0.55 c 0,0.73 -0.3,1.11 -0.66,1.11 -0.67,0 -0.67,-0.9 -0.67,-1.07 z"
         inkscape:connector-curvature="0"
         style="font-style:normal;font-variant:normal;font-weight:normal;font-stretch:normal;letter-spacing:normal;word-spacing:normal;text-anchor:start;fill:#000000;fill-opacity:1;fill-rule:evenodd;stroke:#000000;stroke-width:0;stroke-linecap:butt;stroke-linejoin:miter;stroke-miterlimit:10.43299961;stroke-dasharray:none;stroke-dashoffset:0;stroke-opacity:1" />
      <path
         id="path5056"
         d="m 193.81,167.33218 0,-0.65 -1.43,0.11 0,0.31 c 0.71,0 0.78,0.06 0.78,0.49 l 0,4.65 c 0,0.45 -0.11,0.45 -0.78,0.45 l 0,0.31 c 0.34,-0.01 0.86,-0.03 1.11,-0.03 0.27,0 0.78,0.02 1.13,0.03 l 0,-0.31 c -0.67,0 -0.78,0 -0.78,-0.45 l 0,-1.67 0,-0.09 0.14,-0.13 c -0.14,-0.2 -0.14,-0.21 -0.14,-0.41 l 0,0 0,-2.22 c 0.29,-0.5 0.78,-0.79 1.29,-0.79 0.72,0 1.33,0.87 1.33,1.99 0,1.21 -0.7,2.04 -1.43,2.04 -0.4,0 -0.78,-0.2 -1.05,-0.61 l -0.14,0.13 c 0.05,0.16 0.47,0.7 1.23,0.7 1.18,0 2.22,-0.97 2.22,-2.26 0,-1.26 -0.97,-2.24 -2.08,-2.24 -0.78,0 -1.2,0.44 -1.4,0.65 z"
         inkscape:connector-curvature="0"
         style="font-style:normal;font-variant:normal;font-weight:normal;font-stretch:normal;letter-spacing:normal;word-spacing:normal;text-anchor:start;fill:#000000;fill-opacity:1;fill-rule:evenodd;stroke:#000000;stroke-width:0;stroke-linecap:butt;stroke-linejoin:miter;stroke-miterlimit:10.43299961;stroke-dasharray:none;stroke-dashoffset:0;stroke-opacity:1" />
      <path
         id="path5058"
         d="m 201.53,170.28218 0,0.9 1.43,-0.11 0,-0.31 c -0.7,0 -0.78,-0.07 -0.78,-0.55 l 0,-3.53 -1.46,0.11 0,0.31 c 0.7,0 0.78,0.07 0.78,0.55 l 0,1.77 c 0,0.86 -0.48,1.54 -1.21,1.54 -0.83,0 -0.87,-0.47 -0.87,-0.98 l 0,-3.3 -1.46,0.11 0,0.31 c 0.77,0 0.77,0.03 0.77,0.91 l 0,1.49 c 0,0.77 0,1.68 1.51,1.68 0.56,0 1,-0.28 1.29,-0.9 z"
         inkscape:connector-curvature="0"
         style="font-style:normal;font-variant:normal;font-weight:normal;font-stretch:normal;letter-spacing:normal;word-spacing:normal;text-anchor:start;fill:#000000;fill-opacity:1;fill-rule:evenodd;stroke:#000000;stroke-width:0;stroke-linecap:butt;stroke-linejoin:miter;stroke-miterlimit:10.43299961;stroke-dasharray:none;stroke-dashoffset:0;stroke-opacity:1" />
      <path
         id="path5060"
         d="m 204.89,167.10218 1.43,0 0,-0.31 -1.43,0 0,-1.83 -0.25,0 c -0.01,0.81 -0.3,1.88 -1.28,1.92 l 0,0.22 0.85,0 0,2.74 c 0,1.22 0.92,1.34 1.28,1.34 0.71,0 0.99,-0.71 0.99,-1.34 l 0,-0.57 -0.25,0 0,0.55 c 0,0.73 -0.3,1.11 -0.67,1.11 -0.67,0 -0.67,-0.9 -0.67,-1.07 z"
         inkscape:connector-curvature="0"
         style="font-style:normal;font-variant:normal;font-weight:normal;font-stretch:normal;letter-spacing:normal;word-spacing:normal;text-anchor:start;fill:#000000;fill-opacity:1;fill-rule:evenodd;stroke:#000000;stroke-width:0;stroke-linecap:butt;stroke-linejoin:miter;stroke-miterlimit:10.43299961;stroke-dasharray:none;stroke-dashoffset:0;stroke-opacity:1" />
      <path
         id="path5062"
         d="m 212.44,169.14218 0.03,0.01 0.02,0 0.03,0.01 0.03,0 0.03,0.01 0.04,0.01 0.04,0.01 0.04,0.01 0.04,0.01 0.04,0.02 0.04,0.01 0.05,0.02 0.04,0.02 0.04,0.02 0.05,0.02 0.04,0.03 0.05,0.02 0.04,0.03 0.04,0.03 0.04,0.03 0.04,0.04 0.03,0.04 0.04,0.04 0.03,0.04 0.03,0.04 0.01,0.03 0.01,0.02 0.01,0.03 0.01,0.02 0.01,0.03 0.01,0.02 0.01,0.03 0.01,0.03 0,0.03 0.01,0.03 0,0.03 0.01,0.03 0,0.03 0,0.04 c 0,0.5 -0.35,0.9 -1.13,0.9 -0.83,0 -1.19,-0.56 -1.38,-1.41 -0.03,-0.13 -0.04,-0.17 -0.14,-0.17 -0.13,0 -0.13,0.07 -0.13,0.25 l 0,1.31 c 0,0.17 0,0.24 0.11,0.24 0.05,0 0.06,-0.01 0.25,-0.2 0.02,-0.02 0.02,-0.04 0.2,-0.23 0.44,0.42 0.89,0.43 1.09,0.43 1.15,0 1.61,-0.67 1.61,-1.38 0,-0.53 -0.3,-0.83 -0.42,-0.95 -0.33,-0.31 -0.72,-0.39 -1.14,-0.47 -0.55,-0.11 -1.22,-0.24 -1.22,-0.82 0,-0.34 0.26,-0.75 1.11,-0.75 1.1,0 1.15,0.89 1.17,1.2 0.01,0.09 0.1,0.09 0.12,0.09 0.13,0 0.13,-0.05 0.13,-0.24 l 0,-1 c 0,-0.17 0,-0.24 -0.11,-0.24 -0.05,0 -0.07,0 -0.2,0.12 -0.03,0.04 -0.13,0.13 -0.17,0.16 -0.38,-0.28 -0.79,-0.28 -0.94,-0.28 -1.21,0 -1.59,0.66 -1.59,1.22 0,0.35 0.16,0.63 0.43,0.85 0.32,0.25 0.6,0.31 1.31,0.45 z"
         inkscape:connector-curvature="0"
         style="font-style:normal;font-variant:normal;font-weight:normal;font-stretch:normal;letter-spacing:normal;word-spacing:normal;text-anchor:start;fill:#000000;fill-opacity:1;fill-rule:evenodd;stroke:#000000;stroke-width:0;stroke-linecap:butt;stroke-linejoin:miter;stroke-miterlimit:10.43299961;stroke-dasharray:none;stroke-dashoffset:0;stroke-opacity:1" />
      <path
         id="path5064"
         d="m 216.06,166.68218 -1.39,0.11 0,0.31 c 0.65,0 0.74,0.06 0.74,0.54 l 0,2.68 c 0,0.44 -0.11,0.44 -0.78,0.44 l 0,0.31 c 0.32,-0.01 0.86,-0.03 1.1,-0.03 0.34,0 0.69,0.02 1.03,0.03 l 0,-0.31 c -0.66,0 -0.7,-0.05 -0.7,-0.43 z"
         inkscape:connector-curvature="0"
         style="font-style:normal;font-variant:normal;font-weight:normal;font-stretch:normal;letter-spacing:normal;word-spacing:normal;text-anchor:start;fill:#000000;fill-opacity:1;fill-rule:evenodd;stroke:#000000;stroke-width:0;stroke-linecap:butt;stroke-linejoin:miter;stroke-miterlimit:10.43299961;stroke-dasharray:none;stroke-dashoffset:0;stroke-opacity:1" />
      <path
         id="path5066"
         d="m 216.1,164.95218 0,-0.03 0,-0.03 0,-0.03 -0.01,-0.02 0,-0.03 -0.01,-0.03 -0.01,-0.02 -0.01,-0.03 -0.01,-0.02 -0.01,-0.02 -0.02,-0.02 -0.01,-0.03 -0.01,-0.02 -0.02,-0.02 -0.02,-0.01 -0.02,-0.02 -0.01,-0.02 -0.02,-0.01 -0.02,-0.02 -0.02,-0.01 -0.03,-0.02 -0.02,-0.01 -0.02,-0.01 -0.02,-0.01 -0.03,-0.01 -0.02,0 -0.03,-0.01 -0.02,-0.01 -0.03,0 -0.02,0 -0.03,-0.01 -0.02,0 c -0.31,0 -0.53,0.27 -0.53,0.53 0,0.27 0.22,0.53 0.53,0.53 0.27,0 0.52,-0.21 0.52,-0.53 z"
         inkscape:connector-curvature="0"
         style="font-style:normal;font-variant:normal;font-weight:normal;font-stretch:normal;letter-spacing:normal;word-spacing:normal;text-anchor:start;fill:#000000;fill-opacity:1;fill-rule:evenodd;stroke:#000000;stroke-width:0;stroke-linecap:butt;stroke-linejoin:miter;stroke-miterlimit:10.43299961;stroke-dasharray:none;stroke-dashoffset:0;stroke-opacity:1" />
      <path
         id="path5068"
         d="m 218.13,169.75218 0,-0.01 0,0 0,-0.01 0,0 0,-0.01 0,-0.01 0,-0.01 0,-0.01 0,-0.01 0,-0.02 0,-0.01 0,-0.01 0.01,-0.02 0,-0.01 0,-0.02 0.01,-0.01 0,-0.02 0.01,-0.02 0,-0.02 0.01,-0.01 0,-0.02 0.01,-0.02 0.01,-0.02 0.01,-0.02 0.01,-0.02 0.01,-0.01 0.01,-0.02 0.01,-0.02 0.01,-0.02 0.01,-0.02 0.02,-0.02 0.01,-0.02 c 0.39,0.28 0.8,0.31 0.99,0.31 l 0,-0.23 c -0.87,0 -0.87,-0.99 -0.87,-1.22 0,-0.27 0.01,-0.59 0.16,-0.83 0.08,-0.12 0.31,-0.4 0.71,-0.4 0.87,0 0.87,0.99 0.87,1.22 0,0.27 -0.02,0.59 -0.16,0.83 -0.08,0.12 -0.31,0.4 -0.71,0.4 l 0,0 0,0.23 c 0.93,0 1.61,-0.69 1.61,-1.45 0,-0.37 -0.16,-0.74 -0.41,-0.96 0.36,-0.34 0.72,-0.39 0.9,-0.39 0.02,0 0.07,0 0.1,0.01 -0.11,0.04 -0.16,0.15 -0.16,0.27 0,0.17 0.13,0.28 0.29,0.28 0.1,0 0.29,-0.07 0.29,-0.29 0,-0.17 -0.12,-0.49 -0.51,-0.49 -0.2,0 -0.64,0.06 -1.06,0.47 -0.41,-0.33 -0.83,-0.36 -1.05,-0.36 -0.93,0 -1.61,0.68 -1.61,1.45 0,0.44 0.22,0.81 0.46,1.02 -0.12,0.15 -0.3,0.48 -0.3,0.83 0,0.3 0.13,0.68 0.43,0.88 -0.59,0.17 -0.91,0.6 -0.91,0.99 0,0.72 0.98,1.27 2.2,1.27 l 0.01,-0.23 c -1.01,0 -1.69,-0.51 -1.69,-1.04 0,-0.45 0.37,-0.82 0.81,-0.85 l 0.59,0 c 0.86,0 1.97,0 1.97,0.85 0,0.54 -0.71,1.04 -1.68,1.04 l 0,0 -0.01,0.23 c 1.17,0 2.21,-0.51 2.21,-1.29 0,-0.34 -0.14,-0.85 -0.65,-1.13 -0.53,-0.28 -1.1,-0.28 -1.71,-0.28 -0.25,0 -0.68,0 -0.75,-0.01 -0.32,-0.03 -0.52,-0.34 -0.52,-0.66 z"
         inkscape:connector-curvature="0"
         style="font-style:normal;font-variant:normal;font-weight:normal;font-stretch:normal;letter-spacing:normal;word-spacing:normal;text-anchor:start;fill:#000000;fill-opacity:1;fill-rule:evenodd;stroke:#000000;stroke-width:0;stroke-linecap:butt;stroke-linejoin:miter;stroke-miterlimit:10.43299961;stroke-dasharray:none;stroke-dashoffset:0;stroke-opacity:1" />
      <path
         id="path5070"
         d="m 223.15,167.65218 0,2.67 c 0,0.44 -0.11,0.44 -0.78,0.44 l 0,0.31 c 0.35,-0.01 0.86,-0.03 1.12,-0.03 0.26,0 0.78,0.02 1.12,0.03 l 0,-0.31 c -0.67,0 -0.78,0 -0.78,-0.44 l 0,-1.83 c 0,-1.04 0.71,-1.59 1.35,-1.59 0.62,0 0.73,0.53 0.73,1.1 l 0,2.32 c 0,0.44 -0.11,0.44 -0.77,0.44 l 0,0.31 c 0.34,-0.01 0.85,-0.03 1.12,-0.03 0.26,0 0.78,0.02 1.12,0.03 l 0,-0.31 c -0.52,0 -0.77,0 -0.78,-0.3 l 0,-1.89 c 0,-0.86 0,-1.17 -0.31,-1.52 -0.14,-0.17 -0.47,-0.37 -1.04,-0.37 -0.73,0 -1.2,0.43 -1.48,1.04 l 0,-1.04 -1.4,0.11 0,0.31 c 0.7,0 0.78,0.07 0.78,0.55 z"
         inkscape:connector-curvature="0"
         style="font-style:normal;font-variant:normal;font-weight:normal;font-stretch:normal;letter-spacing:normal;word-spacing:normal;text-anchor:start;fill:#000000;fill-opacity:1;fill-rule:evenodd;stroke:#000000;stroke-width:0;stroke-linecap:butt;stroke-linejoin:miter;stroke-miterlimit:10.43299961;stroke-dasharray:none;stroke-dashoffset:0;stroke-opacity:1" />
      <path
         id="path5072"
         d="m 230.9,170.32218 0,0.03 0.01,0.04 0.01,0.04 0.01,0.03 0.01,0.04 0.01,0.04 0.01,0.03 0.01,0.04 0.02,0.04 0.01,0.03 0.02,0.03 0.02,0.04 0.02,0.03 0.02,0.03 0.02,0.03 0.03,0.03 0.02,0.03 0.03,0.03 0.03,0.02 0.03,0.03 0.03,0.02 0.03,0.02 0.03,0.02 0.03,0.02 0.04,0.01 0.03,0.02 0.04,0.01 0.04,0.01 0.04,0.01 0.04,0.01 0.04,0 0.05,0 c 0.2,0 0.81,-0.14 0.81,-0.94 l 0,-0.56 -0.25,0 0,0.56 c 0,0.57 -0.25,0.63 -0.36,0.63 -0.32,0 -0.36,-0.44 -0.36,-0.49 l 0,-1.99 c 0,-0.42 0,-0.81 -0.36,-1.17 -0.39,-0.39 -0.89,-0.55 -1.36,-0.55 -0.82,0 -1.51,0.47 -1.51,1.12 0,0.3 0.2,0.47 0.46,0.47 0.28,0 0.46,-0.2 0.46,-0.46 0,-0.12 -0.05,-0.44 -0.51,-0.46 0.27,-0.34 0.76,-0.45 1.08,-0.45 0.48,0 1.05,0.39 1.05,1.27 l 0,0.37 0,0.21 0,0.99 c 0,0.94 -0.72,1.28 -1.16,1.28 -0.49,0 -0.9,-0.35 -0.9,-0.84 0,-0.55 0.42,-1.37 2.06,-1.43 l 0,0 0,-0.21 c -0.51,0.03 -1.2,0.06 -1.83,0.35 -0.75,0.34 -0.99,0.86 -0.99,1.3 0,0.8 0.96,1.05 1.59,1.05 0.65,0 1.11,-0.4 1.3,-0.86 z"
         inkscape:connector-curvature="0"
         style="font-style:normal;font-variant:normal;font-weight:normal;font-stretch:normal;letter-spacing:normal;word-spacing:normal;text-anchor:start;fill:#000000;fill-opacity:1;fill-rule:evenodd;stroke:#000000;stroke-width:0;stroke-linecap:butt;stroke-linejoin:miter;stroke-miterlimit:10.43299961;stroke-dasharray:none;stroke-dashoffset:0;stroke-opacity:1" />
      <path
         id="path5074"
         d="m 234.33,164.18218 -1.43,0.1 0,0.31 c 0.69,0 0.77,0.07 0.77,0.56 l 0,5.17 c 0,0.44 -0.11,0.44 -0.77,0.44 l 0,0.31 c 0.33,-0.01 0.85,-0.03 1.1,-0.03 0.25,0 0.74,0.02 1.1,0.03 l 0,-0.31 c -0.66,0 -0.77,0 -0.77,-0.44 z"
         inkscape:connector-curvature="0"
         style="font-style:normal;font-variant:normal;font-weight:normal;font-stretch:normal;letter-spacing:normal;word-spacing:normal;text-anchor:start;fill:#000000;fill-opacity:1;fill-rule:evenodd;stroke:#000000;stroke-width:0;stroke-linecap:butt;stroke-linejoin:miter;stroke-miterlimit:10.43299961;stroke-dasharray:none;stroke-dashoffset:0;stroke-opacity:1" />
    </g>
    <g
       id="g5197-4"
       transform="translate(94.840001,-42.78)">
      <path
         id="path5008-2"
         d="m 140,152.36218 -5.46,0 0,0.31 0.24,0 c 0.76,0 0.79,0.11 0.79,0.47 l 0,5.2 c 0,0.36 -0.03,0.47 -0.79,0.47 l -0.24,0 0,0.3 c 0.35,-0.03 1.12,-0.03 1.51,-0.03 0.41,0 1.32,0 1.67,0.03 l 0,-0.3 -0.32,0 c -0.95,0 -0.95,-0.13 -0.95,-0.48 l 0,-2.44 0.86,0 c 0.95,0 1.05,0.31 1.05,1.16 l 0.25,0 0,-2.63 -0.25,0 c 0,0.83 -0.1,1.16 -1.05,1.16 l -0.86,0 0,-2.51 c 0,-0.33 0.02,-0.4 0.49,-0.4 l 1.19,0 c 1.49,0 1.74,0.55 1.9,1.92 l 0.25,0 z"
         inkscape:connector-curvature="0"
         style="font-style:normal;font-variant:normal;font-weight:normal;font-stretch:normal;letter-spacing:normal;word-spacing:normal;text-anchor:start;fill:#000000;fill-opacity:1;fill-rule:evenodd;stroke:#000000;stroke-width:0;stroke-linecap:butt;stroke-linejoin:miter;stroke-miterlimit:10.43299961;stroke-dasharray:none;stroke-dashoffset:0;stroke-opacity:1" />
      <path
         id="path5010-6"
         d="m 141.55,155.82218 0,-1.1 -1.38,0.11 0,0.31 c 0.69,0 0.77,0.07 0.77,0.56 l 0,2.66 c 0,0.45 -0.11,0.45 -0.77,0.45 l 0,0.3 c 0.38,-0.01 0.85,-0.03 1.13,-0.03 0.4,0 0.87,0 1.27,0.03 l 0,-0.3 -0.21,0 c -0.74,0 -0.76,-0.11 -0.76,-0.47 l 0,-1.53 c 0,-0.98 0.42,-1.87 1.17,-1.87 0.07,0 0.09,0 0.11,0.01 -0.03,0.01 -0.23,0.13 -0.23,0.39 0,0.28 0.21,0.43 0.43,0.43 0.18,0 0.43,-0.12 0.43,-0.44 0,-0.32 -0.31,-0.61 -0.74,-0.61 -0.72,0 -1.08,0.67 -1.22,1.1 z"
         inkscape:connector-curvature="0"
         style="font-style:normal;font-variant:normal;font-weight:normal;font-stretch:normal;letter-spacing:normal;word-spacing:normal;text-anchor:start;fill:#000000;fill-opacity:1;fill-rule:evenodd;stroke:#000000;stroke-width:0;stroke-linecap:butt;stroke-linejoin:miter;stroke-miterlimit:10.43299961;stroke-dasharray:none;stroke-dashoffset:0;stroke-opacity:1" />
      <path
         id="path5012-1"
         d="m 144.9,156.82218 0,-0.21 c 0.06,-1.48 0.9,-1.73 1.24,-1.73 1.02,0 1.12,1.34 1.12,1.73 l -2.36,0 0,0.21 2.77,0 c 0.22,0 0.25,0 0.25,-0.21 0,-0.98 -0.54,-1.95 -1.78,-1.95 -1.15,0 -2.07,1.03 -2.07,2.27 0,1.33 1.04,2.29 2.19,2.29 1.21,0 1.66,-1.1 1.66,-1.29 0,-0.1 -0.08,-0.12 -0.13,-0.12 -0.09,0 -0.11,0.06 -0.13,0.14 -0.35,1.03 -1.24,1.03 -1.34,1.03 -0.5,0 -0.9,-0.3 -1.13,-0.67 -0.29,-0.48 -0.29,-1.13 -0.29,-1.49 z"
         inkscape:connector-curvature="0"
         style="font-style:normal;font-variant:normal;font-weight:normal;font-stretch:normal;letter-spacing:normal;word-spacing:normal;text-anchor:start;fill:#000000;fill-opacity:1;fill-rule:evenodd;stroke:#000000;stroke-width:0;stroke-linecap:butt;stroke-linejoin:miter;stroke-miterlimit:10.43299961;stroke-dasharray:none;stroke-dashoffset:0;stroke-opacity:1" />
      <path
         id="path5014-6"
         d="m 152,158.51218 0,1.78 c 0,0.44 -0.11,0.44 -0.78,0.44 l 0,0.31 c 0.34,-0.01 0.86,-0.03 1.12,-0.03 0.27,0 0.77,0.02 1.12,0.03 l 0,-0.31 c -0.67,0 -0.77,0 -0.77,-0.44 l 0,-5.57 -0.22,0 -0.38,0.91 c -0.13,-0.28 -0.54,-0.91 -1.33,-0.91 -1.16,0 -2.2,0.97 -2.2,2.26 0,1.24 0.96,2.24 2.12,2.24 l 0.04,-0.21 c -0.73,0 -1.34,-0.89 -1.34,-2.03 0,-1.18 0.7,-2.01 1.44,-2.01 0.79,0 1.21,0.87 1.21,1.39 l 0,0 0,1.4 c 0,0.32 -0.18,0.6 -0.4,0.84 -0.13,0.14 -0.45,0.41 -0.91,0.41 l -0.04,0.21 c 0.69,0 1.1,-0.42 1.32,-0.71 z"
         inkscape:connector-curvature="0"
         style="font-style:normal;font-variant:normal;font-weight:normal;font-stretch:normal;letter-spacing:normal;word-spacing:normal;text-anchor:start;fill:#000000;fill-opacity:1;fill-rule:evenodd;stroke:#000000;stroke-width:0;stroke-linecap:butt;stroke-linejoin:miter;stroke-miterlimit:10.43299961;stroke-dasharray:none;stroke-dashoffset:0;stroke-opacity:1" />
      <path
         id="path5016-5"
         d="m 157.37,158.33218 0,0.89 1.43,-0.11 0,-0.3 c -0.7,0 -0.78,-0.07 -0.78,-0.56 l 0,-3.53 -1.46,0.11 0,0.31 c 0.7,0 0.78,0.07 0.78,0.56 l 0,1.77 c 0,0.86 -0.48,1.54 -1.21,1.54 -0.83,0 -0.87,-0.47 -0.87,-0.99 l 0,-3.3 -1.47,0.11 0,0.31 c 0.78,0 0.78,0.03 0.78,0.92 l 0,1.49 c 0,0.77 0,1.67 1.51,1.67 0.56,0 1,-0.27 1.29,-0.89 z"
         inkscape:connector-curvature="0"
         style="font-style:normal;font-variant:normal;font-weight:normal;font-stretch:normal;letter-spacing:normal;word-spacing:normal;text-anchor:start;fill:#000000;fill-opacity:1;fill-rule:evenodd;stroke:#000000;stroke-width:0;stroke-linecap:butt;stroke-linejoin:miter;stroke-miterlimit:10.43299961;stroke-dasharray:none;stroke-dashoffset:0;stroke-opacity:1" />
      <path
         id="path5018-9"
         d="m 160.12,156.82218 0.01,-0.21 c 0.06,-1.48 0.89,-1.73 1.23,-1.73 1.02,0 1.12,1.34 1.12,1.73 l -2.35,0 -0.01,0.21 2.77,0 c 0.22,0 0.25,0 0.25,-0.21 0,-0.98 -0.54,-1.95 -1.78,-1.95 -1.15,0 -2.07,1.03 -2.07,2.27 0,1.33 1.05,2.29 2.19,2.29 1.21,0 1.66,-1.1 1.66,-1.29 0,-0.1 -0.08,-0.12 -0.13,-0.12 -0.09,0 -0.11,0.06 -0.13,0.14 -0.35,1.03 -1.24,1.03 -1.34,1.03 -0.5,0 -0.9,-0.3 -1.13,-0.67 -0.29,-0.48 -0.29,-1.13 -0.29,-1.49 z"
         inkscape:connector-curvature="0"
         style="font-style:normal;font-variant:normal;font-weight:normal;font-stretch:normal;letter-spacing:normal;word-spacing:normal;text-anchor:start;fill:#000000;fill-opacity:1;fill-rule:evenodd;stroke:#000000;stroke-width:0;stroke-linecap:butt;stroke-linejoin:miter;stroke-miterlimit:10.43299961;stroke-dasharray:none;stroke-dashoffset:0;stroke-opacity:1" />
      <path
         id="path5020-9"
         d="m 164.53,155.70218 0,2.66 c 0,0.45 -0.11,0.45 -0.77,0.45 l 0,0.3 c 0.35,-0.01 0.85,-0.03 1.12,-0.03 0.26,0 0.78,0.02 1.12,0.03 l 0,-0.3 c -0.67,0 -0.78,0 -0.78,-0.45 l 0,-1.83 c 0,-1.03 0.71,-1.59 1.34,-1.59 0.63,0 0.74,0.54 0.74,1.1 l 0,2.32 c 0,0.45 -0.11,0.45 -0.78,0.45 l 0,0.3 c 0.35,-0.01 0.86,-0.03 1.13,-0.03 0.26,0 0.77,0.02 1.11,0.03 l 0,-0.3 c -0.52,0 -0.76,0 -0.77,-0.3 l 0,-1.9 c 0,-0.85 0,-1.16 -0.31,-1.52 -0.14,-0.17 -0.47,-0.37 -1.05,-0.37 -0.72,0 -1.19,0.43 -1.47,1.05 l 0,-1.05 -1.4,0.11 0,0.31 c 0.69,0 0.77,0.07 0.77,0.56 z"
         inkscape:connector-curvature="0"
         style="font-style:normal;font-variant:normal;font-weight:normal;font-stretch:normal;letter-spacing:normal;word-spacing:normal;text-anchor:start;fill:#000000;fill-opacity:1;fill-rule:evenodd;stroke:#000000;stroke-width:0;stroke-linecap:butt;stroke-linejoin:miter;stroke-miterlimit:10.43299961;stroke-dasharray:none;stroke-dashoffset:0;stroke-opacity:1" />
      <path
         id="path5022-1"
         d="m 170.14,156.95218 0,-0.08 0,-0.07 0,-0.07 0.01,-0.07 0,-0.07 0.01,-0.07 0.01,-0.06 0,-0.06 0.01,-0.06 0.01,-0.06 0.01,-0.06 0.02,-0.06 0.02,-0.11 0.03,-0.1 0.04,-0.1 0.03,-0.09 0.04,-0.09 0.04,-0.08 0.05,-0.07 0.04,-0.07 0.05,-0.07 0.05,-0.06 0.05,-0.05 0.06,-0.05 0.05,-0.05 0.05,-0.04 0.06,-0.04 0.06,-0.03 0.05,-0.03 0.06,-0.03 0.06,-0.02 0.05,-0.02 0.06,-0.01 0.05,-0.02 0.06,-0.01 0.05,0 0.05,-0.01 0.05,0 c 0.09,0 0.72,0.01 1.07,0.37 -0.41,0.03 -0.47,0.33 -0.47,0.46 0,0.26 0.18,0.45 0.46,0.45 0.25,0 0.45,-0.16 0.45,-0.46 0,-0.68 -0.75,-1.07 -1.52,-1.07 -1.24,0 -2.16,1.08 -2.16,2.31 0,1.27 0.99,2.25 2.14,2.25 1.34,0 1.65,-1.19 1.65,-1.29 0,-0.1 -0.1,-0.1 -0.13,-0.1 -0.09,0 -0.1,0.04 -0.12,0.1 -0.29,0.93 -0.94,1.05 -1.31,1.05 -0.53,0 -1.4,-0.43 -1.4,-2.03 z"
         inkscape:connector-curvature="0"
         style="font-style:normal;font-variant:normal;font-weight:normal;font-stretch:normal;letter-spacing:normal;word-spacing:normal;text-anchor:start;fill:#000000;fill-opacity:1;fill-rule:evenodd;stroke:#000000;stroke-width:0;stroke-linecap:butt;stroke-linejoin:miter;stroke-miterlimit:10.43299961;stroke-dasharray:none;stroke-dashoffset:0;stroke-opacity:1" />
      <path
         id="path5024-3"
         d="m 177.53,155.78218 0.01,-0.03 0.02,-0.03 0.01,-0.03 0.01,-0.02 0.02,-0.03 0.01,-0.02 0.01,-0.03 0.02,-0.02 0.03,-0.04 0.03,-0.04 0.03,-0.04 0.03,-0.04 0.03,-0.03 0.04,-0.03 0.03,-0.02 0.04,-0.03 0.03,-0.02 0.03,-0.02 0.04,-0.02 0.03,-0.02 0.03,-0.01 0.04,-0.01 0.03,-0.01 0.03,-0.01 0.03,-0.01 0.03,-0.01 0.03,0 0.03,-0.01 0.03,0 0.02,0 0.03,-0.01 0.02,0 0.02,0 0.02,0 0.02,0 0.02,0 0,-0.31 c -0.23,0.02 -0.52,0.03 -0.75,0.03 -0.18,0 -0.65,-0.02 -0.87,-0.03 l 0,0.31 c 0.31,0.01 0.47,0.18 0.47,0.43 0,0.1 -0.01,0.12 -0.06,0.24 l -1,2.44 -1.11,-2.67 c -0.04,-0.1 -0.06,-0.14 -0.06,-0.18 0,-0.26 0.37,-0.26 0.56,-0.26 l 0,-0.31 c -0.26,0.01 -0.91,0.03 -1.08,0.03 -0.27,0 -0.67,-0.01 -0.97,-0.03 l 0,0.31 c 0.48,0 0.67,0 0.81,0.35 l 1.49,3.62 c -0.05,0.13 -0.19,0.46 -0.25,0.59 -0.22,0.55 -0.5,1.23 -1.13,1.23 -0.05,0 -0.28,0 -0.47,-0.18 0.31,-0.04 0.39,-0.25 0.39,-0.41 0,-0.26 -0.19,-0.42 -0.42,-0.42 -0.2,0 -0.42,0.13 -0.42,0.43 0,0.44 0.42,0.8 0.92,0.8 0.62,0 1.03,-0.57 1.27,-1.13 z"
         inkscape:connector-curvature="0"
         style="font-style:normal;font-variant:normal;font-weight:normal;font-stretch:normal;letter-spacing:normal;word-spacing:normal;text-anchor:start;fill:#000000;fill-opacity:1;fill-rule:evenodd;stroke:#000000;stroke-width:0;stroke-linecap:butt;stroke-linejoin:miter;stroke-miterlimit:10.43299961;stroke-dasharray:none;stroke-dashoffset:0;stroke-opacity:1" />
    </g>
    <path
       style="fill:none;fill-rule:evenodd;stroke:#000000;stroke-width:1px;stroke-linecap:butt;stroke-linejoin:miter;stroke-opacity:1;marker-end:url(#marker4520-8-6)"
       d="m 215,97.362205 0,-40.000002"
       id="path4140-6-8"
       inkscape:connector-curvature="0" />
    <path
       style="fill:none;fill-rule:evenodd;stroke:#000000;stroke-width:1px;stroke-linecap:butt;stroke-linejoin:miter;stroke-opacity:1"
       d="m 115,97.362206 0,0 0,0"
       id="path5061"
       inkscape:connector-curvature="0" />
    <path
       style="fill:none;fill-rule:evenodd;stroke:#000000;stroke-width:1px;stroke-linecap:butt;stroke-linejoin:miter;stroke-opacity:1"
       d="m 115,96.362206 0,1"
       id="path5063"
       inkscape:connector-curvature="0" />
  </g>
</svg>
