

"p_33_mm":Mp1  N__18 N__9 top top Length=Lin Width=WoLin*Lin Mode=1 Noise=yes 
"n_33_mm":Mn1  mirr mirr 0 0 Length=Lout Width=WoLmirr*Lout Mode=1 Noise=yes 
"p_33_mm":Mp2  N__20 N__33 top top Length=Lin Width=WoLin*Lin Mode=1 Noise=yes 
"n_33_mm":Mn2  N__34 mirr 0 0 Length=Lout Width=WoLmirr*Lout Mode=1 Noise=yes 
"p_33_mm":Mp3  top N__32 N__4 N__4 Length=Lout Width=WoLtop*Lout Mode=1 Noise=yes 
V_Source:SRC1  N__4 0 Type="V_DC" Vdc=3.3 V SaveCurrent=1 
"n_33_mm":Mn3  N__10 N__21 0 0 Length=Lout Width=WoLout*Lout Mode=1 Noise=yes 
"p_33_mm":Mp4  N__10 N__11 N__36 N__36 Length=Lout Width=F*WoLout*Lout Mode=1 Noise=yes 
"p_33_mm":Mp5  N__32 N__32 N__4 N__4 Length=Lout Width=F*WoLout*Lout Mode=1 Noise=yes 
I_Source:SRC2  N__32 0 Type="I_DC" Idc=Iout 
C:C1  N__21 N__10 C=Cc 

Lin=2um
Lout=1um

GBW=20e6
Cl=10pF

Kp=40e-6
F=Kn/Kp
Kn=100e-6

Vovin=0.15
Vovout=0.2

f_nd=6*GBW
gmout=f_nd*Cl*2*pi
Iout=gmout*Vovout/2
WoLout=Iout/(Kn*Vovout*Vovout)

Cc=3pF

gmin=GBW*Cc*2*pi
Iin=gmin*Vovin/2
WoLin=Iin/(Kp*Vovin*Vovin)

WoLmirr=Iin/(Kn*Vovout*Vovout)
WoLtop=WoLmirr*F*2
C:C2  N__22 0 C=10 pF 
R:R1  amp out R=2000 Noise=yes 
R:R2  N__24 amp R=500 Ohm Noise=yes 
V_Source:SRC3  sgnd 0 Type="V_DC" Vdc=3.3/2 SaveCurrent=1 
Short:I_IN_p1p  sgnd N__33 Mode=0 SaveCurrent=yes 
Short:I_IN_p1m  amp N__9 Mode=0 SaveCurrent=yes 
Short:I_IN_p2p  N__17 N__18 Mode=0 SaveCurrent=yes 
Short:I_IN_p2m  N__23 N__20 Mode=0 SaveCurrent=yes 
Short:I_MIRR_p1p  N__17 N__16 Mode=0 SaveCurrent=yes 
Short:I_MIRR_p1m  N__23 N__34 Mode=0 SaveCurrent=yes 
Short:I_TOTAL_p2  N__22 out Mode=0 SaveCurrent=yes 
Short:I_TOTAL_p1  MS_node N__24 Mode=0 SaveCurrent=yes 
R:R4  mirr N__16 R=0 Ohm Noise=yes 
#define TT TT
#ifndef inc_Z__ADS_umc_mmrfcmos18_circuit_models_umc18config_net
#define inc_Z__ADS_umc_mmrfcmos18_circuit_models_umc18config_net inc_Z__ADS_umc_mmrfcmos18_circuit_models_umc18config_net
#include "Z:\ADS\umc_mmrfcmos18\circuit\models\umc18config.net"
#endif
#undef TT
"p_33_mm":Mp6  N__11 N__11 N__36 N__36 Length=Lout Width=F*WoLout*Lout Mode=1 Noise=yes 
I_Source:SRC4  N__11 0 Type="I_DC" Idc=Iout 
V_Source:SRC5  N__36 0 Type="V_DC" Vdc=3.3 V SaveCurrent=1 
Short:I_OUT_p1  N__23 N__21 Mode=0 SaveCurrent=yes 
Short:I_OUT_p2  out N__10 Mode=0 SaveCurrent=yes 
