<?xml version="1.0" encoding="UTF-8" standalone="no"?>
<!-- Created with Inkscape (http://www.inkscape.org/) -->

<svg
   xmlns:dc="http://purl.org/dc/elements/1.1/"
   xmlns:cc="http://creativecommons.org/ns#"
   xmlns:rdf="http://www.w3.org/1999/02/22-rdf-syntax-ns#"
   xmlns:svg="http://www.w3.org/2000/svg"
   xmlns="http://www.w3.org/2000/svg"
   xmlns:sodipodi="http://sodipodi.sourceforge.net/DTD/sodipodi-0.dtd"
   xmlns:inkscape="http://www.inkscape.org/namespaces/inkscape"
   width="665.68188"
   height="175.64372"
   id="svg39669"
   version="1.1"
   inkscape:version="0.48.2 r9819"
   sodipodi:docname="designflow.svg">
  <sodipodi:namedview
     id="base"
     pagecolor="#ffffff"
     bordercolor="#666666"
     borderopacity="1.0"
     inkscape:pageopacity="0.0"
     inkscape:pageshadow="2"
     inkscape:zoom="0.98994949"
     inkscape:cx="196.65798"
     inkscape:cy="-67.959542"
     inkscape:document-units="px"
     inkscape:current-layer="layer1"
     showgrid="false"
     showguides="true"
     inkscape:guide-bbox="true"
     fit-margin-top="0"
     fit-margin-left="0"
     fit-margin-right="0"
     fit-margin-bottom="0"
     inkscape:window-width="1680"
     inkscape:window-height="1028"
     inkscape:window-x="-8"
     inkscape:window-y="-8"
     inkscape:window-maximized="1">
    <sodipodi:guide
       id="guide40713"
       position="289.04255,174.81905"
       orientation="0,1" />
    <sodipodi:guide
       id="guide40715"
       position="140.52642,0.96515515"
       orientation="0,1" />
  </sodipodi:namedview>
  <defs
     id="defs39671">
    <marker
       inkscape:stockid="marker4851B"
       orient="auto"
       refY="0"
       refX="0"
       id="marker4851B"
       style="overflow:visible"
       inkscape:isstock="true">
      <path
         id="path4092"
         style="fill:#000000;fill-opacity:1;fill-rule:evenodd;stroke:#000000;stroke-width:0.625;stroke-linejoin:round;stroke-opacity:1"
         d="M 8.7185878,4.0337352 -2.2072895,0.01601326 8.7185884,-4.0017078 c -1.7454984,2.3720609 -1.7354408,5.6174519 -6e-7,8.035443 z"
         transform="scale(-0.6,-0.6)"
         inkscape:connector-curvature="0" />
    </marker>
    <marker
       inkscape:stockid="marker4851B"
       orient="auto"
       refY="0"
       refX="0"
       id="marker4851B-1"
       style="overflow:visible"
       inkscape:isstock="true">
      <path
         id="path4092-4"
         style="fill:#000000;fill-opacity:1;fill-rule:evenodd;stroke:#000000;stroke-width:0.625;stroke-linejoin:round;stroke-opacity:1"
         d="M 8.7185878,4.0337352 -2.2072895,0.01601326 8.7185884,-4.0017078 c -1.7454984,2.3720609 -1.7354408,5.6174519 -6e-7,8.035443 z"
         transform="scale(-0.6,-0.6)"
         inkscape:connector-curvature="0" />
    </marker>
    <marker
       inkscape:stockid="marker4851B"
       orient="auto"
       refY="0"
       refX="0"
       id="marker4851B-3"
       style="overflow:visible"
       inkscape:isstock="true">
      <path
         id="path4092-5"
         style="fill:#000000;fill-opacity:1;fill-rule:evenodd;stroke:#000000;stroke-width:0.625;stroke-linejoin:round;stroke-opacity:1"
         d="M 8.7185878,4.0337352 -2.2072895,0.01601326 8.7185884,-4.0017078 c -1.7454984,2.3720609 -1.7354408,5.6174519 -6e-7,8.035443 z"
         transform="scale(-0.6,-0.6)"
         inkscape:connector-curvature="0" />
    </marker>
    <marker
       inkscape:stockid="marker4851B"
       orient="auto"
       refY="0"
       refX="0"
       id="marker4851B-9"
       style="overflow:visible"
       inkscape:isstock="true">
      <path
         id="path4092-8"
         style="fill:#000000;fill-opacity:1;fill-rule:evenodd;stroke:#000000;stroke-width:0.625;stroke-linejoin:round;stroke-opacity:1"
         d="M 8.7185878,4.0337352 -2.2072895,0.01601326 8.7185884,-4.0017078 c -1.7454984,2.3720609 -1.7354408,5.6174519 -6e-7,8.035443 z"
         transform="scale(-0.6,-0.6)"
         inkscape:connector-curvature="0" />
    </marker>
    <marker
       inkscape:stockid="marker4851B"
       orient="auto"
       refY="0"
       refX="0"
       id="marker4851B-8"
       style="overflow:visible"
       inkscape:isstock="true">
      <path
         id="path4092-2"
         style="fill:#000000;fill-opacity:1;fill-rule:evenodd;stroke:#000000;stroke-width:0.625;stroke-linejoin:round;stroke-opacity:1"
         d="M 8.7185878,4.0337352 -2.2072895,0.01601326 8.7185884,-4.0017078 c -1.7454984,2.3720609 -1.7354408,5.6174519 -6e-7,8.035443 z"
         transform="scale(-0.6,-0.6)"
         inkscape:connector-curvature="0" />
    </marker>
    <marker
       inkscape:stockid="marker4851B"
       orient="auto"
       refY="0"
       refX="0"
       id="marker4851B-2"
       style="overflow:visible"
       inkscape:isstock="true">
      <path
         id="path4092-50"
         style="fill:#000000;fill-opacity:1;fill-rule:evenodd;stroke:#000000;stroke-width:0.625;stroke-linejoin:round;stroke-opacity:1"
         d="M 8.7185878,4.0337352 -2.2072895,0.01601326 8.7185884,-4.0017078 c -1.7454984,2.3720609 -1.7354408,5.6174519 -6e-7,8.035443 z"
         transform="scale(-0.6,-0.6)"
         inkscape:connector-curvature="0" />
    </marker>
    <marker
       inkscape:stockid="marker4851B"
       orient="auto"
       refY="0"
       refX="0"
       id="marker4851B-7"
       style="overflow:visible"
       inkscape:isstock="true">
      <path
         id="path4092-83"
         style="fill:#000000;fill-opacity:1;fill-rule:evenodd;stroke:#000000;stroke-width:0.625;stroke-linejoin:round;stroke-opacity:1"
         d="M 8.7185878,4.0337352 -2.2072895,0.01601326 8.7185884,-4.0017078 c -1.7454984,2.3720609 -1.7354408,5.6174519 -6e-7,8.035443 z"
         transform="scale(-0.6,-0.6)"
         inkscape:connector-curvature="0" />
    </marker>
    <marker
       inkscape:stockid="marker4851B"
       orient="auto"
       refY="0"
       refX="0"
       id="marker4851B-12"
       style="overflow:visible"
       inkscape:isstock="true">
      <path
         id="path4092-0"
         style="fill:#000000;fill-opacity:1;fill-rule:evenodd;stroke:#000000;stroke-width:0.625;stroke-linejoin:round;stroke-opacity:1"
         d="M 8.7185878,4.0337352 -2.2072895,0.01601326 8.7185884,-4.0017078 c -1.7454984,2.3720609 -1.7354408,5.6174519 -6e-7,8.035443 z"
         transform="scale(-0.6,-0.6)"
         inkscape:connector-curvature="0" />
    </marker>
    <marker
       inkscape:stockid="marker4851B"
       orient="auto"
       refY="0"
       refX="0"
       id="marker4851B-6"
       style="overflow:visible"
       inkscape:isstock="true">
      <path
         id="path4092-40"
         style="fill:#000000;fill-opacity:1;fill-rule:evenodd;stroke:#000000;stroke-width:0.625;stroke-linejoin:round;stroke-opacity:1"
         d="M 8.7185878,4.0337352 -2.2072895,0.01601326 8.7185884,-4.0017078 c -1.7454984,2.3720609 -1.7354408,5.6174519 -6e-7,8.035443 z"
         transform="scale(-0.6,-0.6)"
         inkscape:connector-curvature="0" />
    </marker>
    <marker
       inkscape:stockid="marker4851B"
       orient="auto"
       refY="0"
       refX="0"
       id="marker4851B-17"
       style="overflow:visible"
       inkscape:isstock="true">
      <path
         id="path4092-409"
         style="fill:#000000;fill-opacity:1;fill-rule:evenodd;stroke:#000000;stroke-width:0.625;stroke-linejoin:round;stroke-opacity:1"
         d="M 8.7185878,4.0337352 -2.2072895,0.01601326 8.7185884,-4.0017078 c -1.7454984,2.3720609 -1.7354408,5.6174519 -6e-7,8.035443 z"
         transform="scale(-0.6,-0.6)"
         inkscape:connector-curvature="0" />
    </marker>
    <marker
       inkscape:stockid="marker4851Br"
       orient="auto"
       refY="0"
       refX="0"
       id="marker4851Br"
       style="overflow:visible"
       inkscape:isstock="true">
      <path
         id="path3943"
         style="stroke-linejoin:round;stroke-opacity:1;fill-rule:evenodd;fill-opacity:1;stroke:#0000ff;stroke-width:0.625;fill:#0000ff"
         d="M 8.7185878,4.0337352 -2.2072895,0.01601326 8.7185884,-4.0017078 c -1.7454984,2.3720609 -1.7354408,5.6174519 -6e-7,8.035443 z"
         transform="scale(-0.6,-0.6)"
         inkscape:connector-curvature="0" />
    </marker>
  </defs>
  <metadata
     id="metadata39674">
    <rdf:RDF>
      <cc:Work
         rdf:about="">
        <dc:format>image/svg+xml</dc:format>
        <dc:type
           rdf:resource="http://purl.org/dc/dcmitype/StillImage" />
        <dc:title />
      </cc:Work>
    </rdf:RDF>
  </metadata>
  <g
     transform="translate(-182.50929,-287.86218)"
     id="layer1"
     inkscape:groupmode="layer"
     inkscape:label="Layer 1">
    <path
       inkscape:connector-curvature="0"
       sodipodi:nodetypes="cc"
       id="path8288-4-5-5"
       d="m 329.67413,348.73384 0,23.52904"
       style="fill:none;stroke:#000000;stroke-width:1.5;stroke-linecap:round;stroke-linejoin:round;stroke-miterlimit:4;stroke-opacity:1;stroke-dasharray:none;marker-start:none;marker-mid:none;marker-end:url(#marker4851B)" />
    <text
       sodipodi:linespacing="125%"
       id="text39741"
       y="315.7045"
       x="181.88039"
       style="font-size:10px;font-style:normal;font-variant:normal;font-weight:normal;font-stretch:normal;line-height:125%;letter-spacing:0px;word-spacing:0px;fill:#000000;fill-opacity:1;stroke:none;font-family:Arial;-inkscape-font-specification:Arial"
       xml:space="preserve"><tspan
         style="font-size:14px"
         y="315.7045"
         x="181.88039"
         id="tspan39743"
         sodipodi:role="line">Specifications</tspan></text>
    <text
       sodipodi:linespacing="125%"
       id="text39745"
       y="324.75232"
       x="308.01239"
       style="font-size:14px;font-style:normal;font-variant:normal;font-weight:normal;font-stretch:normal;line-height:125%;letter-spacing:0px;word-spacing:0px;fill:#000000;fill-opacity:1;stroke:none;font-family:Arial;-inkscape-font-specification:Arial"
       xml:space="preserve"><tspan
         y="324.75232"
         x="308.01239"
         id="tspan39747"
         sodipodi:role="line">Design</tspan></text>
    <text
       sodipodi:linespacing="125%"
       id="text39749"
       y="405.35391"
       x="296.84503"
       style="font-size:14px;font-style:normal;font-variant:normal;font-weight:normal;font-stretch:normal;line-height:125%;letter-spacing:0px;word-spacing:0px;fill:#000000;fill-opacity:1;stroke:none;font-family:Arial;-inkscape-font-specification:Arial"
       xml:space="preserve"><tspan
         y="405.35391"
         x="296.84503"
         id="tspan39751"
         sodipodi:role="line">Simulation</tspan></text>
    <text
       sodipodi:linespacing="100%"
       id="text39753"
       y="397.85532"
       x="431.97879"
       style="font-size:14px;font-style:normal;font-variant:normal;font-weight:normal;font-stretch:normal;text-align:center;line-height:100%;letter-spacing:0px;word-spacing:0px;text-anchor:middle;fill:#000000;fill-opacity:1;stroke:none;font-family:Arial;-inkscape-font-specification:Arial"
       xml:space="preserve"><tspan
         y="397.85532"
         x="433.9202"
         id="tspan39755"
         sodipodi:role="line">Specs </tspan><tspan
         id="tspan40723"
         y="411.85532"
         x="431.97879"
         sodipodi:role="line">met?</tspan></text>
    <text
       sodipodi:linespacing="100%"
       id="text39757"
       y="398.24075"
       x="548.28278"
       style="font-size:14px;font-style:normal;font-variant:normal;font-weight:normal;font-stretch:normal;text-align:center;line-height:100%;letter-spacing:0px;word-spacing:0px;text-anchor:middle;fill:#000000;fill-opacity:1;stroke:none;font-family:Arial;-inkscape-font-specification:Arial"
       xml:space="preserve"><tspan
         y="398.24075"
         x="550.22418"
         id="tspan39759"
         sodipodi:role="line">Build </tspan><tspan
         id="tspan40727"
         y="412.24075"
         x="548.28278"
         sodipodi:role="line">prototype</tspan></text>
    <text
       sodipodi:linespacing="100%"
       id="text39761"
       y="397.71918"
       x="653.50452"
       style="font-size:14px;font-style:normal;font-variant:normal;font-weight:normal;font-stretch:normal;text-align:center;line-height:100%;letter-spacing:0px;word-spacing:0px;text-anchor:middle;fill:#000000;fill-opacity:1;stroke:none;font-family:Arial;-inkscape-font-specification:Arial"
       xml:space="preserve"><tspan
         y="397.71918"
         x="655.44592"
         id="tspan39763"
         sodipodi:role="line">Measure </tspan><tspan
         id="tspan40721"
         y="411.71918"
         x="653.50452"
         sodipodi:role="line">circuit</tspan></text>
    <g
       id="g15943-43-1-8-3-7-2-6"
       transform="matrix(-1.4756483,0,0,1.4756483,617.26567,-303.73291)"
       style="fill:none;stroke:#000000;stroke-width:1.01650238;stroke-miterlimit:4;stroke-opacity:1;stroke-dasharray:none">
      <g
         id="g10765-1-8-5-4-8-4-0"
         style="fill:none;stroke:#000000;stroke-width:1.01650238;stroke-miterlimit:4;stroke-opacity:1;stroke-dasharray:none">
        <path
           style="fill:none;stroke:#000000;stroke-width:1.01650238;stroke-linecap:round;stroke-linejoin:round;stroke-miterlimit:4;stroke-opacity:1;stroke-dasharray:none"
           d="m 168.30709,405.70864 53.1496,0 0,35.43307 -53.1496,0 0,-35.43307"
           id="path7685-2-1-7-1-8-5-1"
           inkscape:connector-curvature="0" />
        <path
           style="fill:none;stroke:#000000;stroke-width:1.01650238;stroke-linecap:butt;stroke-linejoin:miter;stroke-miterlimit:4;stroke-opacity:1;stroke-dasharray:none"
           d="m 177.16535,423.42518 0,0"
           id="path7687-3-0-6-1-2-5-6"
           sodipodi:nodetypes="cc"
           inkscape:connector-curvature="0" />
      </g>
    </g>
    <g
       id="g15943-43-1-8-3-7-2-5"
       transform="matrix(-1.4756483,0,0,1.4756483,617.26567,-224.56705)"
       style="fill:none;stroke:#000000;stroke-width:1.01650238;stroke-miterlimit:4;stroke-opacity:1;stroke-dasharray:none">
      <g
         id="g10765-1-8-5-4-8-4-7"
         style="fill:none;stroke:#000000;stroke-width:1.01650238;stroke-miterlimit:4;stroke-opacity:1;stroke-dasharray:none">
        <path
           style="fill:none;stroke:#000000;stroke-width:1.01650238;stroke-linecap:round;stroke-linejoin:round;stroke-miterlimit:4;stroke-opacity:1;stroke-dasharray:none"
           d="m 168.30709,405.70864 53.1496,0 0,35.43307 -53.1496,0 0,-35.43307"
           id="path7685-2-1-7-1-8-5-5"
           inkscape:connector-curvature="0" />
        <path
           style="fill:none;stroke:#000000;stroke-width:1.01650238;stroke-linecap:butt;stroke-linejoin:miter;stroke-miterlimit:4;stroke-opacity:1;stroke-dasharray:none"
           d="m 177.16535,423.42518 0,0"
           id="path7687-3-0-6-1-2-5-4"
           sodipodi:nodetypes="cc"
           inkscape:connector-curvature="0" />
      </g>
    </g>
    <g
       id="g15943-43-1-8-3-7-2-5-1"
       transform="matrix(-1.0440679,-1.0428136,-1.0428136,1.0440679,1086.3163,170.59134)"
       style="fill:none;stroke:#000000;stroke-width:1.01650238;stroke-miterlimit:4;stroke-opacity:1;stroke-dasharray:none">
      <g
         id="g10765-1-8-5-4-8-4-7-2"
         style="fill:none;stroke:#000000;stroke-width:1.01650238;stroke-miterlimit:4;stroke-opacity:1;stroke-dasharray:none">
        <path
           sodipodi:nodetypes="ccccc"
           style="fill:none;stroke:#000000;stroke-width:1.01650238;stroke-linecap:round;stroke-linejoin:round;stroke-miterlimit:4;stroke-opacity:1;stroke-dasharray:none"
           d="m 185.93421,405.70864 35.52248,0 0,35.43307 -35.52248,0 0.17114,-35.43307"
           id="path7685-2-1-7-1-8-5-5-0"
           inkscape:connector-curvature="0" />
        <path
           style="fill:none;stroke:#000000;stroke-width:1.01650238;stroke-linecap:butt;stroke-linejoin:miter;stroke-miterlimit:4;stroke-opacity:1;stroke-dasharray:none"
           d="m 177.16535,423.42518 0,0"
           id="path7687-3-0-6-1-2-5-4-0"
           sodipodi:nodetypes="cc"
           inkscape:connector-curvature="0" />
      </g>
    </g>
    <path
       inkscape:connector-curvature="0"
       sodipodi:nodetypes="cc"
       id="path8288-4-5-5-6"
       d="m 369.9579,400.274 23.52904,0"
       style="fill:none;stroke:#000000;stroke-width:1.5;stroke-linecap:round;stroke-linejoin:round;stroke-miterlimit:4;stroke-opacity:1;stroke-dasharray:none;marker-start:none;marker-mid:none;marker-end:url(#marker4851B)" />
    <g
       id="g15943-43-1-8-3-7-2-5-0"
       transform="matrix(-1.4756483,0,0,1.4756483,835.39144,-224.56705)"
       style="fill:none;stroke:#000000;stroke-width:1.01650238;stroke-miterlimit:4;stroke-opacity:1;stroke-dasharray:none">
      <g
         id="g10765-1-8-5-4-8-4-7-7"
         style="fill:none;stroke:#000000;stroke-width:1.01650238;stroke-miterlimit:4;stroke-opacity:1;stroke-dasharray:none">
        <path
           style="fill:none;stroke:#000000;stroke-width:1.01650238;stroke-linecap:round;stroke-linejoin:round;stroke-miterlimit:4;stroke-opacity:1;stroke-dasharray:none"
           d="m 168.30709,405.70864 53.1496,0 0,35.43307 -53.1496,0 0,-35.43307"
           id="path7685-2-1-7-1-8-5-5-1"
           inkscape:connector-curvature="0" />
        <path
           style="fill:none;stroke:#000000;stroke-width:1.01650238;stroke-linecap:butt;stroke-linejoin:miter;stroke-miterlimit:4;stroke-opacity:1;stroke-dasharray:none"
           d="m 177.16535,423.42518 0,0"
           id="path7687-3-0-6-1-2-5-4-7"
           sodipodi:nodetypes="cc"
           inkscape:connector-curvature="0" />
      </g>
    </g>
    <g
       id="g15943-43-1-8-3-7-2-5-0-7"
       transform="matrix(-1.4756483,0,0,1.4756483,940.77998,-224.56705)"
       style="fill:none;stroke:#000000;stroke-width:1.01650238;stroke-miterlimit:4;stroke-opacity:1;stroke-dasharray:none">
      <g
         id="g10765-1-8-5-4-8-4-7-7-7"
         style="fill:none;stroke:#000000;stroke-width:1.01650238;stroke-miterlimit:4;stroke-opacity:1;stroke-dasharray:none">
        <path
           style="fill:none;stroke:#000000;stroke-width:1.01650238;stroke-linecap:round;stroke-linejoin:round;stroke-miterlimit:4;stroke-opacity:1;stroke-dasharray:none"
           d="m 168.30709,405.70864 53.1496,0 0,35.43307 -53.1496,0 0,-35.43307"
           id="path7685-2-1-7-1-8-5-5-1-7"
           inkscape:connector-curvature="0" />
        <path
           style="fill:none;stroke:#000000;stroke-width:1.01650238;stroke-linecap:butt;stroke-linejoin:miter;stroke-miterlimit:4;stroke-opacity:1;stroke-dasharray:none"
           d="m 177.16535,423.42518 0,0"
           id="path7687-3-0-6-1-2-5-4-7-3"
           sodipodi:nodetypes="cc"
           inkscape:connector-curvature="0" />
      </g>
    </g>
    <path
       inkscape:connector-curvature="0"
       sodipodi:nodetypes="cc"
       id="path8288-4-5-5-6-9"
       d="m 469.2417,400.274 36.87725,0"
       style="fill:none;stroke:#000000;stroke-width:1.5;stroke-linecap:round;stroke-linejoin:round;stroke-miterlimit:4;stroke-opacity:1;stroke-dasharray:none;marker-start:none;marker-mid:none;marker-end:url(#marker4851B)" />
    <path
       inkscape:connector-curvature="0"
       sodipodi:nodetypes="cc"
       id="path8288-4-5-5-6-9-1"
       d="m 588.29664,400.274 23.52904,0"
       style="fill:none;stroke:#000000;stroke-width:1.5;stroke-linecap:round;stroke-linejoin:round;stroke-miterlimit:4;stroke-opacity:1;stroke-dasharray:none;marker-start:none;marker-mid:none;marker-end:url(#marker4851B)" />
    <path
       inkscape:connector-curvature="0"
       sodipodi:nodetypes="cc"
       id="path8288-4-5-5-6-9-1-6"
       d="m 692.79093,400.274 23.52904,0"
       style="fill:none;stroke:#000000;stroke-width:1.5;stroke-linecap:round;stroke-linejoin:round;stroke-miterlimit:4;stroke-opacity:1;stroke-dasharray:none;marker-start:none;marker-mid:none;marker-end:url(#marker4851B)" />
    <text
       sodipodi:linespacing="100%"
       id="text39753-6"
       y="397.35022"
       x="755.48206"
       style="font-size:14px;font-style:normal;font-variant:normal;font-weight:normal;font-stretch:normal;text-align:center;line-height:100%;letter-spacing:0px;word-spacing:0px;text-anchor:middle;fill:#000000;fill-opacity:1;stroke:none;font-family:Arial;-inkscape-font-specification:Arial"
       xml:space="preserve"><tspan
         y="397.35022"
         x="757.42346"
         id="tspan39755-0"
         sodipodi:role="line">Specs </tspan><tspan
         id="tspan40725"
         y="411.35022"
         x="755.48206"
         sodipodi:role="line">met?</tspan></text>
    <g
       id="g15943-43-1-8-3-7-2-5-1-3"
       transform="matrix(-1.0440679,-1.0428136,-1.0428136,1.0440679,1408.8093,170.59134)"
       style="fill:none;stroke:#000000;stroke-width:1.01650238;stroke-miterlimit:4;stroke-opacity:1;stroke-dasharray:none">
      <g
         id="g10765-1-8-5-4-8-4-7-2-8"
         style="fill:none;stroke:#000000;stroke-width:1.01650238;stroke-miterlimit:4;stroke-opacity:1;stroke-dasharray:none">
        <path
           sodipodi:nodetypes="ccccc"
           style="fill:none;stroke:#000000;stroke-width:1.01650238;stroke-linecap:round;stroke-linejoin:round;stroke-miterlimit:4;stroke-opacity:1;stroke-dasharray:none"
           d="m 185.93421,405.70864 35.52248,0 0,35.43307 -35.52248,0 0.17114,-35.43307"
           id="path7685-2-1-7-1-8-5-5-0-0"
           inkscape:connector-curvature="0" />
        <path
           style="fill:none;stroke:#000000;stroke-width:1.01650238;stroke-linecap:butt;stroke-linejoin:miter;stroke-miterlimit:4;stroke-opacity:1;stroke-dasharray:none"
           d="m 177.16535,423.42518 0,0"
           id="path7687-3-0-6-1-2-5-4-0-1"
           sodipodi:nodetypes="cc"
           inkscape:connector-curvature="0" />
      </g>
    </g>
    <path
       inkscape:connector-curvature="0"
       sodipodi:nodetypes="cc"
       id="path8288-4-5-5-6-9-1-6-9"
       d="m 791.29286,400.274 23.52904,0"
       style="fill:none;stroke:#000000;stroke-width:1.5;stroke-linecap:round;stroke-linejoin:round;stroke-miterlimit:4;stroke-opacity:1;stroke-dasharray:none;marker-start:none;marker-mid:none;marker-end:url(#marker4851B)" />
    <path
       inkscape:connector-curvature="0"
       sodipodi:nodetypes="cc"
       id="path8288-4-5-5-5"
       d="m 264.27069,321.10814 23.52904,0"
       style="fill:none;stroke:#000000;stroke-width:1.5;stroke-linecap:round;stroke-linejoin:round;stroke-miterlimit:4;stroke-opacity:1;stroke-dasharray:none;marker-start:none;marker-mid:none;marker-end:url(#marker4851B)" />
    <path
       inkscape:connector-curvature="0"
       sodipodi:nodetypes="cc"
       id="path8288-4-5-5-5-6"
       d="m 754.54103,321.07932 -383.95181,0"
       style="fill:none;stroke:#000000;stroke-width:1.5;stroke-linecap:round;stroke-linejoin:round;stroke-miterlimit:4;stroke-opacity:1;stroke-dasharray:none;marker-start:none;marker-mid:none;marker-end:url(#marker4851B)" />
    <path
       sodipodi:nodetypes="cc"
       inkscape:connector-curvature="0"
       id="path40135"
       d="m 432.00326,363.96932 0,-42.5"
       style="fill:none;stroke:#000000;stroke-width:1.5;stroke-linecap:butt;stroke-linejoin:miter;stroke-miterlimit:4;stroke-opacity:1;stroke-dasharray:none" />
    <path
       sodipodi:nodetypes="cc"
       inkscape:connector-curvature="0"
       id="path40137"
       d="m 754.33141,363.43814 0,-41.96882"
       style="fill:none;stroke:#000000;stroke-width:1.5;stroke-linecap:butt;stroke-linejoin:miter;stroke-miterlimit:4;stroke-opacity:1;stroke-dasharray:none" />
    <rect
       y="288.61218"
       x="274.68185"
       height="174.14372"
       width="202.14285"
       id="rect40701"
       style="fill:none;stroke:#006400;stroke-width:1.5;stroke-linecap:round;stroke-linejoin:round;stroke-miterlimit:4;stroke-opacity:1;stroke-dasharray:none" />
    <rect
       y="288.68686"
       x="492.92892"
       height="173.8539"
       width="303.75003"
       id="rect40703"
       style="fill:none;stroke:#ff0000;stroke-width:1.5;stroke-linecap:round;stroke-linejoin:round;stroke-miterlimit:4;stroke-opacity:1;stroke-dasharray:none" />
    <text
       sodipodi:linespacing="125%"
       id="text40705"
       y="456.11218"
       x="297.14285"
       style="font-size:10px;font-style:normal;font-variant:normal;font-weight:normal;font-stretch:normal;line-height:125%;letter-spacing:0px;word-spacing:0px;fill:#000000;fill-opacity:1;stroke:none;font-family:Arial;-inkscape-font-specification:Arial"
       xml:space="preserve"><tspan
         style="font-size:14px;fill:#006400;fill-opacity:1"
         y="456.11218"
         x="297.14285"
         id="tspan40707"
         sodipodi:role="line">Software: fast and cheap</tspan></text>
    <text
       sodipodi:linespacing="125%"
       id="text40709"
       y="457.48999"
       x="542.85712"
       style="font-size:10px;font-style:normal;font-variant:normal;font-weight:normal;font-stretch:normal;line-height:125%;letter-spacing:0px;word-spacing:0px;fill:#000000;fill-opacity:1;stroke:none;font-family:Arial;-inkscape-font-specification:Arial"
       xml:space="preserve"><tspan
         style="font-size:14px;fill:#ff0000;fill-opacity:1"
         y="457.48999"
         x="542.85712"
         id="tspan40711"
         sodipodi:role="line">Hardware: limited and expensive</tspan></text>
    <text
       sodipodi:linespacing="125%"
       id="text40717"
       y="393.39081"
       x="808.58374"
       style="font-size:10px;font-style:normal;font-variant:normal;font-weight:normal;font-stretch:normal;line-height:125%;letter-spacing:0px;word-spacing:0px;fill:#000000;fill-opacity:1;stroke:none;font-family:Times New Roman;-inkscape-font-specification:Times New Roman"
       xml:space="preserve"><tspan
         style="font-size:14px;font-style:normal;font-variant:normal;font-weight:normal;font-stretch:normal;font-family:Arial;-inkscape-font-specification:Arial"
         y="393.39081"
         x="808.58374"
         id="tspan40719"
         sodipodi:role="line">Circuit</tspan></text>
    <path
       inkscape:connector-curvature="0"
       sodipodi:nodetypes="cc"
       id="path8288-4-5-5-5-4"
       d="m 486.92123,366.04059 -2.48239,27.27412"
       style="stroke-linejoin:round;marker-end:url(#marker4851Br);stroke-opacity:1;marker-start:none;stroke:#0000ff;stroke-linecap:round;stroke-miterlimit:4;stroke-dasharray:none;stroke-width:3;marker-mid:none;fill:none" />
    <rect
       y="342.16132"
       x="479.49414"
       height="22.728432"
       width="40.279835"
       id="rect3918"
       style="fill:#ffffff;fill-opacity:1;stroke:none" />
    <text
       sodipodi:linespacing="125%"
       id="text3086"
       y="361.4805"
       x="478.98907"
       style="font-size:10px;font-style:normal;font-variant:normal;font-weight:normal;font-stretch:normal;line-height:125%;letter-spacing:0px;word-spacing:0px;fill:#000000;fill-opacity:1;stroke:none;font-family:Arial;-inkscape-font-specification:Arial"
       xml:space="preserve"><tspan
         style="font-size:24px;font-weight:bold;-inkscape-font-specification:Arial Bold;fill:#0000ff;fill-opacity:1"
         y="361.4805"
         x="478.98907"
         id="tspan3088"
         sodipodi:role="line">$$$</tspan></text>
  </g>
</svg>
