<?xml version="1.0" encoding="UTF-8" standalone="no"?>
<!-- Created with Inkscape (http://www.inkscape.org/) -->

<svg
   xmlns:ns0="http://www.iki.fi/pav/software/textext/"
   xmlns:dc="http://purl.org/dc/elements/1.1/"
   xmlns:cc="http://creativecommons.org/ns#"
   xmlns:rdf="http://www.w3.org/1999/02/22-rdf-syntax-ns#"
   xmlns:svg="http://www.w3.org/2000/svg"
   xmlns="http://www.w3.org/2000/svg"
   xmlns:sodipodi="http://sodipodi.sourceforge.net/DTD/sodipodi-0.dtd"
   xmlns:inkscape="http://www.inkscape.org/namespaces/inkscape"
   width="375.48788"
   height="173.11638"
   viewBox="0 0 375.48783 173.11637"
   id="svg2"
   version="1.1"
   inkscape:version="0.48.2 r9819"
   sodipodi:docname="HDplot.svg">
  <sodipodi:namedview
     id="base"
     pagecolor="#ffffff"
     bordercolor="#666666"
     borderopacity="1.0"
     inkscape:pageopacity="0.0"
     inkscape:pageshadow="2"
     inkscape:zoom="2.8"
     inkscape:cx="161.24962"
     inkscape:cy="49.350439"
     inkscape:document-units="px"
     inkscape:current-layer="layer1"
     showgrid="true"
     inkscape:snap-bbox="true"
     inkscape:object-nodes="true"
     inkscape:window-width="1680"
     inkscape:window-height="1028"
     inkscape:window-x="-8"
     inkscape:window-y="-8"
     inkscape:window-maximized="1"
     fit-margin-top="0"
     fit-margin-left="0"
     fit-margin-right="0"
     fit-margin-bottom="0"
     showguides="true"
     inkscape:guide-bbox="true">
    <inkscape:grid
       snapvisiblegridlinesonly="true"
       enabled="true"
       visible="true"
       empspacing="5"
       type="xygrid"
       id="grid4138"
       originx="-137.39226"
       originy="-913.27497" />
  </sodipodi:namedview>
  <defs
     id="defs4">
    <marker
       inkscape:stockid="Arrow2Sstart"
       orient="auto"
       refY="0"
       refX="0"
       id="Arrow2Sstart"
       style="overflow:visible"
       inkscape:isstock="true">
      <path
         inkscape:connector-curvature="0"
         id="path4532"
         style="fill:#000000;fill-opacity:1;fill-rule:evenodd;stroke:#000000;stroke-width:0.625;stroke-linejoin:round;stroke-opacity:1"
         d="M 8.7185878,4.0337352 -2.2072895,0.01601326 8.7185884,-4.0017078 c -1.7454984,2.3720609 -1.7354408,5.6174519 -6e-7,8.035443 z"
         transform="matrix(0.3,0,0,0.3,-0.69,0)" />
    </marker>
    <marker
       inkscape:stockid="Arrow1Send"
       orient="auto"
       refY="0"
       refX="0"
       id="Arrow1Send"
       style="overflow:visible"
       inkscape:isstock="true">
      <path
         inkscape:connector-curvature="0"
         id="path4517"
         d="M 0,0 5,-5 -12.5,0 5,5 0,0 z"
         style="fill:#000000;fill-opacity:1;fill-rule:evenodd;stroke:#000000;stroke-width:1pt;stroke-opacity:1"
         transform="matrix(-0.2,0,0,-0.2,-1.2,0)" />
    </marker>
    <marker
       inkscape:isstock="true"
       style="overflow:visible"
       id="Arrow2Mstart"
       refX="0"
       refY="0"
       orient="auto"
       inkscape:stockid="Arrow2Mstart">
      <path
         inkscape:connector-curvature="0"
         transform="scale(0.6,0.6)"
         d="M 8.7185878,4.0337352 -2.2072895,0.01601326 8.7185884,-4.0017078 c -1.7454984,2.3720609 -1.7354408,5.6174519 -6e-7,8.035443 z"
         style="fill:#000000;fill-opacity:1;fill-rule:evenodd;stroke:#000000;stroke-width:0.625;stroke-linejoin:round;stroke-opacity:1"
         id="path5631" />
    </marker>
    <marker
       inkscape:isstock="true"
       style="overflow:visible"
       id="marker4705"
       refX="0"
       refY="0"
       orient="auto"
       inkscape:stockid="Arrow2Mend">
      <path
         transform="scale(-0.6,-0.6)"
         d="M 8.7185878,4.0337352 -2.2072895,0.01601326 8.7185884,-4.0017078 c -1.7454984,2.3720609 -1.7354408,5.6174519 -6e-7,8.035443 z"
         style="fill:#000000;fill-opacity:1;fill-rule:evenodd;stroke:#000000;stroke-width:0.625;stroke-linejoin:round;stroke-opacity:1"
         id="path4707"
         inkscape:connector-curvature="0" />
    </marker>
    <marker
       inkscape:stockid="Arrow2Mend"
       orient="auto"
       refY="0"
       refX="0"
       id="marker4566"
       style="overflow:visible"
       inkscape:isstock="true">
      <path
         id="path4568"
         style="fill:#000000;fill-opacity:1;fill-rule:evenodd;stroke:#000000;stroke-width:0.625;stroke-linejoin:round;stroke-opacity:1"
         d="M 8.7185878,4.0337352 -2.2072895,0.01601326 8.7185884,-4.0017078 c -1.7454984,2.3720609 -1.7354408,5.6174519 -6e-7,8.035443 z"
         transform="scale(-0.6,-0.6)"
         inkscape:connector-curvature="0" />
    </marker>
    <marker
       inkscape:isstock="true"
       style="overflow:visible"
       id="marker4520"
       refX="0"
       refY="0"
       orient="auto"
       inkscape:stockid="Arrow2Mend">
      <path
         transform="scale(-0.6,-0.6)"
         d="M 8.7185878,4.0337352 -2.2072895,0.01601326 8.7185884,-4.0017078 c -1.7454984,2.3720609 -1.7354408,5.6174519 -6e-7,8.035443 z"
         style="fill:#000000;fill-opacity:1;fill-rule:evenodd;stroke:#000000;stroke-width:0.625;stroke-linejoin:round;stroke-opacity:1"
         id="path4522"
         inkscape:connector-curvature="0" />
    </marker>
    <marker
       inkscape:isstock="true"
       style="overflow:visible"
       id="marker4486"
       refX="0"
       refY="0"
       orient="auto"
       inkscape:stockid="Arrow2Mend">
      <path
         transform="scale(-0.6,-0.6)"
         d="M 8.7185878,4.0337352 -2.2072895,0.01601326 8.7185884,-4.0017078 c -1.7454984,2.3720609 -1.7354408,5.6174519 -6e-7,8.035443 z"
         style="fill:#0000ff;fill-opacity:1;fill-rule:evenodd;stroke:#0000ff;stroke-width:0.625;stroke-linejoin:round;stroke-opacity:1"
         id="path4488"
         inkscape:connector-curvature="0" />
    </marker>
    <marker
       inkscape:isstock="true"
       style="overflow:visible"
       id="marker4458"
       refX="0"
       refY="0"
       orient="auto"
       inkscape:stockid="Arrow2Mend">
      <path
         transform="scale(-0.6,-0.6)"
         d="M 8.7185878,4.0337352 -2.2072895,0.01601326 8.7185884,-4.0017078 c -1.7454984,2.3720609 -1.7354408,5.6174519 -6e-7,8.035443 z"
         style="fill:#ff0000;fill-opacity:1;fill-rule:evenodd;stroke:#ff0000;stroke-width:0.625;stroke-linejoin:round;stroke-opacity:1"
         id="path4460"
         inkscape:connector-curvature="0" />
    </marker>
    <marker
       inkscape:stockid="Arrow2Mend"
       orient="auto"
       refY="0"
       refX="0"
       id="Arrow2Mend"
       style="overflow:visible"
       inkscape:isstock="true">
      <path
         id="path4181"
         style="fill:#ff0000;fill-opacity:1;fill-rule:evenodd;stroke:#ff0000;stroke-width:0.625;stroke-linejoin:round;stroke-opacity:1"
         d="M 8.7185878,4.0337352 -2.2072895,0.01601326 8.7185884,-4.0017078 c -1.7454984,2.3720609 -1.7354408,5.6174519 -6e-7,8.035443 z"
         transform="scale(-0.6,-0.6)"
         inkscape:connector-curvature="0" />
    </marker>
    <marker
       inkscape:isstock="true"
       style="overflow:visible"
       id="marker4520-8"
       refX="0"
       refY="0"
       orient="auto"
       inkscape:stockid="Arrow2Mend">
      <path
         transform="scale(-0.6,-0.6)"
         d="M 8.7185878,4.0337352 -2.2072895,0.01601326 8.7185884,-4.0017078 c -1.7454984,2.3720609 -1.7354408,5.6174519 -6e-7,8.035443 z"
         style="fill:#000000;fill-opacity:1;fill-rule:evenodd;stroke:#000000;stroke-width:0.625;stroke-linejoin:round;stroke-opacity:1"
         id="path4522-4"
         inkscape:connector-curvature="0" />
    </marker>
    <marker
       inkscape:stockid="Arrow2Mend"
       orient="auto"
       refY="0"
       refX="0"
       id="marker4566-1"
       style="overflow:visible"
       inkscape:isstock="true">
      <path
         id="path4568-6"
         style="fill:#000000;fill-opacity:1;fill-rule:evenodd;stroke:#000000;stroke-width:0.625;stroke-linejoin:round;stroke-opacity:1"
         d="M 8.7185878,4.0337352 -2.2072895,0.01601326 8.7185884,-4.0017078 c -1.7454984,2.3720609 -1.7354408,5.6174519 -6e-7,8.035443 z"
         transform="scale(-0.6,-0.6)"
         inkscape:connector-curvature="0" />
    </marker>
    <marker
       inkscape:isstock="true"
       style="overflow:visible"
       id="marker4705-9"
       refX="0"
       refY="0"
       orient="auto"
       inkscape:stockid="Arrow2Mend">
      <path
         transform="scale(-0.6,-0.6)"
         d="M 8.7185878,4.0337352 -2.2072895,0.01601326 8.7185884,-4.0017078 c -1.7454984,2.3720609 -1.7354408,5.6174519 -6e-7,8.035443 z"
         style="fill:#000000;fill-opacity:1;fill-rule:evenodd;stroke:#000000;stroke-width:0.625;stroke-linejoin:round;stroke-opacity:1"
         id="path4707-4"
         inkscape:connector-curvature="0" />
    </marker>
    <marker
       inkscape:isstock="true"
       style="overflow:visible"
       id="marker4520-8-4"
       refX="0"
       refY="0"
       orient="auto"
       inkscape:stockid="Arrow2Mend">
      <path
         transform="scale(-0.6,-0.6)"
         d="M 8.7185878,4.0337352 -2.2072895,0.01601326 8.7185884,-4.0017078 c -1.7454984,2.3720609 -1.7354408,5.6174519 -6e-7,8.035443 z"
         style="fill:#000000;fill-opacity:1;fill-rule:evenodd;stroke:#000000;stroke-width:0.625;stroke-linejoin:round;stroke-opacity:1"
         id="path4522-4-7"
         inkscape:connector-curvature="0" />
    </marker>
    <marker
       inkscape:isstock="true"
       style="overflow:visible"
       id="marker4520-8-4-3"
       refX="0"
       refY="0"
       orient="auto"
       inkscape:stockid="Arrow2Mend">
      <path
         transform="scale(-0.6,-0.6)"
         d="M 8.7185878,4.0337352 -2.2072895,0.01601326 8.7185884,-4.0017078 c -1.7454984,2.3720609 -1.7354408,5.6174519 -6e-7,8.035443 z"
         style="fill:#000000;fill-opacity:1;fill-rule:evenodd;stroke:#000000;stroke-width:0.625;stroke-linejoin:round;stroke-opacity:1"
         id="path4522-4-7-8"
         inkscape:connector-curvature="0" />
    </marker>
    <marker
       inkscape:isstock="true"
       style="overflow:visible"
       id="marker4520-8-6"
       refX="0"
       refY="0"
       orient="auto"
       inkscape:stockid="Arrow2Mend">
      <path
         transform="scale(-0.6,-0.6)"
         d="M 8.7185878,4.0337352 -2.2072895,0.01601326 8.7185884,-4.0017078 c -1.7454984,2.3720609 -1.7354408,5.6174519 -6e-7,8.035443 z"
         style="fill:#000000;fill-opacity:1;fill-rule:evenodd;stroke:#000000;stroke-width:0.625;stroke-linejoin:round;stroke-opacity:1"
         id="path4522-4-2"
         inkscape:connector-curvature="0" />
    </marker>
    <marker
       inkscape:isstock="true"
       style="overflow:visible"
       id="marker4520-8-4-7"
       refX="0"
       refY="0"
       orient="auto"
       inkscape:stockid="Arrow2Mend">
      <path
         transform="scale(-0.6,-0.6)"
         d="M 8.7185878,4.0337352 -2.2072895,0.01601326 8.7185884,-4.0017078 c -1.7454984,2.3720609 -1.7354408,5.6174519 -6e-7,8.035443 z"
         style="fill:#000000;fill-opacity:1;fill-rule:evenodd;stroke:#000000;stroke-width:0.625;stroke-linejoin:round;stroke-opacity:1"
         id="path4522-4-7-9"
         inkscape:connector-curvature="0" />
    </marker>
    <marker
       inkscape:isstock="true"
       style="overflow:visible"
       id="marker4520-8-7"
       refX="0"
       refY="0"
       orient="auto"
       inkscape:stockid="Arrow2Mend">
      <path
         transform="scale(-0.6,-0.6)"
         d="M 8.7185878,4.0337352 -2.2072895,0.01601326 8.7185884,-4.0017078 c -1.7454984,2.3720609 -1.7354408,5.6174519 -6e-7,8.035443 z"
         style="fill:#000000;fill-opacity:1;fill-rule:evenodd;stroke:#000000;stroke-width:0.625;stroke-linejoin:round;stroke-opacity:1"
         id="path4522-4-8"
         inkscape:connector-curvature="0" />
    </marker>
    <marker
       inkscape:isstock="true"
       style="overflow:visible"
       id="marker4486-2"
       refX="0"
       refY="0"
       orient="auto"
       inkscape:stockid="Arrow2Mend">
      <path
         transform="scale(-0.6,-0.6)"
         d="M 8.7185878,4.0337352 -2.2072895,0.01601326 8.7185884,-4.0017078 c -1.7454984,2.3720609 -1.7354408,5.6174519 -6e-7,8.035443 z"
         style="fill:#0000ff;fill-opacity:1;fill-rule:evenodd;stroke:#0000ff;stroke-width:0.625;stroke-linejoin:round;stroke-opacity:1"
         id="path4488-8"
         inkscape:connector-curvature="0" />
    </marker>
    <marker
       inkscape:stockid="Arrow2Mend"
       orient="auto"
       refY="0"
       refX="0"
       id="Arrow2Mend-3"
       style="overflow:visible"
       inkscape:isstock="true">
      <path
         id="path4181-9"
         style="fill:#ff0000;fill-opacity:1;fill-rule:evenodd;stroke:#ff0000;stroke-width:0.625;stroke-linejoin:round;stroke-opacity:1"
         d="M 8.7185878,4.0337352 -2.2072895,0.01601326 8.7185884,-4.0017078 c -1.7454984,2.3720609 -1.7354408,5.6174519 -6e-7,8.035443 z"
         transform="scale(-0.6,-0.6)"
         inkscape:connector-curvature="0" />
    </marker>
    <marker
       inkscape:stockid="Arrow2Mend"
       orient="auto"
       refY="0"
       refX="0"
       id="Arrow2Mend-3-6"
       style="overflow:visible"
       inkscape:isstock="true">
      <path
         id="path4181-9-0"
         style="fill:#ff0000;fill-opacity:1;fill-rule:evenodd;stroke:#ff0000;stroke-width:0.625;stroke-linejoin:round;stroke-opacity:1"
         d="M 8.7185878,4.0337352 -2.2072895,0.01601326 8.7185884,-4.0017078 c -1.7454984,2.3720609 -1.7354408,5.6174519 -6e-7,8.035443 z"
         transform="scale(-0.6,-0.6)"
         inkscape:connector-curvature="0" />
    </marker>
    <marker
       inkscape:stockid="Arrow2Mend"
       orient="auto"
       refY="0"
       refX="0"
       id="Arrow2Mend-3-6-3"
       style="overflow:visible"
       inkscape:isstock="true">
      <path
         id="path4181-9-0-8"
         style="fill:#ff0000;fill-opacity:1;fill-rule:evenodd;stroke:#ff0000;stroke-width:0.625;stroke-linejoin:round;stroke-opacity:1"
         d="M 8.7185878,4.0337352 -2.2072895,0.01601326 8.7185884,-4.0017078 c -1.7454984,2.3720609 -1.7354408,5.6174519 -6e-7,8.035443 z"
         transform="scale(-0.6,-0.6)"
         inkscape:connector-curvature="0" />
    </marker>
    <marker
       inkscape:isstock="true"
       style="overflow:visible"
       id="marker4486-4"
       refX="0"
       refY="0"
       orient="auto"
       inkscape:stockid="Arrow2Mend">
      <path
         transform="scale(-0.6,-0.6)"
         d="M 8.7185878,4.0337352 -2.2072895,0.01601326 8.7185884,-4.0017078 c -1.7454984,2.3720609 -1.7354408,5.6174519 -6e-7,8.035443 z"
         style="fill:#0000ff;fill-opacity:1;fill-rule:evenodd;stroke:#0000ff;stroke-width:0.625;stroke-linejoin:round;stroke-opacity:1"
         id="path4488-4"
         inkscape:connector-curvature="0" />
    </marker>
    <marker
       inkscape:isstock="true"
       style="overflow:visible"
       id="marker4486-6"
       refX="0"
       refY="0"
       orient="auto"
       inkscape:stockid="Arrow2Mend">
      <path
         transform="scale(-0.6,-0.6)"
         d="M 8.7185878,4.0337352 -2.2072895,0.01601326 8.7185884,-4.0017078 c -1.7454984,2.3720609 -1.7354408,5.6174519 -6e-7,8.035443 z"
         style="fill:#0000ff;fill-opacity:1;fill-rule:evenodd;stroke:#0000ff;stroke-width:0.625;stroke-linejoin:round;stroke-opacity:1"
         id="path4488-1"
         inkscape:connector-curvature="0" />
    </marker>
    <marker
       inkscape:isstock="true"
       style="overflow:visible"
       id="marker4458-7"
       refX="0"
       refY="0"
       orient="auto"
       inkscape:stockid="Arrow2Mend">
      <path
         transform="scale(-0.6,-0.6)"
         d="M 8.7185878,4.0337352 -2.2072895,0.01601326 8.7185884,-4.0017078 c -1.7454984,2.3720609 -1.7354408,5.6174519 -6e-7,8.035443 z"
         style="fill:#ff0000;fill-opacity:1;fill-rule:evenodd;stroke:#ff0000;stroke-width:0.625;stroke-linejoin:round;stroke-opacity:1"
         id="path4460-1"
         inkscape:connector-curvature="0" />
    </marker>
    <marker
       inkscape:stockid="Arrow2Mend"
       orient="auto"
       refY="0"
       refX="0"
       id="Arrow2Mend-3-6-6"
       style="overflow:visible"
       inkscape:isstock="true">
      <path
         id="path4181-9-0-6"
         style="fill:#ff0000;fill-opacity:1;fill-rule:evenodd;stroke:#ff0000;stroke-width:0.625;stroke-linejoin:round;stroke-opacity:1"
         d="M 8.7185878,4.0337352 -2.2072895,0.01601326 8.7185884,-4.0017078 c -1.7454984,2.3720609 -1.7354408,5.6174519 -6e-7,8.035443 z"
         transform="scale(-0.6,-0.6)"
         inkscape:connector-curvature="0" />
    </marker>
    <marker
       inkscape:stockid="Arrow2Mend"
       orient="auto"
       refY="0"
       refX="0"
       id="Arrow2Mend-3-6-1"
       style="overflow:visible"
       inkscape:isstock="true">
      <path
         id="path4181-9-0-4"
         style="fill:#ff0000;fill-opacity:1;fill-rule:evenodd;stroke:#ff0000;stroke-width:0.625;stroke-linejoin:round;stroke-opacity:1"
         d="M 8.7185878,4.0337352 -2.2072895,0.01601326 8.7185884,-4.0017078 c -1.7454984,2.3720609 -1.7354408,5.6174519 -6e-7,8.035443 z"
         transform="scale(-0.6,-0.6)"
         inkscape:connector-curvature="0" />
    </marker>
    <marker
       inkscape:stockid="Arrow2Mend"
       orient="auto"
       refY="0"
       refX="0"
       id="marker4566-4"
       style="overflow:visible"
       inkscape:isstock="true">
      <path
         id="path4568-67"
         style="fill:#000000;fill-opacity:1;fill-rule:evenodd;stroke:#000000;stroke-width:0.625;stroke-linejoin:round;stroke-opacity:1"
         d="M 8.7185878,4.0337352 -2.2072895,0.01601326 8.7185884,-4.0017078 c -1.7454984,2.3720609 -1.7354408,5.6174519 -6e-7,8.035443 z"
         transform="scale(-0.6,-0.6)"
         inkscape:connector-curvature="0" />
    </marker>
    <marker
       inkscape:isstock="true"
       style="overflow:visible"
       id="marker4705-6"
       refX="0"
       refY="0"
       orient="auto"
       inkscape:stockid="Arrow2Mend">
      <path
         transform="scale(-0.6,-0.6)"
         d="M 8.7185878,4.0337352 -2.2072895,0.01601326 8.7185884,-4.0017078 c -1.7454984,2.3720609 -1.7354408,5.6174519 -6e-7,8.035443 z"
         style="fill:#000000;fill-opacity:1;fill-rule:evenodd;stroke:#000000;stroke-width:0.625;stroke-linejoin:round;stroke-opacity:1"
         id="path4707-8"
         inkscape:connector-curvature="0" />
    </marker>
    <marker
       inkscape:isstock="true"
       style="overflow:visible"
       id="marker4705-1"
       refX="0"
       refY="0"
       orient="auto"
       inkscape:stockid="Arrow2Mend">
      <path
         transform="scale(-0.6,-0.6)"
         d="M 8.7185878,4.0337352 -2.2072895,0.01601326 8.7185884,-4.0017078 c -1.7454984,2.3720609 -1.7354408,5.6174519 -6e-7,8.035443 z"
         style="fill:#000000;fill-opacity:1;fill-rule:evenodd;stroke:#000000;stroke-width:0.625;stroke-linejoin:round;stroke-opacity:1"
         id="path4707-7"
         inkscape:connector-curvature="0" />
    </marker>
    <marker
       inkscape:stockid="marker8646g"
       orient="auto"
       refY="0"
       refX="0"
       id="marker8646g"
       style="overflow:visible">
      <path
         id="path9284"
         style="font-size:12px;fill:#ff6400;fill-rule:evenodd;stroke:#ff6400;stroke-width:0.625;stroke-linejoin:round"
         d="M 8.7185878,4.0337352 -2.2072895,0.01601326 8.7185884,-4.0017078 c -1.7454984,2.3720609 -1.7354408,5.6174519 -6e-7,8.035443 z"
         transform="scale(-0.6,-0.6)"
         inkscape:connector-curvature="0" />
    </marker>
    <marker
       inkscape:stockid="Arrow2Mend"
       orient="auto"
       refY="0"
       refX="0"
       id="marker51949"
       style="overflow:visible">
      <path
         id="path51951"
         style="font-size:12px;fill-rule:evenodd;stroke-width:0.625;stroke-linejoin:round"
         d="M 8.7185878,4.0337352 -2.2072895,0.01601326 8.7185884,-4.0017078 c -1.7454984,2.3720609 -1.7354408,5.6174519 -6e-7,8.035443 z"
         transform="scale(-0.6,-0.6)"
         inkscape:connector-curvature="0" />
    </marker>
    <marker
       inkscape:stockid="Arrow2Mend"
       orient="auto"
       refY="0"
       refX="0"
       id="marker3252"
       style="overflow:visible">
      <path
         id="path3254"
         style="font-size:12px;fill-rule:evenodd;stroke-width:0.625;stroke-linejoin:round"
         d="M 8.7185878,4.0337352 -2.2072895,0.01601326 8.7185884,-4.0017078 c -1.7454984,2.3720609 -1.7354408,5.6174519 -6e-7,8.035443 z"
         transform="scale(-0.6,-0.6)"
         inkscape:connector-curvature="0" />
    </marker>
    <marker
       inkscape:stockid="Arrow2Mend"
       orient="auto"
       refY="0"
       refX="0"
       id="marker51949-0"
       style="overflow:visible">
      <path
         id="path51951-9"
         style="font-size:12px;fill-rule:evenodd;stroke-width:0.625;stroke-linejoin:round"
         d="M 8.7185878,4.0337352 -2.2072895,0.01601326 8.7185884,-4.0017078 c -1.7454984,2.3720609 -1.7354408,5.6174519 -6e-7,8.035443 z"
         transform="scale(-0.6,-0.6)"
         inkscape:connector-curvature="0" />
    </marker>
    <marker
       inkscape:stockid="Arrow2Mend"
       orient="auto"
       refY="0"
       refX="0"
       id="marker3277"
       style="overflow:visible">
      <path
         id="path3279"
         style="font-size:12px;fill-rule:evenodd;stroke-width:0.625;stroke-linejoin:round"
         d="M 8.7185878,4.0337352 -2.2072895,0.01601326 8.7185884,-4.0017078 c -1.7454984,2.3720609 -1.7354408,5.6174519 -6e-7,8.035443 z"
         transform="scale(-0.6,-0.6)"
         inkscape:connector-curvature="0" />
    </marker>
    <marker
       inkscape:stockid="marker8646g"
       orient="auto"
       refY="0"
       refX="0"
       id="marker8646g-4"
       style="overflow:visible">
      <path
         id="path9284-8"
         style="font-size:12px;fill:#ff6400;fill-rule:evenodd;stroke:#ff6400;stroke-width:0.625;stroke-linejoin:round"
         d="M 8.7185878,4.0337352 -2.2072895,0.01601326 8.7185884,-4.0017078 c -1.7454984,2.3720609 -1.7354408,5.6174519 -6e-7,8.035443 z"
         transform="scale(-0.6,-0.6)"
         inkscape:connector-curvature="0" />
    </marker>
    <marker
       inkscape:stockid="Arrow2Mend"
       orient="auto"
       refY="0"
       refX="0"
       id="marker51949-8"
       style="overflow:visible">
      <path
         id="path51951-2"
         style="font-size:12px;fill-rule:evenodd;stroke-width:0.625;stroke-linejoin:round"
         d="M 8.7185878,4.0337352 -2.2072895,0.01601326 8.7185884,-4.0017078 c -1.7454984,2.3720609 -1.7354408,5.6174519 -6e-7,8.035443 z"
         transform="scale(-0.6,-0.6)"
         inkscape:connector-curvature="0" />
    </marker>
    <marker
       inkscape:stockid="Arrow2Mend"
       orient="auto"
       refY="0"
       refX="0"
       id="marker4180"
       style="overflow:visible">
      <path
         id="path4182"
         style="font-size:12px;fill-rule:evenodd;stroke-width:0.625;stroke-linejoin:round"
         d="M 8.7185878,4.0337352 -2.2072895,0.01601326 8.7185884,-4.0017078 c -1.7454984,2.3720609 -1.7354408,5.6174519 -6e-7,8.035443 z"
         transform="scale(-0.6,-0.6)"
         inkscape:connector-curvature="0" />
    </marker>
    <marker
       inkscape:stockid="marker8646g"
       orient="auto"
       refY="0"
       refX="0"
       id="marker8646g-7"
       style="overflow:visible">
      <path
         id="path9284-6"
         style="font-size:12px;fill:#ff6400;fill-rule:evenodd;stroke:#ff6400;stroke-width:0.625;stroke-linejoin:round"
         d="M 8.7185878,4.0337352 -2.2072895,0.01601326 8.7185884,-4.0017078 c -1.7454984,2.3720609 -1.7354408,5.6174519 -6e-7,8.035443 z"
         transform="scale(-0.6,-0.6)"
         inkscape:connector-curvature="0" />
    </marker>
    <marker
       inkscape:stockid="marker8646g"
       orient="auto"
       refY="0"
       refX="0"
       id="marker8646g-42"
       style="overflow:visible">
      <path
         id="path9284-3"
         style="font-size:12px;fill:#ff6400;fill-rule:evenodd;stroke:#ff6400;stroke-width:0.625;stroke-linejoin:round"
         d="M 8.7185878,4.0337352 -2.2072895,0.01601326 8.7185884,-4.0017078 c -1.7454984,2.3720609 -1.7354408,5.6174519 -6e-7,8.035443 z"
         transform="scale(-0.6,-0.6)"
         inkscape:connector-curvature="0" />
    </marker>
    <marker
       inkscape:stockid="marker8646g6"
       orient="auto"
       refY="0"
       refX="0"
       id="marker8646g6"
       style="overflow:visible">
      <path
         id="path4359"
         style="font-size:12px;fill:#0000ff;fill-rule:evenodd;stroke:#0000ff;stroke-width:0.625;stroke-linejoin:round"
         d="M 8.7185878,4.0337352 -2.2072895,0.01601326 8.7185884,-4.0017078 c -1.7454984,2.3720609 -1.7354408,5.6174519 -6e-7,8.035443 z"
         transform="scale(-0.6,-0.6)"
         inkscape:connector-curvature="0" />
    </marker>
    <marker
       inkscape:stockid="marker8646gb"
       orient="auto"
       refY="0"
       refX="0"
       id="marker8646gb"
       style="overflow:visible">
      <path
         id="path4362"
         style="font-size:12px;fill:#006400;fill-rule:evenodd;stroke:#006400;stroke-width:0.625;stroke-linejoin:round"
         d="M 8.7185878,4.0337352 -2.2072895,0.01601326 8.7185884,-4.0017078 c -1.7454984,2.3720609 -1.7354408,5.6174519 -6e-7,8.035443 z"
         transform="scale(-0.6,-0.6)"
         inkscape:connector-curvature="0" />
    </marker>
    <marker
       inkscape:stockid="marker8646gm"
       orient="auto"
       refY="0"
       refX="0"
       id="marker8646gm"
       style="overflow:visible">
      <path
         id="path4365"
         style="font-size:12px;fill:#ff0000;fill-rule:evenodd;stroke:#ff0000;stroke-width:0.625;stroke-linejoin:round"
         d="M 8.7185878,4.0337352 -2.2072895,0.01601326 8.7185884,-4.0017078 c -1.7454984,2.3720609 -1.7354408,5.6174519 -6e-7,8.035443 z"
         transform="scale(-0.6,-0.6)"
         inkscape:connector-curvature="0" />
    </marker>
  </defs>
  <metadata
     id="metadata7">
    <rdf:RDF>
      <cc:Work
         rdf:about="">
        <dc:format>image/svg+xml</dc:format>
        <dc:type
           rdf:resource="http://purl.org/dc/dcmitype/StillImage" />
        <dc:title />
      </cc:Work>
    </rdf:RDF>
  </metadata>
  <g
     inkscape:label="Layer 1"
     inkscape:groupmode="layer"
     id="layer1"
     transform="translate(-22.279927,41.374697)">
    <path
       style="fill:none;stroke:#000000;stroke-width:0.99999994;stroke-linecap:butt;stroke-linejoin:miter;stroke-miterlimit:4;stroke-opacity:1;stroke-dasharray:none;marker-end:url(#marker4705)"
       d="m 169.75999,120.13718 0,-160.000003"
       id="path4618"
       inkscape:connector-curvature="0"
       sodipodi:nodetypes="cc" />
    <path
       style="fill:none;stroke:#0000ff;stroke-width:1;stroke-linecap:butt;stroke-linejoin:miter;stroke-miterlimit:4;stroke-opacity:1;stroke-dasharray:1, 1;stroke-dashoffset:0"
       d="m 229.75999,112.63718 67.5,-134.999998"
       id="path4790"
       inkscape:connector-curvature="0"
       sodipodi:nodetypes="cc" />
    <path
       style="fill:none;stroke:#ff0000;stroke-width:1;stroke-linecap:butt;stroke-linejoin:miter;stroke-miterlimit:4;stroke-opacity:1;stroke-dasharray:1, 1;stroke-dashoffset:0"
       d="m 259.75999,120.13718 52.5,-157.500005"
       id="path4792"
       inkscape:connector-curvature="0"
       sodipodi:nodetypes="cc" />
    <path
       style="fill:none;stroke:#006400;stroke-width:1;stroke-linecap:butt;stroke-linejoin:miter;stroke-miterlimit:4;stroke-opacity:1;stroke-dasharray:1, 1;stroke-dashoffset:0"
       d="m 169.75999,105.13718 142.5,-142.499998"
       id="path4788"
       inkscape:connector-curvature="0"
       sodipodi:nodetypes="cc" />
    <path
       style="fill:none;stroke:#006400;stroke-width:1.99999988;stroke-linecap:butt;stroke-linejoin:miter;stroke-miterlimit:4;stroke-opacity:1;stroke-dasharray:none"
       d="m 169.75999,105.13718 75,-74.999998 c 15,-15 37.5,-15 37.5,-15"
       id="path4794"
       inkscape:connector-curvature="0"
       sodipodi:nodetypes="csc" />
    <path
       style="fill:none;stroke:#0000ff;stroke-width:1.99999988;stroke-linecap:butt;stroke-linejoin:miter;stroke-miterlimit:4;stroke-opacity:1;stroke-dasharray:none"
       d="m 222.25999,127.63719 30,-60.000008 c 6,-12 30,-13.5 30,-13.5"
       id="path4802"
       inkscape:connector-curvature="0"
       sodipodi:nodetypes="csc" />
    <path
       style="fill:none;stroke:#ff0000;stroke-width:1.99999988;stroke-linecap:butt;stroke-linejoin:miter;stroke-miterlimit:4;stroke-opacity:1;stroke-dasharray:none"
       d="m 259.75999,120.13718 12,-35.999998 c 3,-9 10.5,-9 10.5,-9"
       id="path4804"
       inkscape:connector-curvature="0"
       sodipodi:nodetypes="cc" />
    <rect
       style="fill:#ffffff;fill-opacity:1;stroke:none"
       id="rect4806"
       width="9"
       height="9"
       x="220.75999"
       y="120.13718" />
    <path
       style="fill:none;stroke:#000000;stroke-width:1;stroke-linecap:butt;stroke-linejoin:miter;stroke-miterlimit:4;stroke-opacity:1;stroke-dasharray:none;marker-end:url(#marker4566)"
       d="m 169.75999,120.13718 157.5,0"
       id="path4136"
       inkscape:connector-curvature="0"
       sodipodi:nodetypes="cc" />
    <g
       style="font-style:normal;font-variant:normal;font-weight:normal;font-stretch:normal;letter-spacing:normal;word-spacing:normal;text-anchor:start;fill:#000000;fill-opacity:1;fill-rule:evenodd;stroke:#000000;stroke-linecap:butt;stroke-linejoin:miter;stroke-miterlimit:10.43299961;stroke-opacity:1;stroke-dasharray:none;stroke-dashoffset:0"
       ns0:preamble="C:\\Program Files\\Inkscape\\share\\extensions\\default_packages.tex"
       ns0:text="Output Signal $\\left[ \\mathrm{dBm} \\right]$"
       word-spacing="normal"
       letter-spacing="normal"
       font-size-adjust="none"
       font-stretch="normal"
       font-weight="normal"
       font-variant="normal"
       font-style="normal"
       stroke-miterlimit="10.433"
       xml:space="preserve"
       transform="matrix(1,0,0,-1,98.323043,677.07217)"
       id="g6224"><text
   transform="scale(1,-1)"
   sodipodi:linespacing="100%"
   id="text3194"
   y="-706.935"
   x="106.43696"
   style="font-size:10px;font-style:normal;font-variant:normal;font-weight:normal;font-stretch:normal;line-height:100%;letter-spacing:0px;word-spacing:0px;fill:#000000;fill-opacity:1;stroke:none;font-family:Arial;-inkscape-font-specification:Arial"
   xml:space="preserve"><tspan
     style="text-align:center;line-height:100%;text-anchor:middle"
     y="-706.935"
     x="106.43696"
     id="tspan3196"
     sodipodi:role="line">Output signal</tspan><tspan
     style="text-align:center;line-height:100%;text-anchor:middle"
     id="tspan3198"
     y="-696.935"
     x="106.43696"
     sodipodi:role="line">Magnitude [dB]</tspan></text>


</g>    <g
       style="fill:#006400;fill-opacity:1"
       transform="translate(32.829994,-2.2250272)"
       id="g3254">
      <path
         inkscape:connector-curvature="0"
         d="m 155.18998,67.08221 0.14,-0.14 c 0.3,-0.29 0.63,-0.63 1.3,-0.68 0.11,-0.01 0.2,-0.01 0.2,-0.19 0,-0.08 -0.05,-0.12 -0.13,-0.12 -0.26,0 -0.54,0.03 -0.81,0.03 -0.33,0 -0.68,-0.03 -1,-0.03 -0.06,0 -0.19,0 -0.19,0.19 0,0.11 0.1,0.12 0.15,0.12 0.07,0 0.36,0.02 0.36,0.23 0,0.16 -0.23,0.42 -0.27,0.47 l -2.3,2.66 -1.1,-2.96 c -0.06,-0.13 -0.06,-0.15 -0.06,-0.16 0,-0.24 0.49,-0.24 0.59,-0.24 0.14,0 0.24,0 0.24,-0.2 0,-0.11 -0.12,-0.11 -0.15,-0.11 -0.28,0 -0.98,0.03 -1.26,0.03 -0.24,0 -0.86,-0.03 -1.11,-0.03 -0.06,0 -0.19,0 -0.19,0.2 0,0.11 0.1,0.11 0.23,0.11 0.6,0 0.64,0.09 0.72,0.34 l 1.23,3.26 c 0.01,0.03 0.04,0.14 0.04,0.17 0,0.03 -0.4,1.63 -0.45,1.81 -0.13,0.55 -0.14,0.58 -0.93,0.59 -0.19,0 -0.27,0 -0.27,0.2 0,0.1 0.12,0.1 0.14,0.1 0.27,0 0.97,-0.03 1.25,-0.03 0.28,0 0.99,0.03 1.27,0.03 0.07,0 0.19,0 0.19,-0.19 0,-0.11 -0.09,-0.11 -0.28,-0.11 -0.02,0 -0.21,0 -0.37,-0.02 -0.21,-0.02 -0.27,-0.04 -0.27,-0.16 0,-0.07 0.09,-0.42 0.14,-0.63 l 0.34,-1.4 c 0.06,-0.19 0.06,-0.22 0.14,-0.31 z"
         font-size-adjust="none"
         font-stretch="normal"
         font-style="normal"
         font-variant="normal"
         font-weight="normal"
         letter-spacing="normal"
         stroke-miterlimit="10.433"
         word-spacing="normal"
         style="font-style:normal;font-variant:normal;font-weight:normal;font-stretch:normal;letter-spacing:normal;word-spacing:normal;text-anchor:start;fill:#006400;fill-opacity:1;fill-rule:evenodd;stroke:#000000;stroke-width:0;stroke-linecap:butt;stroke-linejoin:miter;stroke-miterlimit:10.43299961;stroke-opacity:1;stroke-dasharray:none;stroke-dashoffset:0"
         id="path5182" />
      <g
         style="fill:#006400;fill-opacity:1"
         id="g3249"
         transform="translate(-1.5299723,0)">
        <path
           id="path5184"
           style="font-style:normal;font-variant:normal;font-weight:normal;font-stretch:normal;letter-spacing:normal;word-spacing:normal;text-anchor:start;fill:#006400;fill-opacity:1;fill-rule:evenodd;stroke:#000000;stroke-width:0;stroke-linecap:butt;stroke-linejoin:miter;stroke-miterlimit:10.43299961;stroke-opacity:1;stroke-dasharray:none;stroke-dashoffset:0"
           word-spacing="normal"
           stroke-miterlimit="10.433"
           letter-spacing="normal"
           font-weight="normal"
           font-variant="normal"
           font-style="normal"
           font-stretch="normal"
           font-size-adjust="none"
           d="m 160.53998,75.12221 0,-0.01 0,0 0,0 0,-0.01 0,0 0,0 0,-0.01 0,0 0,0 -0.01,-0.01 0,0 0,-0.01 0,0 -0.01,-0.01 0,0 -0.01,-0.01 0,-0.01 -0.01,0 0,-0.01 0,0 -0.01,-0.01 0,0 -0.01,0 0,-0.01 0,0 -0.01,-0.01 0,0 -0.01,-0.01 0,0 -0.01,-0.01 0,0 -0.01,-0.01 0,-0.01 -0.01,0 -0.01,-0.01 0,-0.01 -0.01,0 -0.01,-0.01 0,-0.01 -0.01,0 -0.01,-0.01 -0.01,-0.01 c -1.24,-1.25 -1.56,-3.13 -1.56,-4.65 0,-1.73 0.38,-3.46 1.6,-4.7 0.13,-0.12 0.13,-0.14 0.13,-0.17 0,-0.07 -0.04,-0.1 -0.1,-0.1 -0.1,0 -0.99,0.68 -1.58,1.94 -0.51,1.09 -0.62,2.2 -0.62,3.03 0,0.78 0.1,1.98 0.65,3.1 0.6,1.22 1.45,1.87 1.55,1.87 0.06,0 0.1,-0.03 0.1,-0.1 z"
           inkscape:connector-curvature="0" />
        <path
           id="path5186"
           style="font-style:normal;font-variant:normal;font-weight:normal;font-stretch:normal;letter-spacing:normal;word-spacing:normal;text-anchor:start;fill:#006400;fill-opacity:1;fill-rule:evenodd;stroke:#000000;stroke-width:0;stroke-linecap:butt;stroke-linejoin:miter;stroke-miterlimit:10.43299961;stroke-opacity:1;stroke-dasharray:none;stroke-dashoffset:0"
           word-spacing="normal"
           stroke-miterlimit="10.433"
           letter-spacing="normal"
           font-weight="normal"
           font-variant="normal"
           font-style="normal"
           font-stretch="normal"
           font-size-adjust="none"
           d="m 167.13998,69.04221 0,-0.04 0,-0.04 0,-0.04 -0.01,-0.04 0,-0.03 0,-0.04 -0.01,-0.03 -0.01,-0.04 -0.01,-0.03 -0.01,-0.03 0,-0.03 -0.02,-0.03 -0.01,-0.02 -0.01,-0.03 -0.01,-0.02 -0.01,-0.03 -0.02,-0.02 -0.01,-0.02 -0.02,-0.02 -0.01,-0.01 -0.02,-0.02 -0.02,-0.01 -0.01,-0.02 -0.02,-0.01 -0.02,-0.01 -0.02,-0.01 -0.02,-0.01 -0.02,0 -0.01,-0.01 -0.02,0 -0.02,-0.01 -0.02,0 c -0.26,0 -0.53,0.24 -0.53,0.47 0,0.1 0.05,0.21 0.15,0.3 0.17,0.15 0.35,0.42 0.35,0.83 0,0.4 -0.19,0.97 -0.5,1.42 -0.3,0.43 -0.67,0.77 -1.14,0.77 -0.56,0 -0.87,-0.36 -0.96,-0.9 0.11,-0.25 0.34,-0.89 0.34,-1.17 0,-0.12 -0.05,-0.22 -0.18,-0.22 -0.08,0 -0.19,0.02 -0.27,0.17 -0.11,0.2 -0.23,0.85 -0.23,1.2 -0.33,0.47 -0.73,0.92 -1.35,0.92 -0.66,0 -0.87,-0.59 -0.87,-1.14 0,-1.24 1.02,-2.29 1.02,-2.42 0,-0.11 -0.08,-0.19 -0.19,-0.19 -0.13,0 -0.2,0.13 -0.26,0.22 -0.51,0.74 -0.89,1.92 -0.89,2.82 0,0.69 0.23,1.42 1.05,1.42 0.7,0 1.17,-0.49 1.53,-1.04 0.09,0.58 0.48,1.04 1.1,1.04 0.77,0 1.25,-0.6 1.61,-1.35 0.24,-0.48 0.61,-1.83 0.61,-2.45 z"
           inkscape:connector-curvature="0" />
        <path
           id="path5188"
           style="font-style:normal;font-variant:normal;font-weight:normal;font-stretch:normal;letter-spacing:normal;word-spacing:normal;text-anchor:start;fill:#006400;fill-opacity:1;fill-rule:evenodd;stroke:#000000;stroke-width:0;stroke-linecap:butt;stroke-linejoin:miter;stroke-miterlimit:10.43299961;stroke-opacity:1;stroke-dasharray:none;stroke-dashoffset:0"
           word-spacing="normal"
           stroke-miterlimit="10.433"
           letter-spacing="normal"
           font-weight="normal"
           font-variant="normal"
           font-style="normal"
           font-stretch="normal"
           font-size-adjust="none"
           d="m 170.55998,70.25221 0,-0.07 0,-0.08 -0.01,-0.08 0,-0.08 -0.01,-0.17 -0.01,-0.17 -0.01,-0.18 -0.03,-0.19 -0.02,-0.2 -0.03,-0.2 -0.04,-0.2 -0.05,-0.21 -0.05,-0.21 -0.06,-0.21 -0.07,-0.21 -0.08,-0.21 -0.05,-0.11 -0.04,-0.11 -0.05,-0.1 -0.05,-0.11 c -0.6,-1.22 -1.45,-1.87 -1.55,-1.87 -0.06,0 -0.1,0.04 -0.1,0.1 0,0.03 0,0.05 0.19,0.23 0.97,0.99 1.54,2.57 1.54,4.64 0,1.7 -0.37,3.45 -1.6,4.7 -0.13,0.12 -0.13,0.14 -0.13,0.17 0,0.06 0.04,0.1 0.1,0.1 0.1,0 0.99,-0.68 1.58,-1.94 0.51,-1.09 0.63,-2.19 0.63,-3.03 z"
           inkscape:connector-curvature="0" />
      </g>
    </g>
    <g
       transform="translate(32.309994,-2.2250272)"
       id="g3217">
      <path
         inkscape:connector-curvature="0"
         d="m 183.28001,97.08221 0.14,-0.14 c 0.29,-0.29 0.62,-0.63 1.3,-0.68 0.11,-0.01 0.2,-0.01 0.2,-0.19 0,-0.08 -0.05,-0.12 -0.13,-0.12 -0.26,0 -0.55,0.03 -0.82,0.03 -0.32,0 -0.67,-0.03 -0.99,-0.03 -0.06,0 -0.19,0 -0.19,0.19 0,0.11 0.1,0.12 0.15,0.12 0.07,0 0.36,0.02 0.36,0.23 0,0.16 -0.23,0.42 -0.27,0.47 l -2.31,2.66 -1.09,-2.96 c -0.06,-0.13 -0.06,-0.15 -0.06,-0.16 0,-0.24 0.48,-0.24 0.58,-0.24 0.14,0 0.24,0 0.24,-0.2 0,-0.11 -0.12,-0.11 -0.15,-0.11 -0.28,0 -0.97,0.03 -1.25,0.03 -0.25,0 -0.87,-0.03 -1.11,-0.03 -0.06,0 -0.19,0 -0.19,0.2 0,0.11 0.1,0.11 0.22,0.11 0.6,0 0.64,0.09 0.73,0.34 l 1.23,3.26 c 0.01,0.03 0.03,0.14 0.03,0.17 0,0.03 -0.39,1.63 -0.44,1.81 -0.13,0.55 -0.14,0.58 -0.94,0.59 -0.19,0 -0.27,0 -0.27,0.2 0,0.1 0.12,0.1 0.14,0.1 0.28,0 0.98,-0.03 1.26,-0.03 0.28,0 0.99,0.03 1.27,0.03 0.07,0 0.19,0 0.19,-0.19 0,-0.11 -0.09,-0.11 -0.28,-0.11 -0.02,0 -0.21,0 -0.38,-0.02 -0.21,-0.02 -0.27,-0.04 -0.27,-0.16 0,-0.07 0.09,-0.42 0.14,-0.63 l 0.35,-1.4 c 0.05,-0.19 0.06,-0.22 0.14,-0.31 z"
         font-size-adjust="none"
         font-stretch="normal"
         font-style="normal"
         font-variant="normal"
         font-weight="normal"
         letter-spacing="normal"
         stroke-miterlimit="10.433"
         word-spacing="normal"
         style="font-style:normal;font-variant:normal;font-weight:normal;font-stretch:normal;letter-spacing:normal;word-spacing:normal;text-anchor:start;fill:#0000ff;fill-opacity:1;fill-rule:evenodd;stroke:#000000;stroke-width:0;stroke-linecap:butt;stroke-linejoin:miter;stroke-miterlimit:10.43299961;stroke-opacity:1;stroke-dasharray:none;stroke-dashoffset:0"
         id="path5190" />
      <g
         id="g3211"
         transform="translate(-2.0000028,0)">
        <path
           id="path5192"
           style="font-style:normal;font-variant:normal;font-weight:normal;font-stretch:normal;letter-spacing:normal;word-spacing:normal;text-anchor:start;fill:#0000ff;fill-opacity:1;fill-rule:evenodd;stroke:#000000;stroke-width:0;stroke-linecap:butt;stroke-linejoin:miter;stroke-miterlimit:10.43299961;stroke-opacity:1;stroke-dasharray:none;stroke-dashoffset:0"
           word-spacing="normal"
           stroke-miterlimit="10.433"
           letter-spacing="normal"
           font-weight="normal"
           font-variant="normal"
           font-style="normal"
           font-stretch="normal"
           font-size-adjust="none"
           d="m 188.63001,105.12221 0,-0.01 0,0 0,0 0,-0.01 0,0 0,0 0,-0.01 -0.01,0 0,0 0,-0.01 0,0 -0.01,-0.01 0,0 0,-0.01 -0.01,0 0,-0.01 -0.01,-0.01 0,0 -0.01,-0.01 0,0 0,-0.01 -0.01,0 0,0 0,-0.01 -0.01,0 0,-0.01 -0.01,0 0,-0.01 -0.01,0 0,-0.01 -0.01,0 0,-0.01 -0.01,-0.01 0,0 -0.01,-0.01 -0.01,-0.01 0,0 -0.01,-0.01 -0.01,-0.01 0,0 -0.01,-0.01 -0.01,-0.01 c -1.24,-1.25 -1.56,-3.13 -1.56,-4.65 0,-1.73 0.38,-3.46 1.6,-4.7 0.13,-0.12 0.13,-0.14 0.13,-0.17 0,-0.07 -0.04,-0.1 -0.1,-0.1 -0.1,0 -0.99,0.68 -1.58,1.94 -0.51,1.09 -0.63,2.2 -0.63,3.03 0,0.78 0.11,1.98 0.66,3.1 0.59,1.22 1.45,1.87 1.55,1.87 0.06,0 0.1,-0.03 0.1,-0.1 z"
           inkscape:connector-curvature="0" />
        <path
           id="path5194"
           style="font-style:normal;font-variant:normal;font-weight:normal;font-stretch:normal;letter-spacing:normal;word-spacing:normal;text-anchor:start;fill:#0000ff;fill-opacity:1;fill-rule:evenodd;stroke:#000000;stroke-width:0;stroke-linecap:butt;stroke-linejoin:miter;stroke-miterlimit:10.43299961;stroke-opacity:1;stroke-dasharray:none;stroke-dashoffset:0"
           word-spacing="normal"
           stroke-miterlimit="10.433"
           letter-spacing="normal"
           font-weight="normal"
           font-variant="normal"
           font-style="normal"
           font-stretch="normal"
           font-size-adjust="none"
           d="m 190.47001,101.97221 1.06,-1.02 c 1.55,-1.37 2.15,-1.91 2.15,-2.9 0,-1.14 -0.9,-1.93 -2.11,-1.93 -1.13,0 -1.86,0.91 -1.86,1.8 0,0.55 0.5,0.55 0.53,0.55 0.16,0 0.51,-0.12 0.51,-0.52 0,-0.26 -0.18,-0.52 -0.52,-0.52 -0.08,0 -0.1,0 -0.13,0.01 0.22,-0.65 0.76,-1.01 1.34,-1.01 0.9,0 1.33,0.8 1.33,1.62 0,0.79 -0.5,1.58 -1.04,2.19 l -1.91,2.13 c -0.11,0.11 -0.11,0.13 -0.11,0.36 l 3.69,0 0.28,-1.72 -0.25,0 c -0.05,0.3 -0.12,0.73 -0.22,0.88 -0.07,0.08 -0.73,0.08 -0.95,0.08 z"
           inkscape:connector-curvature="0" />
        <path
           id="path5196"
           style="font-style:normal;font-variant:normal;font-weight:normal;font-stretch:normal;letter-spacing:normal;word-spacing:normal;text-anchor:start;fill:#0000ff;fill-opacity:1;fill-rule:evenodd;stroke:#000000;stroke-width:0;stroke-linecap:butt;stroke-linejoin:miter;stroke-miterlimit:10.43299961;stroke-opacity:1;stroke-dasharray:none;stroke-dashoffset:0"
           word-spacing="normal"
           stroke-miterlimit="10.433"
           letter-spacing="normal"
           font-weight="normal"
           font-variant="normal"
           font-style="normal"
           font-stretch="normal"
           font-size-adjust="none"
           d="m 200.21001,99.04221 0,-0.04 0,-0.04 0,-0.04 -0.01,-0.04 0,-0.03 -0.01,-0.04 0,-0.03 -0.01,-0.04 -0.01,-0.03 -0.01,-0.03 -0.01,-0.03 -0.01,-0.03 -0.01,-0.02 -0.01,-0.03 -0.01,-0.02 -0.02,-0.03 -0.01,-0.02 -0.01,-0.02 -0.02,-0.02 -0.01,-0.01 -0.02,-0.02 -0.02,-0.01 -0.01,-0.02 -0.02,-0.01 -0.02,-0.01 -0.02,-0.01 -0.02,-0.01 -0.02,0 -0.02,-0.01 -0.02,0 -0.02,-0.01 -0.02,0 c -0.26,0 -0.52,0.24 -0.52,0.47 0,0.1 0.05,0.21 0.14,0.3 0.17,0.15 0.35,0.42 0.35,0.83 0,0.4 -0.19,0.97 -0.49,1.42 -0.3,0.43 -0.67,0.77 -1.14,0.77 -0.56,0 -0.87,-0.36 -0.96,-0.9 0.11,-0.25 0.33,-0.89 0.33,-1.17 0,-0.12 -0.04,-0.22 -0.17,-0.22 -0.08,0 -0.19,0.02 -0.27,0.17 -0.11,0.2 -0.23,0.85 -0.23,1.2 -0.33,0.47 -0.73,0.92 -1.36,0.92 -0.65,0 -0.86,-0.59 -0.86,-1.14 0,-1.24 1.02,-2.29 1.02,-2.42 0,-0.11 -0.08,-0.19 -0.19,-0.19 -0.13,0 -0.2,0.13 -0.26,0.22 -0.51,0.74 -0.89,1.92 -0.89,2.82 0,0.69 0.23,1.42 1.05,1.42 0.7,0 1.17,-0.49 1.53,-1.04 0.09,0.58 0.48,1.04 1.09,1.04 0.78,0 1.26,-0.6 1.61,-1.35 0.24,-0.48 0.62,-1.83 0.62,-2.45 z"
           inkscape:connector-curvature="0" />
        <path
           id="path5198"
           style="font-style:normal;font-variant:normal;font-weight:normal;font-stretch:normal;letter-spacing:normal;word-spacing:normal;text-anchor:start;fill:#0000ff;fill-opacity:1;fill-rule:evenodd;stroke:#000000;stroke-width:0;stroke-linecap:butt;stroke-linejoin:miter;stroke-miterlimit:10.43299961;stroke-opacity:1;stroke-dasharray:none;stroke-dashoffset:0"
           word-spacing="normal"
           stroke-miterlimit="10.433"
           letter-spacing="normal"
           font-weight="normal"
           font-variant="normal"
           font-style="normal"
           font-stretch="normal"
           font-size-adjust="none"
           d="m 203.63001,100.25221 0,-0.07 -0.01,-0.08 0,-0.08 0,-0.08 -0.01,-0.17 -0.01,-0.17 -0.02,-0.18 -0.02,-0.19 -0.02,-0.2 -0.04,-0.2 -0.04,-0.2 -0.04,-0.21 -0.06,-0.21 -0.06,-0.21 -0.07,-0.21 -0.07,-0.21 -0.05,-0.11 -0.04,-0.11 -0.05,-0.1 -0.05,-0.11 c -0.6,-1.22 -1.45,-1.87 -1.55,-1.87 -0.06,0 -0.1,0.04 -0.1,0.1 0,0.03 0,0.05 0.19,0.23 0.97,0.99 1.54,2.57 1.54,4.64 0,1.7 -0.37,3.45 -1.6,4.7 -0.13,0.12 -0.13,0.14 -0.13,0.17 0,0.06 0.04,0.1 0.1,0.1 0.1,0 0.99,-0.68 1.58,-1.94 0.51,-1.09 0.63,-2.19 0.63,-3.03 z"
           inkscape:connector-curvature="0" />
      </g>
    </g>
    <path
       sodipodi:nodetypes="cc"
       inkscape:connector-curvature="0"
       id="path5589"
       d="m 274.75997,2.1371832 0,11.9999988"
       style="fill:none;stroke:#000000;stroke-width:1px;stroke-linecap:butt;stroke-linejoin:miter;stroke-opacity:1;marker-start:url(#Arrow2Sstart);marker-end:url(#Arrow1Send)" />
    <g
       transform="translate(44.759994,-1.2250268)"
       id="g5552">
      <rect
         style="fill:#ffffff;fill-opacity:1;stroke:none"
         id="rect5550"
         width="17"
         height="8"
         x="210.98499"
         y="5.2722101" />
      <g
         ns0:preamble="C:\\Program Files\\Inkscape\\share\\extensions\\default_packages.tex"
         ns0:text="$1\\mathrm{dB}$"
         word-spacing="normal"
         letter-spacing="normal"
         font-size-adjust="none"
         font-stretch="normal"
         font-weight="normal"
         font-variant="normal"
         font-style="normal"
         stroke-miterlimit="10.433"
         xml:space="preserve"
         transform="matrix(1,0,0,-1,61.829981,719.79221)"
         id="g5334"
         style="font-style:normal;font-variant:normal;font-weight:normal;font-stretch:normal;letter-spacing:normal;word-spacing:normal;text-anchor:start;fill:#000000;fill-opacity:1;fill-rule:evenodd;stroke:#000000;stroke-linecap:butt;stroke-linejoin:miter;stroke-miterlimit:10.43299961;stroke-opacity:1;stroke-dasharray:none;stroke-dashoffset:0"><path
           id="path5336"
           d="m 151.64,713.48 0,0.01 0,0.01 0,0.02 0,0.01 0,0 0,0.01 0,0.01 0,0.01 0,0.01 0,0.01 0,0.01 0,0.01 0,0 -0.01,0.01 0,0.01 0,0 0,0.01 0,0.01 0,0.01 0,0.01 -0.01,0.01 0,0.01 0,0.01 -0.01,0 0,0.01 -0.01,0.01 0,0 -0.01,0.01 -0.01,0 -0.01,0.01 0,0 -0.01,0 0,0 -0.01,0 0,0 -0.01,0 -0.01,0.01 0,0 -0.01,0 -0.01,0 0,0 -0.01,0 -0.01,0 -0.01,0 0,0 -0.01,0 -0.01,0 -0.01,0 -0.01,0 -0.01,0 -0.01,0 -0.01,0 c -0.62,-0.64 -1.49,-0.64 -1.81,-0.64 l 0,-0.3 c 0.2,0 0.78,0 1.3,0.25 l 0,-5.14 c 0,-0.36 -0.03,-0.48 -0.92,-0.48 l -0.32,0 0,-0.3 c 0.35,0.03 1.21,0.03 1.61,0.03 0.4,0 1.26,0 1.61,-0.03 l 0,0.3 -0.32,0 c -0.89,0 -0.92,0.11 -0.92,0.48 z"
           inkscape:connector-curvature="0"
           style="fill:#000000;stroke-width:0" /><path
           id="path5338"
           d="m 157.47,707.67 0,-0.65 1.47,0.11 0,0.3 c -0.7,0 -0.78,0.07 -0.78,0.56 l 0,6.03 -1.43,-0.11 0,-0.31 c 0.69,0 0.77,-0.07 0.77,-0.55 l 0,-2.15 c -0.29,0.36 -0.71,0.62 -1.25,0.62 l 0.04,-0.22 c 0.35,0 0.77,-0.15 1.08,-0.6 0.1,-0.17 0.1,-0.19 0.1,-0.37 l 0,0 0,-2.03 c 0,-0.18 0,-0.2 -0.1,-0.37 -0.3,-0.48 -0.75,-0.7 -1.18,-0.7 -0.45,0 -0.81,0.26 -1.04,0.64 -0.26,0.41 -0.29,0.97 -0.29,1.38 0,0.37 0.02,0.96 0.31,1.41 0.21,0.31 0.58,0.64 1.12,0.64 l -0.04,0.22 c -1.17,0 -2.22,-0.98 -2.22,-2.26 0,-1.26 0.98,-2.24 2.11,-2.24 0.64,0 1.09,0.33 1.33,0.65 z"
           inkscape:connector-curvature="0"
           style="fill:#000000;stroke-width:0" /><path
           id="path5340"
           d="m 163.79,710.67 0.08,0.02 0.09,0.02 0.09,0.03 0.08,0.02 0.09,0.03 0.08,0.03 0.07,0.04 0.08,0.03 0.07,0.04 0.08,0.04 0.06,0.04 0.07,0.04 0.07,0.05 0.06,0.05 0.06,0.05 0.05,0.05 0.06,0.05 0.05,0.05 0.04,0.06 0.05,0.05 0.04,0.06 0.04,0.06 0.03,0.06 0.03,0.06 0.03,0.07 0.03,0.06 0.02,0.07 0.02,0.06 0.01,0.07 0.01,0.06 0,0.07 0.01,0.07 c 0,0.86 -0.92,1.68 -2.21,1.68 l -0.07,-0.31 c 0.96,0 1.31,-0.84 1.31,-1.37 0,-0.64 -0.49,-1.47 -1.59,-1.47 l -1.44,0 0,-0.22 1.87,0 c 0.98,0 1.4,-0.92 1.4,-1.59 0,-0.7 -0.52,-1.52 -1.54,-1.52 l 0,0 -1.24,0 c -0.47,0 -0.49,0.07 -0.49,0.4 l 0,2.71 0,0.22 0,2.45 c 0,0.32 0.02,0.39 0.49,0.39 l 1.23,0 0.07,0.31 -3.64,0 0,-0.31 0.23,0 c 0.77,0 0.79,-0.11 0.79,-0.46 l 0,-5.24 c 0,-0.36 -0.02,-0.47 -0.79,-0.47 l -0.23,0 0,-0.3 3.9,0 c 1.32,0 2.22,0.88 2.22,1.81 0,0.87 -0.82,1.61 -1.92,1.73 z"
           inkscape:connector-curvature="0"
           style="fill:#000000;stroke-width:0" /></g>    </g>
    <g
       transform="translate(29.759994,-2.2250272)"
       id="g3236">
      <rect
         style="fill:#ffffff;fill-opacity:1;stroke:none"
         id="rect5559"
         width="26"
         height="9"
         x="234.99998"
         y="111.36221" />
      <path
         inkscape:connector-curvature="0"
         d="m 240.55998,112.82221 0.13,-0.14 c 0.3,-0.29 0.63,-0.63 1.31,-0.68 0.11,-0.01 0.2,-0.01 0.2,-0.19 0,-0.08 -0.05,-0.12 -0.13,-0.12 -0.26,0 -0.55,0.03 -0.82,0.03 -0.33,0 -0.67,-0.03 -0.99,-0.03 -0.06,0 -0.19,0 -0.19,0.19 0,0.11 0.1,0.12 0.15,0.12 0.07,0 0.36,0.02 0.36,0.23 0,0.16 -0.23,0.42 -0.27,0.47 l -2.31,2.66 -1.1,-2.96 c -0.05,-0.13 -0.05,-0.15 -0.05,-0.16 0,-0.24 0.48,-0.24 0.58,-0.24 0.14,0 0.24,0 0.24,-0.2 0,-0.11 -0.12,-0.11 -0.15,-0.11 -0.28,0 -0.97,0.03 -1.25,0.03 -0.25,0 -0.87,-0.03 -1.12,-0.03 -0.06,0 -0.19,0 -0.19,0.2 0,0.11 0.1,0.11 0.23,0.11 0.6,0 0.64,0.09 0.73,0.34 l 1.22,3.26 c 0.01,0.03 0.04,0.14 0.04,0.17 0,0.03 -0.39,1.63 -0.44,1.81 -0.13,0.55 -0.14,0.58 -0.94,0.59 -0.19,0 -0.27,0 -0.27,0.2 0,0.1 0.12,0.1 0.14,0.1 0.28,0 0.98,-0.03 1.25,-0.03 0.28,0 1,0.03 1.28,0.03 0.07,0 0.19,0 0.19,-0.19 0,-0.11 -0.09,-0.11 -0.28,-0.11 -0.02,0 -0.21,0 -0.38,-0.02 -0.21,-0.02 -0.27,-0.04 -0.27,-0.16 0,-0.07 0.09,-0.42 0.14,-0.63 l 0.35,-1.4 c 0.05,-0.19 0.06,-0.22 0.14,-0.31 z"
         font-size-adjust="none"
         font-stretch="normal"
         font-style="normal"
         font-variant="normal"
         font-weight="normal"
         letter-spacing="normal"
         stroke-miterlimit="10.433"
         word-spacing="normal"
         style="font-style:normal;font-variant:normal;font-weight:normal;font-stretch:normal;letter-spacing:normal;word-spacing:normal;text-anchor:start;fill:#ff0000;fill-opacity:1;fill-rule:evenodd;stroke:#000000;stroke-width:0;stroke-linecap:butt;stroke-linejoin:miter;stroke-miterlimit:10.43299961;stroke-opacity:1;stroke-dasharray:none;stroke-dashoffset:0"
         id="path5200" />
      <g
         id="g3230"
         transform="translate(-1.3499734,0)">
        <path
           id="path5202"
           style="font-style:normal;font-variant:normal;font-weight:normal;font-stretch:normal;letter-spacing:normal;word-spacing:normal;text-anchor:start;fill:#ff0000;fill-opacity:1;fill-rule:evenodd;stroke:#000000;stroke-width:0;stroke-linecap:butt;stroke-linejoin:miter;stroke-miterlimit:10.43299961;stroke-opacity:1;stroke-dasharray:none;stroke-dashoffset:0"
           word-spacing="normal"
           stroke-miterlimit="10.433"
           letter-spacing="normal"
           font-weight="normal"
           font-variant="normal"
           font-style="normal"
           font-stretch="normal"
           font-size-adjust="none"
           d="m 245.90998,120.86221 0,-0.01 0,0 0,0 0,-0.01 0,0 -0.01,0 0,-0.01 0,0 0,0 0,-0.01 0,0 -0.01,-0.01 0,0 0,-0.01 -0.01,0 0,-0.01 -0.01,-0.01 0,0 -0.01,-0.01 0,0 0,-0.01 -0.01,0 0,0 -0.01,-0.01 0,0 0,-0.01 -0.01,0 0,-0.01 -0.01,0 0,-0.01 -0.01,0 0,-0.01 -0.01,-0.01 -0.01,0 0,-0.01 -0.01,-0.01 -0.01,0 0,-0.01 -0.01,-0.01 -0.01,0 0,-0.01 -0.01,-0.01 c -1.25,-1.25 -1.56,-3.13 -1.56,-4.65 0,-1.73 0.37,-3.46 1.6,-4.7 0.13,-0.12 0.13,-0.14 0.13,-0.17 0,-0.07 -0.04,-0.1 -0.1,-0.1 -0.1,0 -1,0.68 -1.58,1.94 -0.51,1.09 -0.63,2.2 -0.63,3.03 0,0.78 0.11,1.98 0.66,3.1 0.59,1.22 1.45,1.87 1.55,1.87 0.06,0 0.1,-0.03 0.1,-0.1 z"
           inkscape:connector-curvature="0" />
        <path
           id="path5204"
           style="font-style:normal;font-variant:normal;font-weight:normal;font-stretch:normal;letter-spacing:normal;word-spacing:normal;text-anchor:start;fill:#ff0000;fill-opacity:1;fill-rule:evenodd;stroke:#000000;stroke-width:0;stroke-linecap:butt;stroke-linejoin:miter;stroke-miterlimit:10.43299961;stroke-opacity:1;stroke-dasharray:none;stroke-dashoffset:0"
           word-spacing="normal"
           stroke-miterlimit="10.433"
           letter-spacing="normal"
           font-weight="normal"
           font-variant="normal"
           font-style="normal"
           font-stretch="normal"
           font-size-adjust="none"
           d="m 249.36998,114.98221 0.08,-0.03 0.07,-0.03 0.08,-0.03 0.07,-0.03 0.07,-0.04 0.07,-0.04 0.06,-0.04 0.07,-0.04 0.06,-0.04 0.06,-0.05 0.06,-0.05 0.05,-0.05 0.06,-0.05 0.05,-0.05 0.05,-0.06 0.05,-0.05 0.04,-0.06 0.04,-0.06 0.04,-0.06 0.04,-0.06 0.04,-0.07 0.03,-0.06 0.03,-0.07 0.02,-0.06 0.03,-0.07 0.02,-0.07 0.02,-0.07 0.01,-0.07 0.01,-0.07 0.01,-0.07 0.01,-0.08 0,-0.07 c 0,-0.81 -0.88,-1.37 -1.83,-1.37 -1.01,0 -1.76,0.59 -1.76,1.35 0,0.33 0.21,0.52 0.5,0.52 0.31,0 0.51,-0.22 0.51,-0.51 0,-0.5 -0.47,-0.5 -0.62,-0.5 0.31,-0.48 0.97,-0.61 1.33,-0.61 0.4,0 0.95,0.22 0.95,1.11 0,0.12 -0.02,0.7 -0.28,1.13 -0.3,0.48 -0.63,0.51 -0.88,0.52 -0.08,0.01 -0.32,0.03 -0.39,0.03 -0.08,0.01 -0.15,0.02 -0.15,0.12 0,0.11 0.07,0.11 0.24,0.11 l 0.44,0 c 0.81,0 1.18,0.67 1.18,1.65 0,1.35 -0.69,1.64 -1.12,1.64 -0.43,0 -1.18,-0.17 -1.53,-0.76 0.35,0.05 0.66,-0.17 0.66,-0.55 0,-0.35 -0.27,-0.55 -0.56,-0.55 -0.24,0 -0.55,0.14 -0.55,0.57 0,0.91 0.92,1.56 2.01,1.56 1.21,0 2.12,-0.9 2.12,-1.91 0,-0.82 -0.63,-1.59 -1.67,-1.8 z"
           inkscape:connector-curvature="0" />
        <path
           id="path5206"
           style="font-style:normal;font-variant:normal;font-weight:normal;font-stretch:normal;letter-spacing:normal;word-spacing:normal;text-anchor:start;fill:#ff0000;fill-opacity:1;fill-rule:evenodd;stroke:#000000;stroke-width:0;stroke-linecap:butt;stroke-linejoin:miter;stroke-miterlimit:10.43299961;stroke-opacity:1;stroke-dasharray:none;stroke-dashoffset:0"
           word-spacing="normal"
           stroke-miterlimit="10.433"
           letter-spacing="normal"
           font-weight="normal"
           font-variant="normal"
           font-style="normal"
           font-stretch="normal"
           font-size-adjust="none"
           d="m 257.48998,114.78221 0,-0.04 0,-0.04 -0.01,-0.04 0,-0.04 0,-0.03 -0.01,-0.04 -0.01,-0.03 0,-0.04 -0.01,-0.03 -0.01,-0.03 -0.01,-0.03 -0.01,-0.03 -0.01,-0.02 -0.01,-0.03 -0.02,-0.02 -0.01,-0.03 -0.01,-0.02 -0.02,-0.02 -0.01,-0.02 -0.02,-0.01 -0.01,-0.02 -0.02,-0.01 -0.02,-0.02 -0.02,-0.01 -0.01,-0.01 -0.02,-0.01 -0.02,-0.01 -0.02,0 -0.02,-0.01 -0.02,0 -0.02,-0.01 -0.02,0 c -0.26,0 -0.53,0.24 -0.53,0.47 0,0.1 0.05,0.21 0.15,0.3 0.17,0.15 0.35,0.42 0.35,0.83 0,0.4 -0.19,0.97 -0.5,1.42 -0.29,0.43 -0.66,0.77 -1.13,0.77 -0.57,0 -0.88,-0.36 -0.97,-0.9 0.11,-0.25 0.34,-0.89 0.34,-1.17 0,-0.12 -0.05,-0.22 -0.18,-0.22 -0.08,0 -0.19,0.02 -0.27,0.17 -0.11,0.2 -0.22,0.85 -0.22,1.2 -0.33,0.47 -0.73,0.92 -1.36,0.92 -0.65,0 -0.86,-0.59 -0.86,-1.14 0,-1.24 1.01,-2.29 1.01,-2.42 0,-0.11 -0.08,-0.19 -0.19,-0.19 -0.13,0 -0.2,0.13 -0.26,0.22 -0.5,0.74 -0.88,1.92 -0.88,2.82 0,0.69 0.23,1.42 1.04,1.42 0.71,0 1.18,-0.49 1.53,-1.04 0.1,0.58 0.48,1.04 1.1,1.04 0.78,0 1.25,-0.6 1.61,-1.35 0.24,-0.48 0.62,-1.83 0.62,-2.45 z"
           inkscape:connector-curvature="0" />
        <path
           id="path5208"
           style="font-style:normal;font-variant:normal;font-weight:normal;font-stretch:normal;letter-spacing:normal;word-spacing:normal;text-anchor:start;fill:#ff0000;fill-opacity:1;fill-rule:evenodd;stroke:#000000;stroke-width:0;stroke-linecap:butt;stroke-linejoin:miter;stroke-miterlimit:10.43299961;stroke-opacity:1;stroke-dasharray:none;stroke-dashoffset:0"
           word-spacing="normal"
           stroke-miterlimit="10.433"
           letter-spacing="normal"
           font-weight="normal"
           font-variant="normal"
           font-style="normal"
           font-stretch="normal"
           font-size-adjust="none"
           d="m 260.89998,115.99221 0,-0.07 0,-0.08 0,-0.08 0,-0.08 -0.01,-0.17 -0.01,-0.17 -0.02,-0.18 -0.02,-0.19 -0.03,-0.2 -0.03,-0.2 -0.04,-0.2 -0.05,-0.21 -0.05,-0.21 -0.06,-0.21 -0.07,-0.21 -0.08,-0.21 -0.04,-0.11 -0.05,-0.11 -0.04,-0.1 -0.05,-0.11 c -0.6,-1.22 -1.46,-1.87 -1.56,-1.87 -0.06,0 -0.09,0.04 -0.09,0.1 0,0.03 0,0.05 0.18,0.23 0.98,0.99 1.55,2.57 1.55,4.64 0,1.7 -0.37,3.45 -1.61,4.7 -0.12,0.12 -0.12,0.14 -0.12,0.17 0,0.06 0.03,0.1 0.09,0.1 0.1,0 1,-0.68 1.59,-1.94 0.5,-1.09 0.62,-2.19 0.62,-3.03 z"
           inkscape:connector-curvature="0" />
      </g>
    </g>
    <text
       sodipodi:linespacing="100%"
       id="text3200"
       y="115.13717"
       x="364.75998"
       style="font-size:10px;font-style:normal;font-variant:normal;font-weight:normal;font-stretch:normal;line-height:100%;letter-spacing:0px;word-spacing:0px;fill:#000000;fill-opacity:1;stroke:none;font-family:Arial;-inkscape-font-specification:Arial"
       xml:space="preserve"><tspan
         style="text-align:center;line-height:100%;text-anchor:middle"
         y="115.13717"
         x="364.75998"
         id="tspan3202"
         sodipodi:role="line">Input signal</tspan><tspan
         style="text-align:center;line-height:100%;text-anchor:middle"
         id="tspan3204"
         y="125.13717"
         x="364.75998"
         sodipodi:role="line">Magnitude [dB]</tspan></text>
    <path
       inkscape:connector-curvature="0"
       sodipodi:nodetypes="cc"
       id="path8288-4-9-4-2"
       d="m 25.122816,28.89988 86.238724,0"
       style="fill:none;stroke:#000000;stroke-width:0.99999994;stroke-linecap:round;stroke-linejoin:round;stroke-miterlimit:4;stroke-opacity:1;stroke-dasharray:none;marker-end:url(#marker51949)" />
    <path
       inkscape:connector-curvature="0"
       sodipodi:nodetypes="cc"
       id="path8288-4-9-48-2"
       d="m 25.000011,28.89988 0,-49.300308"
       style="fill:none;stroke:#000000;stroke-width:0.99999994;stroke-linecap:round;stroke-linejoin:round;stroke-miterlimit:4;stroke-opacity:1;stroke-dasharray:none;marker-end:url(#marker51949)" />
    <path
       sodipodi:nodetypes="cc"
       inkscape:connector-curvature="0"
       id="path8669"
       d="m 45.00001,28.89988 0,-29.999999"
       style="fill:none;stroke:#ff6400;stroke-width:1.99999988;stroke-linecap:butt;stroke-linejoin:miter;stroke-miterlimit:4;stroke-opacity:1;stroke-dasharray:none;marker-end:url(#marker8646g)" />
    <text
       sodipodi:linespacing="100%"
       id="text10048"
       y="-20.362814"
       x="30.000011"
       style="font-size:12px;font-style:normal;font-variant:normal;font-weight:normal;font-stretch:normal;line-height:100%;letter-spacing:0px;word-spacing:0px;fill:#000000;fill-opacity:1;stroke:none;font-family:Arial;-inkscape-font-specification:Arial"
       xml:space="preserve"><tspan
         style="font-size:10px;line-height:100%"
         y="-20.362814"
         x="30.000011"
         id="tspan10050"
         sodipodi:role="line">Input signal </tspan><tspan
         style="font-size:10px;line-height:100%"
         y="-10.362814"
         x="30.000011"
         sodipodi:role="line"
         id="tspan4648">Magnitude</tspan></text>
    <text
       sodipodi:linespacing="125%"
       id="text10044-2"
       y="39.637184"
       x="90.000008"
       style="font-size:12px;font-style:normal;font-variant:normal;font-weight:normal;font-stretch:normal;line-height:125%;letter-spacing:0px;word-spacing:0px;fill:#000000;fill-opacity:1;stroke:none;font-family:Arial;-inkscape-font-specification:Arial"
       xml:space="preserve"><tspan
         style="font-size:10px"
         y="39.637184"
         x="90.000008"
         id="tspan10046-7"
         sodipodi:role="line">Frequency</tspan></text>
    <path
       style="fill:none;stroke:#000000;stroke-width:0.99999988;stroke-linecap:round;stroke-linejoin:round;stroke-miterlimit:4;stroke-opacity:1;stroke-dasharray:none;marker-end:url(#marker51949)"
       d="m 24.82296,119.63718 86.23872,0"
       id="path8288-4-9-4-2-4"
       sodipodi:nodetypes="cc"
       inkscape:connector-curvature="0" />
    <path
       style="fill:none;stroke:#000000;stroke-width:0.99999988;stroke-linecap:round;stroke-linejoin:round;stroke-miterlimit:4;stroke-opacity:1;stroke-dasharray:none;marker-end:url(#marker51949)"
       d="m 24.700155,119.63718 0,-49.300306"
       id="path8288-4-9-48-2-5"
       sodipodi:nodetypes="cc"
       inkscape:connector-curvature="0" />
    <path
       style="fill:none;stroke:#006400;stroke-width:1.99999976;stroke-linecap:butt;stroke-linejoin:miter;stroke-miterlimit:4;stroke-opacity:1;stroke-dasharray:none;marker-end:url(#marker8646gb)"
       d="m 44.822959,119.63718 0,-29.999997"
       id="path8669-5"
       inkscape:connector-curvature="0"
       sodipodi:nodetypes="cc" />
    <text
       xml:space="preserve"
       style="font-size:12px;font-style:normal;font-variant:normal;font-weight:normal;font-stretch:normal;line-height:100%;letter-spacing:0px;word-spacing:0px;fill:#000000;fill-opacity:1;stroke:none;font-family:Arial;-inkscape-font-specification:Arial"
       x="30.000011"
       y="69.637184"
       id="text10048-1"
       sodipodi:linespacing="100%"><tspan
         sodipodi:role="line"
         id="tspan10050-7"
         x="30.000011"
         y="69.637184"
         style="font-size:10px;line-height:100%">Output signal </tspan><tspan
         sodipodi:role="line"
         x="30.000011"
         y="79.637184"
         style="font-size:10px;line-height:100%"
         id="tspan4646">Magnitude</tspan></text>
    <text
       xml:space="preserve"
       style="font-size:12px;font-style:normal;font-variant:normal;font-weight:normal;font-stretch:normal;line-height:125%;letter-spacing:0px;word-spacing:0px;fill:#000000;fill-opacity:1;stroke:none;font-family:Arial;-inkscape-font-specification:Arial"
       x="90.000008"
       y="129.63718"
       id="text10044-2-1"
       sodipodi:linespacing="125%"><tspan
         sodipodi:role="line"
         id="tspan10046-7-1"
         x="90.000008"
         y="129.63718"
         style="font-size:10px">Frequency</tspan></text>
    <path
       style="fill:none;stroke:#0000ff;stroke-width:1.99999964;stroke-linecap:butt;stroke-linejoin:miter;stroke-miterlimit:4;stroke-opacity:1;stroke-dasharray:none;marker-end:url(#marker8646g6)"
       d="m 64.822961,119.63718 0,-19.999996"
       id="path8669-5-1"
       inkscape:connector-curvature="0"
       sodipodi:nodetypes="cc" />
    <path
       style="fill:none;stroke:#ff0000;stroke-width:1.99999952;stroke-linecap:butt;stroke-linejoin:miter;stroke-miterlimit:4;stroke-opacity:1;stroke-dasharray:none;marker-end:url(#marker8646gm)"
       d="m 84.822961,119.63718 0,-15"
       id="path8669-5-1-2"
       inkscape:connector-curvature="0"
       sodipodi:nodetypes="cc" />
  </g>
</svg>
